54 angstroem
free
N -28.459188322468176 -4.05610228559815 36.83951261056402
N -31.92168945041636 -2.2182100762820918 35.44855982877443
C -28.654601294336853 -3.8561744310674384 35.708103293487255
C -31.07062182794023 -2.575862395811933 34.73723583837255
C -27.890858903968002 -4.02607506477462 33.39814194368315
C -28.862084505994304 -3.6218675695091 34.31808795077399
C -30.04917937951229 -3.0063801016192073 33.84204362122648
C -30.203325406166883 -2.799673150846915 32.46850325479978
C -29.224351613519065 -3.1876493176246545 31.544363994796978
C -28.04943348894736 -3.8368797392922684 32.019081902602764
H -27.000835960546226 -4.539891128383477 33.75703495970363
H -31.09182884618427 -2.2862347391901503 32.105331801214994
N -26.979658313866587 -4.411188152037257 31.171019126877006
C -26.255045733465327 -3.7720536584260094 30.147872457628065
C -26.264796789257083 -2.4313630288261643 29.75647192675317
C -25.473615851344395 -2.069367033068872 28.664881305603938
C -24.70061059505953 -3.0177892272142968 27.976006761409373
C -24.706843720227504 -4.356288408655442 28.363139910716985
C -25.488062299985447 -4.745389985270585 29.457110446980664
H -26.86514993915593 -1.6843503160925413 30.274319939268196
H -25.45922310393003 -1.0280376113280454 28.343929047340104
H -24.09367136484395 -2.7013443385311433 27.12832800655129
H -24.114527563188158 -5.092190210850579 27.818869609166526
C -26.64978437481935 -5.778778771093119 31.160118782363405
C -27.036616786944034 -6.792524556556428 32.03705978315834
C -26.526740674867245 -8.071403050969126 31.812290120422734
C -25.64394342550955 -8.331849632975176 30.751703018023235
C -25.236069781477624 -7.308340163967524 29.899466429970413
C -25.73375717327345 -6.016211599854043 30.102679972013064
H -27.707787548405527 -6.607828234024445 32.87339303030024
H -26.820825576391453 -8.881704247517357 32.478992259938956
H -25.26631463756354 -9.343141984587438 30.603993230651593
H -24.531960746424257 -7.507855788154377 29.09135783486263
N -29.55176705290495 -3.0359347820467395 30.142176476983888
C -29.60993862799749 -1.7907478841705362 29.489865927051547
C -29.563458168325944 -0.5039266368410783 30.026795673500956
C -29.680078834273665 0.5697853593514369 29.143870558213116
C -29.853002327018704 0.36851284030211545 27.764890201195126
C -29.931627191831613 -0.9190945709194105 27.239453263040087
C -29.816466755372325 -2.013741326927957 28.103779887911493
H -29.445044874758256 -0.32730294339860816 31.09394572198209
H -29.638335729658834 1.584727141223654 29.538475795794493
H -29.938552911494433 1.230119675504878 27.103492488463274
H -30.089906928083686 -1.0730892177590157 26.171817666239228
C -29.75158358589649 -4.047842422068104 29.184691645479933
C -29.757424950970254 -5.435169981612971 29.34599626257062
C -29.935208788223612 -6.219375962419732 28.204923057157476
C -30.09391071023492 -5.638679985384132 26.936399162315485
C -30.07266768960677 -4.254180862178292 26.780906024159727
C -29.900267543100316 -3.444535539555467 27.909260318572844
H -29.627075683261275 -5.902377077213275 30.321355371611244
H -29.949906141545917 -7.30438646133807 28.305528606274635
H -30.23126602246149 -6.279978746949489 26.066371713220875
H -30.184511482978998 -3.8067806155992048 25.793003178261998
