54 angstroem
free
N -12.076183694710844 2.827879281588032 37.10848801248175
N -15.660178732545425 1.2234224044447346 38.480424298699155
C -13.063293746412704 2.8729063699760466 36.49056348108625
C -15.563145188686097 1.7521517587405089 37.446382297479865
C -14.221328160513101 3.561643787510642 34.457662311029964
C -14.254672758277563 2.9478289119322447 35.712685403065
C -15.474825698827082 2.38909502507425 36.17494129637676
C -16.61482890763232 2.489522823735173 35.37281360055491
C -16.589696386183235 3.119434341380061 34.12160282659985
C -15.357628068627953 3.6486255186459657 33.64279786564211
H -13.276443529387194 3.9496318236294727 34.0813508686333
H -17.561775128196476 2.102857953342871 35.745283738351226
N -14.926841309212328 4.148449484192078 32.302592112295194
C -14.415837078054853 5.406785640831773 31.934013501918688
C -14.26097346239814 6.562628601151981 32.70263898586973
C -13.765231217761611 7.702036125824766 32.0665819277032
C -13.44085502280918 7.693689585576316 30.700455893383896
C -13.611434432292661 6.54097303905634 29.936493712186337
C -14.102801367855584 5.383348312034299 30.55044612607449
H -14.515741194722185 6.588866566423134 33.761422926714026
H -13.629373443393435 8.61480941391238 32.64621289439091
H -13.05551816004367 8.600413864233301 30.23522643078062
H -13.369568734284169 6.541217850054311 28.873422229308453
C -14.905600453028756 3.3126078372223695 31.171151746335855
C -15.221481183436774 1.9581373642360207 31.06172390045059
C -15.076086322882283 1.359314503214396 29.81020611389447
C -14.61484353094891 2.085290820643126 28.700151214013196
C -14.27008850056499 3.4291983470984473 28.82382932049066
C -14.407636075653572 4.054099986406249 30.06848321438956
H -15.566173250011213 1.3748096168850867 31.913165232125106
H -15.324441183911528 0.30421526705732993 29.697728711135362
H -14.514989447152132 1.586430529377956 27.7366671845927
H -13.889484629582057 3.984677244568382 27.966391621946958
N -17.683706016810593 3.0964882412513184 33.25734821300496
C -18.5603175093167 4.196469508316195 33.288603607049936
C -18.323909944031648 5.5090619167002135 33.69796352309043
C -19.39552254661766 6.40135713196249 33.65961944272944
C -20.672190723394625 5.994956331302193 33.23895717684778
C -20.909257901669704 4.6748862686911234 32.86290814605539
C -19.85073727540495 3.7598465101798597 32.89137365400521
H -17.345730936769726 5.83968554126393 34.041301129222546
H -19.233623532011176 7.434361747567575 33.966625589422854
H -21.486308136210997 6.7188076465381394 33.21935393835106
H -21.906649969851493 4.355827472734882 32.55955498426105
C -18.41536291244512 1.9572020505275087 32.873465308922206
C -17.97941156134922 0.6442705898260123 32.68140162809914
C -18.918539308360923 -0.29350169375761587 32.248670311727736
C -20.25337408299168 0.06765013638298346 32.00508773927426
C -20.678012050313 1.3824799331228834 32.18501107408885
C -19.757715018025927 2.3417378756622997 32.622399168027904
H -16.94579507755986 0.3488132490078811 32.85730136532366
H -18.60445882956956 -1.3260318636556117 32.097606839758264
H -20.960966778279374 -0.6894412458404291 31.668630368870925
H -21.712408889015993 1.6620726522161733 31.98381679186636
