54 angstroem
free
N 38.988625154875116 -0.19838775193034705 16.720606712577904
N 37.001894518307786 1.809339981261114 19.774037930466058
C 39.50954307234614 0.10320091497874125 17.7185712503294
C 38.1245515220829 1.5053989631330666 19.84802582398572
C 41.52290806551312 0.13031833326820577 19.094694846408
C 40.17363773088858 0.4544406676814105 18.929232458962126
C 39.49948837500633 1.150904886379062 19.966101545970684
C 40.197030801870326 1.4719551641003348 21.13377580754124
C 41.545007945740686 1.1334484792036286 21.310748710666704
C 42.23056158090073 0.4661036100403195 20.256255054556075
H 42.0540253258527 -0.3625162769885293 18.282303015645024
H 39.669733906615605 1.964793028872992 21.94864984289106
N 43.5727539148755 0.2985756951088876 20.16614876971829
C 44.227349962386306 -0.9250563485557421 19.93245230912245
C 43.68786732680716 -2.1789766157097206 19.636845691327615
C 44.57368193472073 -3.2486952213855567 19.496799103652084
C 45.95817893176218 -3.0767335068250077 19.655503722802045
C 46.48817847362388 -1.8256978085534878 19.964536331336294
C 45.622544842121314 -0.7352529465110478 20.10624892553086
H 42.615768851673025 -2.3316419896785043 19.518877030866776
H 44.177851312495434 -4.23601442945859 19.259937608839923
H 46.621777099223856 -3.9329346351529626 19.538760550935045
H 47.56258657192785 -1.6979989994226214 20.098552397384875
C 44.5454048702056 1.2744973151638668 20.450343852552884
C 44.39377650432074 2.6462670125214482 20.654309750586425
C 45.546619068626654 3.3969408345469727 20.88554142937256
C 46.81809445179073 2.800976598575704 20.89915711074621
C 46.965381474994935 1.4362570357117013 20.66233060844535
C 45.824428633527624 0.6602655038955138 20.428560495049165
H 43.41887925930718 3.129123616863257 20.632836879771645
H 45.453075005361036 4.469240270527726 21.05580337195113
H 47.697395294698524 3.416989561797133 21.08487722275674
H 47.95541321554967 0.9798690565410324 20.649575837251636
N 41.98441394170446 1.1169872851996892 22.67554037807702
C 42.56482866137831 0.0458241505682772 23.379182111160617
C 42.845975986564454 -1.2510634650834025 22.948599247774233
C 43.39708815203097 -2.135235318277464 23.876246866643623
C 43.648368763790536 -1.7438598492553725 25.201268859936768
C 43.33473455477097 -0.4573672252752626 25.63343665391803
C 42.7817885224689 0.4494960660816071 24.722160835530474
H 42.644807923105006 -1.5779334254965123 21.930407565243083
H 43.63315107418008 -3.151441034822085 23.561345549803008
H 44.081637944877436 -2.459662827542993 25.899148569037163
H 43.508393906283715 -0.1629531758201932 26.668702509065998
C 41.80187080562365 2.1880500309539075 23.570058974573342
C 41.28560523074606 3.4642836409320656 23.334625995847258
C 41.25988230232628 4.36034134637182 24.404697532105
C 41.74318063586355 3.998874996528186 25.672495539798394
C 42.27010235614007 2.728586694771407 25.896523072073744
C 42.30378093918016 1.8093536198252067 24.841863373568884
H 40.914521816897775 3.7640731476136193 22.355329235406177
H 40.85589979470419 5.36025483670183 24.24799266025254
H 41.70772055746297 4.722443710040169 26.48629480572742
H 42.65524612990043 2.4549467959854985 26.879077664457196
