54 angstroem
free
N -24.72155179400024 -25.901424115465105 41.47911533797869
N -24.68301620666137 -29.050846673405342 44.195945114634
C -25.650416454306104 -26.578742335449846 41.670674443926394
C -25.6233901569669 -28.776956455520413 43.56436449337711
C -27.97212320597712 -27.12648877114229 41.162991764292066
C -26.80444645029098 -27.3863099903626 41.88547875621353
C -26.787720964407697 -28.46910537684628 42.80303620656101
C -27.946772470931403 -29.23044683525049 42.97641639047672
C -29.124751130229356 -28.962399970283332 42.266863206439616
C -29.13057698159642 -27.89840216297586 41.320731842749545
H -27.972954961007293 -26.32604032396234 40.42526988202293
H -27.950277223625115 -30.031836989336114 43.71310656132836
N -30.415020612841733 -27.510461173424734 40.67849956753909
C -30.967598269665864 -26.22595424559661 40.52011621950346
C -30.55106120221595 -25.006886808673578 41.059664436652916
C -31.318726627098467 -23.87631304693117 40.77493434280744
C -32.47463744316815 -23.958472899664187 39.982022073938474
C -32.89225891953157 -25.180513897600555 39.45885949146194
C -32.13836863291093 -26.329011427556516 39.72546200442937
H -29.661813461216372 -24.926853827597736 41.68372504165226
H -31.010975470111347 -22.91218705599371 41.17908130471341
H -33.05066984171964 -23.056312940623048 39.77863585929246
H -33.796670451030955 -25.242756604971518 38.85323115610781
C -31.20526040605411 -28.424907135783123 39.958395834974986
C -31.007302685378125 -29.788124680315764 39.73749762630588
C -31.94006955997027 -30.456832427069276 38.94452778985586
C -33.03299138496554 -29.784080793581836 38.37449662279807
C -33.2066939314698 -28.416240736790368 38.57218513797981
C -32.285448030987126 -27.721926764799676 39.36453531874738
H -30.15884280244289 -30.324163415952345 40.15799081747455
H -31.811441974433098 -31.523852401013926 38.76428067972771
H -33.74367450482484 -30.33786219925351 37.76180619437618
H -34.04248478796329 -27.891283516806798 38.10905547966097
N -30.14779521856896 -29.637617643152574 42.839292617345436
C -31.16086998270644 -29.117267450023363 43.66530629466713
C -31.50228731388296 -27.789248417032084 43.922527138140715
C -32.54024888365183 -27.55128478117655 44.82365070202817
C -33.21118426709724 -28.606243946200753 45.46310895530312
C -32.84335558267613 -29.928767668587334 45.226821517171146
C -31.805681444409533 -30.19476568429289 44.326237595795405
H -30.984710818682508 -26.957649542066513 43.448623407490594
H -32.83079990934284 -26.522372844482046 45.03456046684941
H -34.01892084990187 -28.384381415182858 46.15986630582669
H -33.349527164490716 -30.74518064031392 45.74245004923613
C -30.123482359295927 -31.036136453192423 42.9949041342368
C -29.312027531444002 -31.985767768290785 42.37002615714545
C -29.5327630368428 -33.32946698780053 42.67724337244876
C -30.539799398558728 -33.71804625891085 43.57525835329585
C -31.35510426609775 -32.76613973020541 44.184043321631805
C -31.152236657517495 -31.411593309584912 43.89685087665089
H -28.532035658369544 -31.702376398570106 41.66440529374522
H -28.90842826669156 -34.08916720652035 42.20751265817927
H -30.684988263040747 -34.775595994796 43.79340301933165
H -32.14375112673048 -33.07193285961775 44.871905763480534
