54 angstroem
free
N 11.19634230213835 -13.950831164893795 10.519882421983304
N 14.870713045592211 -12.334542067628336 9.429872940838116
C 11.523266308357618 -12.87285008857677 10.818750139577286
C 14.08705940701456 -11.745672572519387 10.06021633256016
C 11.00975044150636 -10.778502750477362 11.958092398802833
C 11.892031533757505 -11.549396392640443 11.19634008213341
C 13.151003550570707 -11.002190461789972 10.835518248426114
C 13.463741997722861 -9.698884508800436 11.231359322355374
C 12.574969351110514 -8.91644677586394 11.980240448615206
C 11.326687808563392 -9.478160864603034 12.37210816214299
H 10.063223344232668 -11.212670246870484 12.275168136112246
H 14.409210909433247 -9.260852105336047 10.916451366452973
N 10.466480418294182 -8.753243969282403 13.275464943601557
C 9.695661627503469 -7.611514556505387 12.987927573580768
C 9.359654160228494 -7.0545659984413875 11.751946947292105
C 8.611810982652168 -5.875878772877592 11.754285255860752
C 8.216757293084891 -5.263344361295562 12.954420289604064
C 8.567792703411817 -5.81684956945925 14.184012543602556
C 9.31368244953318 -7.000674173789205 14.210124481685929
H 9.66520748957281 -7.511978161864222 10.81171839139502
H 8.33160726916423 -5.425063771699946 10.80253099056606
H 7.632981417593024 -4.344037473628092 12.920472658361586
H 8.26936470347131 -5.332408788048411 15.114000668081198
C 10.545681619046983 -8.894257980396269 14.67299202848097
C 11.116884304115205 -9.91648860404903 15.431356977649504
C 11.02065357744389 -9.822655768318034 16.819867078659613
C 10.360993991591428 -8.747618125894137 17.437241928724724
C 9.764460969741057 -7.747204502462732 16.673330493704253
C 9.847445639690319 -7.817214000659966 15.27805384567505
H 11.619213281501398 -10.765189818206695 14.971565644066542
H 11.466267049582054 -10.604842097313494 17.434015986864367
H 10.306232330220137 -8.704831653657674 18.524580138040406
H 9.232166722557926 -6.926137852150524 17.154088134502985
N 12.567639063653719 -7.298338942454101 12.268465053246903
C 12.787634029462927 -6.396950536839053 11.210880752311178
C 12.178371543763866 -6.332796152431499 9.957466875408128
C 12.618475534342194 -5.346791187441629 9.074224396701286
C 13.64759385785966 -4.457367170314205 9.42328081086177
C 14.274229629327536 -4.5480206529139595 10.663969428842362
C 13.850726697309943 -5.527915933762897 11.568969133908395
H 11.389789032316983 -7.022172375156959 9.6626365694133
H 12.152102281259133 -5.271367449833552 8.092201052012657
H 13.965263623339544 -3.6977742936900797 8.709672544891548
H 15.089173609775939 -3.872010398562681 10.923755953632321
C 13.50467258855273 -7.028458062001468 13.28325242256718
C 13.666048582887655 -7.639076419222376 14.528978744353253
C 14.658639138495397 -7.137506348824544 15.372676336285865
C 15.46284253312145 -6.051823374894742 14.990450787988298
C 15.286674858883208 -5.438273785093284 13.751907669843181
C 14.301383860076404 -5.924169485087103 12.884994877759228
H 13.045229790246827 -8.476562585066766 14.844889716121102
H 14.808479887797494 -7.601040981978376 16.34749358335651
H 16.229077534906953 -5.685509031750051 15.672928677450972
H 15.904952322620375 -4.58807483268065 13.46290461304457
