54 angstroem
free
N -1.3334024443907424 -21.178590048442526 3.185127436907644
N -0.983285857695845 -24.77746034051848 1.1291453183546778
C -2.0054833900003124 -21.44999760803942 2.272499605586404
C -1.760313659345985 -23.959531143582105 0.8368565514215799
C -3.8003248728081775 -20.823120165771865 0.74486783525122
C -2.8454796833349034 -21.754130700954523 1.1625442324072226
C -2.7176091835294316 -22.97662205883789 0.45275462925956267
C -3.5663820825765233 -23.225839753792684 -0.6291774414358144
C -4.5366693227147294 -22.302539917351748 -1.040284055601091
C -4.640985467934603 -21.061483392892324 -0.3502212491838253
H -3.8687553798275354 -19.865887064278574 1.2586518746126587
H -3.5013086558412088 -24.181796805537875 -1.1457647375802391
N -5.659180304433306 -19.996979354571696 -0.7243638290780378
C -6.776598163878035 -19.56860063634558 0.016078201441290654
C -7.434041829025241 -20.197054058068765 1.0760569497363928
C -8.560419769591968 -19.56515743413369 1.6057340714868007
C -9.025034362625908 -18.3452392532741 1.0885079756843221
C -8.372537390066439 -17.73108089889108 0.02148023358804703
C -7.2380858201932465 -18.341213966724894 -0.5255401642440524
H -7.092130100518869 -21.14760205615048 1.4837005868724382
H -9.08720617199462 -20.032361239623018 2.4374799210260876
H -9.90710453190137 -17.87853748085137 1.5257876805391928
H -8.742741841483305 -16.78974952072218 -0.38529237382242243
C -5.383495599815192 -19.031298303174815 -1.7096037922927327
C -4.3257373396100895 -18.965293763818348 -2.616872338668208
C -4.27387199133378 -17.863212698118403 -3.4705423947776857
C -5.240757987380562 -16.84642127693908 -3.4133140469677805
C -6.275911921412613 -16.902231976660598 -2.482947859214438
C -6.351337502407485 -17.99782283273388 -1.6154362641102546
H -3.558559860180833 -19.735357675995207 -2.666636875157495
H -3.4616043213175587 -17.793306282787178 -4.193660660768434
H -5.1708707996285534 -16.000538389261575 -4.096491787034671
H -7.011772391201041 -16.099944901154135 -2.424123234238369
N -5.219874649959351 -22.684167530088725 -2.3065582897188954
C -6.625935388484125 -22.71446601590099 -2.344749881476676
C -7.5401562685367045 -22.84262161762625 -1.29873877610811
C -8.895755125507943 -22.88075900438695 -1.625712579965825
C -9.329758648779826 -22.807989554921164 -2.9592588053817646
C -8.4102277774413 -22.71332174087041 -4.00122793756153
C -7.044142014809218 -22.67214922780357 -3.700082666423472
H -7.223227716159082 -22.915462879749146 -0.26033745370319683
H -9.62955361016421 -22.972026249912705 -0.8252298039426281
H -10.396545895664653 -22.838537571218634 -3.17872170421291
H -8.748260515700126 -22.681107059853307 -5.037234055261525
C -4.740909867477038 -22.654862864843256 -3.629583193145528
C -3.4262677899497347 -22.596430249149833 -4.097592697249166
C -3.232447004106643 -22.529812991173074 -5.478400365662217
C -4.317952369086071 -22.51276885415235 -6.36886911276938
C -5.627245883300553 -22.556831009150827 -5.894236387149393
C -5.849587329165663 -22.62829598091849 -4.514421975012077
H -2.572941008819259 -22.59998596338648 -3.4205258210383844
H -2.215771423757121 -22.48982335737903 -5.868729540821913
H -4.131335122945978 -22.460901713451992 -7.4410454735976
H -6.4681045901854235 -22.531679564062724 -6.5877434797977905
