54 angstroem
free
N -5.753305566902038 -42.76696422890991 6.354893497676483
N -7.785059532200123 -43.195583410644936 2.7507607452907417
C -5.499617857977519 -42.1333707793373 5.410199734407548
C -6.915385535134551 -42.43336397396541 2.8953351835204875
C -4.132942256020305 -40.40591716118608 4.363207901621635
C -5.168306943774959 -41.34026069368792 4.2738454271412
C -5.8528057590390326 -41.495270191600476 3.04012313545011
C -5.488685136803182 -40.69232990479234 1.9557777257592608
C -4.462946725213566 -39.74226418784175 2.0462454494074978
C -3.7529343798852595 -39.61166049147513 3.273484210135859
H -3.5760747265249537 -40.3179788049022 5.294399280488396
H -6.042935580524535 -40.77703517165661 1.0227277091007865
N -2.6316323071635295 -38.68562774397553 3.6414970480143793
C -2.781137759631772 -37.29261092282499 3.50906723615695
C -3.9440153666729643 -36.5345533058121 3.3547780813665873
C -3.801817141045434 -35.15491301833829 3.196819848123572
C -2.5359891599552222 -34.54737620801399 3.1838403018687242
C -1.3793648658485373 -35.311627687924876 3.323950628386962
C -1.4937967766481988 -36.69669494139037 3.488170242516158
H -4.933230263732908 -36.99070198261879 3.353921502667115
H -4.694538815307102 -34.54074538665563 3.0809293811186294
H -2.460633193303862 -33.46763642997502 3.0591191801751085
H -0.397561430782696 -34.838140443528545 3.3017718592457985
C -1.2589353079355172 -38.97651145399827 3.7431304581533373
C -0.6249718272257571 -40.19630458071798 3.9809126791535
C 0.7671088437303786 -40.194777548898976 4.071103189453938
C 1.5079932048339488 -39.00879090671417 3.942516816304794
C 0.8666358287774316 -37.78936768519257 3.7378036812794035
C -0.5293780133407506 -37.76354090996465 3.64260368067134
H -1.1820990315549633 -41.123601931195026 4.098237548073627
H 1.285713479855264 -41.13671391537563 4.248221269180587
H 2.5944648167132933 -39.04423348746551 4.016389431328227
H 1.4421850862389007 -36.86652150941909 3.6622159367612848
N -4.246312725319654 -39.04912668718964 0.9494091000627913
C -5.154423271565413 -38.1405855909972 0.37558708177576755
C -6.3857557326027665 -37.69323951092322 0.855237749835542
C -7.107963250325823 -36.807126145087004 0.055716646967987796
C -6.624690228266678 -36.38843158093389 -1.1945401404191172
C -5.409889469931145 -36.86458279762534 -1.6821238021304894
C -4.665193329329941 -37.753852754224276 -0.8990525643166426
H -6.784303386367521 -38.01748617789364 1.814430498864271
H -8.068838090882716 -36.43711368921613 0.4126100823022219
H -7.213932030322358 -35.69370568844289 -1.7922710233354502
H -5.0479145600488415 -36.556936097517074 -2.6634190004514684
C -3.1991355704173348 -39.26677850322103 0.034691321412212796
C -2.0597044760629437 -40.06445077464849 0.16176133017718136
C -1.1463630439878323 -40.062423579114466 -0.893907885139203
C -1.3569852507825404 -39.28072474098324 -2.0411359365961625
C -2.488923083319148 -38.476216443051825 -2.1549355232759715
C -3.422812846341664 -38.46297004743116 -1.1127718047529191
H -1.876411492785258 -40.67025298104371 1.0483312159548979
H -0.25247927793816866 -40.68154277374232 -0.8214613040805099
H -0.6242667383433439 -39.302909701845074 -2.847181688771955
H -2.643702145058905 -37.86153473486843 -3.041974354082977
