54 angstroem
free
N 16.569717679203176 15.896466563421502 30.43484880837085
N 13.206584828770163 14.239397438595423 32.23622906283179
C 16.436002094661525 14.748125111139569 30.582078121965715
C 14.091016519270907 13.591909181711111 31.840309069590194
C 17.32005670434714 12.492678625004318 30.300122988933815
C 16.3003118545241 13.339028692822504 30.743716867595484
C 15.158692024833325 12.774059502035676 31.369936672037202
C 15.074868139195969 11.385487252046005 31.503886520823432
C 16.087036131891768 10.532401477418318 31.044855824412664
C 17.248037844568056 11.101447991419368 30.448574917521217
H 18.21695754966769 12.926531929736264 29.861611680499927
H 14.179717629066147 10.947466234649971 31.941829465417708
N 18.2943669505233 10.302334132654693 29.91286032305277
C 18.72263406075674 10.298034865634927 28.5723551205302
C 18.00001502416239 10.567649307575545 27.407936551628307
C 18.667379686117528 10.444228145194293 26.18811275849601
C 20.01498059496972 10.054352820581212 26.128455873314916
C 20.725711234385184 9.773040546108065 27.29345216012773
C 20.081698846870196 9.893118894057316 28.53010218158791
H 16.95183986520234 10.862903784445185 27.435723089238717
H 18.12705376686307 10.655297303861992 25.26557160543724
H 20.505969198148904 9.968338220353239 25.159640334483147
H 21.768613641705794 9.459319095632926 27.24292025109602
C 19.382711166980766 9.939447365758085 30.72714515983752
C 19.474931812970553 9.89568547775392 32.118520594830386
C 20.701430483379106 9.530937882852939 32.674115283361616
C 21.810954389390407 9.231642065438056 31.867029709834448
C 21.72118402464721 9.30902099145025 30.47915596626726
C 20.50157940585805 9.67173038906488 29.8964114454606
H 18.631100288308613 10.138396682375742 32.76123036759744
H 20.79594846025187 9.48161102287656 33.758642329681926
H 22.753538826204128 8.948352456022445 32.33437912929929
H 22.59036227230405 9.099558550307718 29.85524076483654
N 16.05073623268344 9.112092955591892 31.14345674541887
C 15.927685796275009 8.11627739897366 30.157255263144
C 15.48419648144934 8.222219995826306 28.838749934319114
C 15.426976541050665 7.053138313309026 28.079810880294893
C 15.787573360734973 5.809240228967921 28.622662126692237
C 16.1980711042523 5.705588736630689 29.949668781340446
C 16.265231655628597 6.863745613025353 30.73244337918181
H 15.18621498659827 9.174342071978572 28.404356743785563
H 15.091671095885852 7.111633890147084 27.044576063051625
H 15.732887800633847 4.916280358146246 28.00075832866737
H 16.454616679724875 4.735551379762386 30.376077608295297
C 16.43358224403806 8.496550621759212 32.349772412315474
C 16.69937560704433 9.070563147435912 33.59500113309792
C 17.111399331263375 8.222736847556702 34.62459386284461
C 17.263397440067042 6.84224715076466 34.41797401493153
C 17.010302252358873 6.278471699358813 33.169147657727386
C 16.591739131048694 7.105405274384807 32.120616995965506
H 16.594951146487716 10.14059403286512 33.770295826757206
H 17.318774572102285 8.645645833053587 35.60730886270157
H 17.5861075840019 6.20871907896468 35.24355180702815
H 17.140505956670488 5.207955371497371 33.00892957243944
