54 angstroem
free
N -3.2752434997800073 6.621589706636491 0.6533171666724029
N -1.6053499865893375 2.81334728468711 0.5520413771463042
C -3.9075393789288637 5.662099755880092 0.45882969929014455
C -2.7427847084657353 3.005595937993566 0.386222778113127
C -6.081920475846852 4.653303285241839 0.008844557354554014
C -4.708595791059099 4.50769487740195 0.2227160770609368
C -4.137084399169155 3.209324706965313 0.17531465285350986
C -4.967252935058437 2.109962612670494 -0.05989820156080087
C -6.347223785680968 2.2499037606690506 -0.25749752110996565
C -6.914723415680016 3.5556899390030123 -0.24498919267492025
H -6.514697549450907 5.652079267472882 -0.0012809485130048069
H -4.538584074290623 1.109408865378206 -0.050620444632289124
N -8.261879893369983 3.678069855794905 0.0670028689457504
C -8.912081990373078 3.733769628043811 1.3138068502591231
C -8.391967767967174 3.54520819560433 2.596252406531398
C -9.279652356937264 3.6111839312956775 3.671539221500634
C -10.649378060959497 3.8495088072564316 3.474961828420914
C -11.163683111875033 4.022453514065166 2.1915790215973137
C -10.294741679659827 3.9653704663111897 1.0960625436129108
H -7.333629181437379 3.3509109387079072 2.7659181775917863
H -8.897197634368936 3.4736688937835543 4.6826784144355615
H -11.314759698838529 3.8954725896055105 4.336487495404613
H -12.229562982600301 4.195757137877771 2.041625666617029
C -9.215371289590431 3.9104501873650515 -0.9410116514534287
C -9.03684092147499 4.045456791398547 -2.3180539442018997
C -10.16549584265382 4.312059925279375 -3.0933513660522807
C -11.435963633322851 4.454903245920518 -2.5123902778982927
C -11.602010326213765 4.351333209101459 -1.133281330819267
C -10.485754808817614 4.083333419462503 -0.3328224358995222
H -8.058558303483203 3.9530666692765264 -2.785454636907806
H -10.05274272124055 4.413651067991824 -4.172486053939505
H -12.296507903433936 4.661009882028963 -3.1480926586799445
H -12.585219891381835 4.48636164382899 -0.6819701390650759
N -7.016280473625261 1.0079474340800794 -0.4534510644681481
C -7.211371209910085 0.026585418993388624 0.5356149577493646
C -6.86409048708022 0.046106786118961456 1.8866804351072743
C -7.145203143008624 -1.0917692673725026 2.6431382007937776
C -7.742772033121424 -2.2246750019331927 2.067433411446046
C -8.056868522047195 -2.249842339845208 0.7106325080250185
C -7.78601489173668 -1.1206249790164258 -0.07044394404456909
H -6.386947356108643 0.9084124330596707 2.347972389267444
H -6.890834576256267 -1.0974086251416209 3.7027737186921703
H -7.950286025931312 -3.09571623936423 2.688204932105533
H -8.498738928247844 -3.1391574551909294 0.26065277130200787
C -7.433746962176972 0.48063808457764695 -1.6897065001343172
C -7.4550204328751395 1.0814649847718105 -2.9503751853807367
C -7.969720938946686 0.33798945130912367 -4.0138420129901
C -8.458280640895087 -0.9649107600097849 -3.8259392547406876
C -8.447191981587526 -1.5527523089120008 -2.562694797354994
C -7.932608744398342 -0.830822152825813 -1.4798967024091922
H -7.088072139467697 2.094260565905611 -3.1122172508682584
H -7.991274465430704 0.7823441049606813 -5.008663433520022
H -8.852678207639286 -1.5178629122578526 -4.67786226900352
H -8.837997839509013 -2.560207221907417 -2.4180109095740887
