54 angstroem
free
N 42.14665007620141 -11.117329954527246 1.4988694577950685
N 44.33060879745751 -10.187884341004413 -1.9169710874628454
C 42.29076165381893 -10.023911905749413 1.1221557161245943
C 43.81571911296324 -9.3749635240574 -1.2595051513193072
C 41.86264415915528 -7.6416570412092 1.421600657485555
C 42.44514747877373 -8.676619787409038 0.6850509158967417
C 43.20107376178135 -8.358048292981067 -0.47327758809197557
C 43.321787467768964 -7.020191378469326 -0.8588537501072493
C 42.72481854405024 -5.981089683689821 -0.13301331545388914
C 41.99620911476373 -6.297882083120938 1.048536813433914
H 41.32163207524512 -7.879799921625458 2.335682643719929
H 43.86194675802053 -6.77762208615668 -1.7722753120205363
N 41.81273698894264 -5.290970601732603 2.1331020128583598
C 40.5886991530517 -5.293335289679515 2.8274442800098116
C 39.42820084924444 -6.029982965022339 2.579785821184939
C 38.3270632820938 -5.801659856755403 3.4067943326783734
C 38.37680814207533 -4.8592328224062005 4.4464801775681195
C 39.5333077829456 -4.117573096285122 4.678730941135786
C 40.65326246250261 -4.329910778673248 3.8668884287771226
H 39.36973696591297 -6.758747050856946 1.7722566618424886
H 37.41179855737724 -6.368524654910443 3.237858687688829
H 37.499325492102 -4.7060854024900385 5.073889083270719
H 39.5647561707344 -3.3783253447422017 5.47944550592024
C 42.66921979618453 -4.35927564736921 2.7476111237879657
C 44.007852212520845 -4.072119794561244 2.47937592546046
C 44.63611114170845 -3.1149190834664595 3.2762967314379345
C 43.95477652505347 -2.470861679231531 4.321754338194929
C 42.627883769724846 -2.7859681557505964 4.605132652418655
C 41.97410457274285 -3.7423034546150546 3.81990639995416
H 44.55735830384714 -4.57092234299069 1.6835899641944059
H 45.67925760186563 -2.8674866956924725 3.0808782640160284
H 44.47563583741831 -1.7266134527357675 4.923363893705102
H 42.108104391951194 -2.302181830032906 5.43241477389557
N 42.97490401235165 -4.68756088377253 -0.6153804445807411
C 42.0065984160617 -3.6704263600623515 -0.7002628880820978
C 40.61774224344811 -3.7713772944833623 -0.7854118690785293
C 39.88893818996503 -2.587174247326759 -0.8973153293981172
C 40.52590463515974 -1.3363307522915113 -0.9381109778559341
C 41.91480639101781 -1.2445753644968427 -0.8858467246591827
C 42.66935187103227 -2.4177626915506263 -0.7724157974070576
H 40.106470986640346 -4.731797786378089 -0.770544325132087
H 38.802090168961506 -2.639777501518268 -0.9569548950292016
H 39.925621049439364 -0.43111023150430217 -1.0239457076545966
H 42.40842151776739 -0.2740987170391021 -0.9418090075182065
C 44.249074580379606 -4.092006286787097 -0.6650292807338221
C 45.51104242048719 -4.68605642063675 -0.5924161447265034
C 46.625302363824076 -3.8456285576425664 -0.6196183323477298
C 46.48702512099606 -2.451113187941147 -0.7076710288589539
C 45.22452817310326 -1.8643851971712406 -0.7652811452028068
C 44.09067339776634 -2.684356385201781 -0.7440356297600234
H 45.63620046743091 -5.7653851129024005 -0.5150609206145378
H 47.62116936938941 -4.285449890201006 -0.5707166542198763
H 47.37778139870559 -1.8240202968161219 -0.7273205881849845
H 45.12035422607278 -0.7806068342761495 -0.8218523089550012
