54 angstroem
free
N 33.857114861905096 -43.68402659298072 41.794728888585354
N 30.886604915011997 -41.130864139302226 40.39510621950242
C 34.08452869689034 -42.77138561883601 41.10653282689261
C 32.01248573667898 -40.9912428369358 40.12843907427923
C 35.722540455173075 -41.427176495992796 39.899010812367884
C 34.39552856057381 -41.6610493445498 40.269559658705965
C 33.38065772181501 -40.79717286497637 39.7813057552568
C 33.7392051464859 -39.72235862167681 38.96318596824706
C 35.0703819966074 -39.47419009984335 38.603562355244684
C 36.08405565003465 -40.36143606927422 39.064593965802395
H 36.49654658729753 -42.11522710975598 40.23435070609035
H 32.96834167152631 -39.03187320587589 38.625620769025204
N 37.38057304745693 -40.48862665139024 38.89263401523296
C 38.23130462321206 -39.586362670517666 39.55788651934537
C 37.911984845205495 -38.44941692750105 40.30362781481268
C 38.96740704625479 -37.69743930319715 40.82246506455503
C 40.30454108117512 -38.06226094827214 40.59759251804613
C 40.61592113982448 -39.18983559167115 39.84055297581607
C 39.57662825668863 -39.963953760746435 39.312267632590334
H 36.88042555564763 -38.14735290854661 40.48043624850532
H 38.74413017256236 -36.80930001883087 41.41317693770925
H 41.1044530325868 -37.45334494078071 41.01763303275342
H 41.65530113389173 -39.46373588976115 39.65810323437279
C 38.17489771201485 -41.4600522990956 38.256536324026776
C 37.788847100383826 -42.604857990715914 37.55887580114828
C 38.79772739994452 -43.425325744992804 37.053882276660815
C 40.154846688765225 -43.122517797700986 37.25020596421789
C 40.533296686552255 -41.9953369029252 37.97579439734481
C 39.54053896740124 -41.15504063599995 38.492436444295684
H 36.74287126394588 -42.86465846831326 37.40896087760603
H 38.5211465479203 -44.32105079090011 36.49823366855006
H 40.91700877346768 -43.78443863961807 36.840201502195576
H 41.587157925098204 -41.77508711852311 38.14749775021477
N 35.2438067435169 -38.34263478640566 37.85930027616594
C 35.12548277547837 -37.075912709591144 38.45996492057467
C 34.407123038226466 -36.69414181066919 39.59335504624356
C 34.43408487972972 -35.346436367923445 39.952489684500726
C 35.14503719958886 -34.400979302833164 39.1957481676888
C 35.83311501915783 -34.783316480317716 38.04658939375564
C 35.82281790708197 -36.129723510650926 37.66494028897574
H 33.8380144323595 -37.408897429302584 40.18434291711085
H 33.88744288775872 -35.02521590538134 40.838809349157735
H 35.14640322855264 -33.35659947922081 39.50623342237164
H 36.364577697620796 -34.04377806226347 37.447220606328045
C 35.984917141611696 -38.20245087924598 36.67112319704022
C 36.379389045504126 -39.17530051022591 35.74988133354556
C 37.159300576440735 -38.76431826869944 34.66753860857557
C 37.54368688016475 -37.422920811197955 34.51118317982929
C 37.158534760857385 -36.46017862250746 35.441910060930915
C 36.37271558449645 -36.84462984411209 36.5342086707218
H 36.097389279995646 -40.22164048967331 35.86055008714487
H 37.474468432349994 -39.50353638477852 33.931460439538526
H 38.1522726700155 -37.135804097915305 33.65429014396909
H 37.468416819492056 -35.42159124708448 35.323853205830964
