54 angstroem
free
N 11.768536154842241 -36.51130285129137 -4.300180415886694
N 9.516472383522714 -34.91520808893186 -1.1885567633936942
C 12.132653827042896 -35.60956665311102 -3.657891875554295
C 10.56117995355769 -34.49466828586002 -1.4884658598836462
C 13.849879424364971 -33.94281459879081 -3.1876111731110783
C 12.607754663661748 -34.50880135189271 -2.888030467150729
C 11.833900829807032 -33.95570368678956 -1.8345265600662102
C 12.346027286895659 -32.87582425142991 -1.1101725055654175
C 13.598439679097204 -32.31661188998751 -1.3959929023661766
C 14.358981626567594 -32.848938718238685 -2.475573342129378
H 14.424273915221606 -34.33559890002149 -4.024715375446855
H 11.774900255418649 -32.47996372365511 -0.2722827594458218
N 15.552720595360363 -32.1961636027838 -2.872251620238127
C 16.868682983707224 -32.694447972128366 -2.8537832928100415
C 17.373680538060032 -33.84748834456927 -2.248625303046999
C 18.74597278958226 -34.083229454071564 -2.3477139872867956
C 19.593942492801773 -33.19088401790027 -3.02318191931392
C 19.085328371429384 -32.03512840487873 -3.6122758204626444
C 17.712289937044375 -31.77686627749168 -3.531404492072881
H 16.731360651144634 -34.545823313898865 -1.7134880354891306
H 19.163415252397186 -34.97941346647984 -1.8892595468145936
H 20.660506139370362 -33.40538377527135 -3.0823740648416855
H 19.748221902164044 -31.33848176723482 -4.125964133239282
C 15.546853370764696 -30.986183139655633 -3.589992930897026
C 14.471696124897603 -30.175705811620343 -3.9553814212608107
C 14.748829628278504 -29.034313590005944 -4.708007538377462
C 16.05929577567549 -28.715339434124306 -5.099086010981613
C 17.124194243399355 -29.546233145839572 -4.75872350139584
C 16.873294126715532 -30.69721714058218 -4.0031643143599025
H 13.44759409814584 -30.413551534996284 -3.6748806662756275
H 13.926446085978757 -28.381010969722322 -4.998604676960397
H 16.240138487480756 -27.814752042986527 -5.685065675911188
H 18.137537405601915 -29.309388793758202 -5.083771047964038
N 13.906595494126151 -31.21940983805343 -0.5972657248515811
C 14.75585310384187 -31.366325379627327 0.5147417986518934
C 15.511386231575315 -32.46850695268719 0.9156512413401993
C 16.246986976828286 -32.353695530701565 2.095364965370212
C 16.22020594810624 -31.178536031262084 2.863663679209297
C 15.437867746520597 -30.09359747836327 2.4750070627073177
C 14.69109465430927 -30.182695044289797 1.29476745418614
H 15.533562171198293 -33.39297727689335 0.34216217386278985
H 16.851587832817412 -33.198356508566434 2.424861912714307
H 16.808690266921616 -31.122361980093938 3.778902914525916
H 15.399780469729647 -29.191092732604275 3.085455370878244
C 13.278338517475456 -29.962923768000863 -0.5124314840987397
C 12.373317915932084 -29.360936007705305 -1.3895172870563666
C 11.93592122602918 -28.070866294448262 -1.0844952487831807
C 12.393794181340672 -27.39481543401176 0.05780706692745741
C 13.307742988700113 -27.995987455327263 0.9208001042170786
C 13.759205864300398 -29.290642870472475 0.6406583531857841
H 12.014534376201473 -29.867621354192746 -2.2845832760389313
H 11.22471528928049 -27.58206418566565 -1.7499604135017826
H 12.031619805171674 -26.388713602912702 0.26677398360543864
H 13.670194939593745 -27.463872274120362 1.8006353529485066
