54 angstroem
free
N -14.805527514660058 -8.703726560954014 33.881092846739485
N -15.255492593997486 -4.568658083853544 33.86523118408579
C -15.43237611136188 -8.13578988762719 34.68281174464779
C -15.744960754097274 -5.251151874564687 34.67321400871932
C -16.825278175902685 -8.217699041267284 36.683112929698986
C -16.20924353697047 -7.4710695577805195 35.675140081232065
C -16.35241045333374 -6.058931105347853 35.67748332185988
C -17.12536418558022 -5.456241004541905 36.67368062632889
C -17.758937260426602 -6.2026643172870655 37.67587120779409
C -17.586186846723905 -7.61586086438006 37.69383354915845
H -16.678699502426593 -9.29600399464635 36.7100406846761
H -17.2745250645191 -4.378203707749521 36.65049681505916
N -18.2921767819691 -8.551859349351325 38.599851847719805
C -19.231386492423226 -9.53090467922204 38.226032691921574
C -19.674863939141026 -9.896464677629657 36.9530698233461
C -20.661348420506258 -10.880473764198863 36.86849472525864
C -21.19822803185491 -11.478036761020016 38.020132111756304
C -20.761258258179108 -11.098160782425415 39.287508395123375
C -19.769943062513207 -10.116837770097838 39.40052772450842
H -19.275311279176766 -9.437026000810782 36.04980229055015
H -21.019558396148888 -11.187631133871458 35.88618905417056
H -21.96675356732138 -12.243609783615454 37.9184545990203
H -21.188518168655197 -11.55583572944695 40.18003439770399
C -18.201795765244558 -8.537345819253924 40.00372519092517
C -17.34559824206786 -7.810014306658175 40.83092530189065
C -17.445789014455947 -8.016666488203324 42.20689112247452
C -18.363579527977983 -8.933334479539 42.74483979500552
C -19.1928372076686 -9.680237357101552 41.9113486211932
C -19.112847932105833 -9.491198900540315 40.52698924315731
H -16.617595366265068 -7.106146950226965 40.43265556886295
H -16.79323863913836 -7.454067865204387 42.874144071767425
H -18.416596530317076 -9.068450249075255 43.82468553838095
H -19.887778376869647 -10.408697152507289 42.32970088526314
N -18.736331385046793 -5.429697033428301 38.297475971502834
C -20.132034243040337 -5.606314350747562 38.28321933249015
C -20.909124374362136 -6.4777511350211405 37.5196148752289
C -22.29359478659796 -6.419319683793964 37.68036944857256
C -22.890113186916626 -5.507937675663618 38.56668125580894
C -22.11033361781292 -4.618042835227762 39.30168444447636
C -20.718618238679827 -4.656808399723133 39.15955951520319
H -20.4668667021251 -7.180774043502925 36.816625682815975
H -22.92138340890917 -7.0958786027294245 37.10096279016676
H -23.974708575804005 -5.49073716963003 38.66909785785962
H -22.57684786697377 -3.8951004395978606 39.971259938091826
C -18.434289046106652 -4.353591374450984 39.152711586731236
C -17.192593478931247 -3.8196188775404925 39.504558925094805
C -17.17615472058954 -2.767727523222106 40.42210375733347
C -18.362809040542295 -2.2668210849167814 40.98111292951424
C -19.597034350670857 -2.813924123545608 40.63639079059967
C -19.6422018951551 -3.866610885755962 39.7153906569008
H -16.26185380958563 -4.2018308196318515 39.08714247526416
H -16.220092950223123 -2.329722776063364 40.707906143924454
H -18.314379699215806 -1.4443567814316853 41.69405431136246
H -20.515634622711087 -2.430434384375476 41.081067311057616
