54 angstroem
free
N 26.767457617579566 -33.16974468246442 31.347163451898663
N 23.14400007175219 -35.016045401120095 32.220799843742235
C 26.700370660474398 -34.201177976538304 31.885576972737592
C 24.17294256216459 -35.48856155215785 32.49687761801229
C 27.842570309841584 -36.09638772445251 32.91107688700658
C 26.651836927775122 -35.46514641513903 32.5414122451062
C 25.415321219488362 -36.089411331726595 32.85118552128498
C 25.423145751723816 -37.32944179519187 33.495673787747585
C 26.61499888492676 -37.973796827373924 33.85238272502462
C 27.854403594050414 -37.33097246858136 33.573200629247815
H 28.790447310818685 -35.597935172455436 32.71607373725201
H 24.477504089404555 -37.83137965279873 33.69257758093944
N 29.055125052014755 -37.87265462932813 33.633423162640035
C 29.49341423165976 -38.79829767681394 32.66829470329279
C 28.77385764485366 -39.42863324491954 31.650622745872337
C 29.452862265907306 -40.35107400031727 30.852729119496782
C 30.809015124888898 -40.64474371359748 31.067665028104205
C 31.516935959950374 -40.02266300845092 32.093995712353205
C 30.861223953341575 -39.090447379861736 32.906085502154546
H 27.719343615706826 -39.21889567405573 31.47561195950323
H 28.915009286679563 -40.8516299053594 30.04790465011904
H 31.30899816784569 -41.369549496329356 30.42599112162193
H 32.56674973993434 -40.261590025908745 32.26553276723708
C 30.144957254562485 -37.54505092771165 34.46057569964866
C 30.227680515935937 -36.60777756271099 35.49063436437516
C 31.457608975158106 -36.45839024122283 36.13171522339225
C 32.579380959079316 -37.211260623399134 35.74854135807852
C 32.49835162074954 -38.12188443476577 34.6976187799777
C 31.2755630023784 -38.291458793661306 34.038363714462704
H 29.373990095909395 -36.00427205163394 35.79234612703462
H 31.545048302070768 -35.738286328209945 36.94496206159091
H 33.52436342625095 -37.07054404100057 36.27231696210824
H 33.37651980512247 -38.687902240741586 34.38607423693609
N 26.46198409496616 -39.26980642013718 34.2957998352228
C 26.06778413568543 -40.42972082389442 33.603999022557836
C 25.53540072606306 -40.5607901256873 32.32113049787636
C 25.193723207951514 -41.84296471815516 31.890666355645152
C 25.363607417870963 -42.96341966713435 32.7199552370593
C 25.86489990759195 -42.82141388215067 34.011752004185496
C 26.216406103434114 -41.545804429930065 34.46764440455772
H 25.382179241471384 -39.703302881359626 31.6690065329533
H 24.78374727799937 -41.971903455605776 30.889238804723966
H 25.088102177575774 -43.9508279107763 32.35082924456215
H 25.973528544958587 -43.689434999464396 34.66240686873422
C 26.83009826708074 -39.63708602115302 35.603568382144076
C 27.308647515781544 -38.84299173232075 36.64814290582597
C 27.64622130067129 -39.47957102376304 37.84373686645621
C 27.519395755634225 -40.87000137858177 37.99261835995095
C 27.054854091185195 -41.65783948685461 36.94143837477207
C 26.705294614946734 -41.0443657095244 35.73317976429951
H 27.421410247439233 -37.764279530159115 36.54683473924124
H 28.01594891087042 -38.88093987107638 38.67591924355893
H 27.79119415404532 -41.3349757810704 38.939720667630375
H 26.968575306776987 -42.73856415120124 37.056408888042434
