54 angstroem
free
N 27.00588142348656 -37.86061935961787 18.575661769925226
N 30.443484513901698 -40.201884892989824 18.52206913714661
C 27.317581078799396 -38.54151585764341 19.46867224198831
C 29.714450433723368 -40.1763039843569 19.43095198221827
C 26.848776834273878 -39.3905516223498 21.706405682846167
C 27.673687597661093 -39.36065694736518 20.578756772024164
C 28.839819221989586 -40.1695093307142 20.555688996922548
C 29.143745189991023 -40.95504819221835 21.670883868806254
C 28.328643777368935 -40.9745825462197 22.810259426167626
C 27.14038510067287 -40.1902028254516 22.819181464140847
H 25.93000741354922 -38.80675971358118 21.707725828868497
H 30.061537414582315 -41.54036872749192 21.673742828945503
N 26.107762819731015 -40.31299660380311 23.780771303277394
C 26.192670514262588 -40.033891340768996 25.15746165878609
C 27.282964927364095 -39.58820332226384 25.90803550983316
C 27.103130348012357 -39.43492472376621 27.28380571482877
C 25.874006753359755 -39.725917616877716 27.897131278830283
C 24.79476243184591 -40.18387570853051 27.144139202755998
C 24.946796446895487 -40.342291984752784 25.762016204541943
H 28.245829741869592 -39.366112872637345 25.4495754321635
H 27.936971089732516 -39.08240783259164 27.890457119450954
H 25.767407732920137 -39.59471722849714 28.973465323221813
H 23.84530385693159 -40.419986646432854 27.625179838293448
C 24.804320744316854 -40.7610859326846 23.498823712606345
C 24.216463345933402 -41.066389968069835 22.27099698353038
C 22.87766783162497 -41.458356701448025 22.274725953436384
C 22.139123048235437 -41.530756931257095 23.46691646546875
C 22.72293042807675 -41.193054057156814 24.68567216565126
C 24.065134152772384 -40.79745053360554 24.709582903552796
H 24.767492280494373 -41.0021123104518 21.33490312131341
H 22.398576077469098 -41.70990076360203 21.328807152924192
H 21.09570201166558 -41.84267533636481 23.433549532751435
H 22.140985416486217 -41.22688858443756 25.606981422781626
N 28.697654406205807 -41.87026540538229 23.941953585774932
C 29.77430407914322 -41.63017077990445 24.81520237559646
C 30.701215352355142 -40.5874834513413 24.81644123739269
C 31.702189070329037 -40.61321604327686 25.787731121689674
C 31.787486147430485 -41.656364424369116 26.723982076280166
C 30.878515011302106 -42.7114536244 26.69646945297992
C 29.863873919036823 -42.70905878670375 25.73258580872287
H 30.661005268299984 -39.77809180677764 24.09029030404419
H 32.433019234354504 -39.80528770133143 25.814220110558946
H 32.58111707845604 -41.643816757941885 27.470389925090675
H 30.960944473139776 -43.532460427646505 27.40904633063153
C 28.12204084177281 -43.109762207872166 24.27807502574662
C 27.022010965631694 -43.76055854483947 23.714932541200916
C 26.62965152143615 -44.975772983582985 24.278796095310685
C 27.308261550332368 -45.52397869501481 25.379026033194357
C 28.396057669640207 -44.86212163663799 25.9448104808352
C 28.812923753956476 -43.64410459428444 25.396095687008625
H 26.47889255952088 -43.34526706830413 22.866902954558565
H 25.778080281023048 -45.50615383119769 23.85322841508149
H 26.97620654656466 -46.474881199441676 25.794480299158412
H 28.913555270068734 -45.2847320297495 26.806335139143133
