54 angstroem
free
N -2.916752766258421 14.414179624551522 -3.4651755836929223
N -5.181727040856629 17.35452315824452 -5.342882407069082
C -2.4369307948781875 15.320649868041963 -4.018643733460437
C -4.016487564129144 17.37094508503794 -5.330218236754498
C -0.42598779982605306 16.509810784810828 -4.718711363371606
C -1.8201069595524826 16.419415610725903 -4.683725563275074
C -2.592410126846912 17.41604461828204 -5.335581149000315
C -1.9379223071510552 18.473192534725047 -5.973692327294929
C -0.540889121824159 18.576838856706313 -5.996148586833313
C 0.23430342042484384 17.5582637764137 -5.372553237182815
H 0.1687958485460582 15.72223851730281 -4.259457273493916
H -2.5288847876478617 19.262899565157415 -6.434210538571091
N 1.553376718103978 17.402653331425537 -5.465895506672763
C 2.474951622741923 18.073936225639912 -4.640992863646684
C 2.2826258236328196 19.180851814811454 -3.8112401966421716
C 3.3936760985704133 19.68042814243899 -3.129647032740879
C 4.66348389451347 19.09948405458815 -3.276895293797907
C 4.850802461867907 18.004172332831896 -4.117546810401808
C 3.752689800467256 17.48079738288509 -4.80942923186965
H 1.3062306887901622 19.64893613010984 -3.6922104689599577
H 3.2682378229868276 20.539642209851486 -2.471163249170648
H 5.509562662266408 19.513975006723843 -2.7297026060347753
H 5.840301749539172 17.562741876212222 -4.238585503307612
C 2.2284813522157303 16.36196705120981 -6.1295562134154835
C 1.7235220654601184 15.371437591412233 -6.972297490132391
C 2.6215486482698203 14.428211938819674 -7.47219635918751
C 3.9833980826626485 14.460985293653899 -7.13116786685125
C 4.475019039744975 15.43320793533862 -6.263221028494678
C 3.5950270604126793 16.391911978302556 -5.748356595720914
H 0.6691924599154916 15.320182011139787 -7.236490925394508
H 2.252409416895989 13.64941384331168 -8.139111237984928
H 4.657444907911699 13.709665918582298 -7.541428731684973
H 5.5280176230305065 15.442397930711078 -5.980864787888505
N 0.10744912194417142 19.850225205015253 -6.377269490264392
C -0.18397388932138317 21.139425044463195 -5.895170124140922
C -1.0023295269649153 21.526607992477448 -4.83368704682123
C -1.1451053391305963 22.893118020014892 -4.592274533061287
C -0.5023339372051966 23.849633117130494 -5.394723148341945
C 0.2869162598468047 23.457119702686047 -6.473248083942291
C 0.44733935675435643 22.09198785910378 -6.736408568520427
H -1.5207032139663506 20.801381067997685 -4.209698672100788
H -1.7725769787789036 23.22008689330641 -3.7634601399460172
H -0.6341464806252407 24.90894724229234 -5.176523210191365
H 0.765653508608631 24.201863219411344 -7.109471578213924
C 0.8935339041287723 19.977959384564716 -7.537620995603675
C 1.444245905527287 18.98549672920701 -8.351540664704622
C 2.2328898712695855 19.39438842284313 -9.428333333423678
C 2.4742193014546907 20.753995926585297 -9.68284174482698
C 1.9333472569207149 21.738296090092987 -8.858173433530226
C 1.135343060816339 21.355797912525578 -7.7740538737775156
H 1.2743276569189392 17.926090793335483 -8.163429938827313
H 2.66866880965368 18.639116941181506 -10.081974655036952
H 3.094031293597183 21.038817170538273 -10.532422994001902
H 2.132204058551439 22.79264026522718 -9.051673770722546
