54 angstroem
free
N 30.114419774101176 21.019833724511855 19.180955753207257
N 26.10699407691803 20.802513873923793 18.08787623214218
C 29.739021031716764 20.36580604694415 18.292379363383905
C 26.943432202547772 20.2124477245922 17.530735046786525
C 30.253265319216656 18.816200501103108 16.480649370575463
C 29.31210619711804 19.559785841159208 17.197771308719023
C 27.94310842945602 19.475353813721725 16.832595172538483
C 27.577137607569245 18.669848979125604 15.750777619434281
C 28.519732014645246 17.936411906622627 15.018292528128923
C 29.888309816985856 17.993644324726855 15.406891397293252
H 31.297177240572793 18.843282521507405 16.78800331736859
H 26.534297289152438 18.639869742061443 15.440074890422089
N 31.105623020797413 17.427400641560784 14.674169574270492
C 31.45813824746071 17.53437963291119 13.315981844324867
C 31.015072580053175 18.442755736697652 12.351986776189417
C 31.497584460748055 18.293244121451266 11.050677042291912
C 32.38996519310022 17.26209993861158 10.716030624481395
C 32.81661388351368 16.35073321658828 11.679810982663588
C 32.351473526695486 16.480513757432487 12.993308413256305
H 30.3164790506666 19.243191077402745 12.59258770655837
H 31.171690157262955 18.99333572008397 10.281749786743159
H 32.7477337772636 17.174245450785328 9.690674541288516
H 33.500455245560815 15.544284974966864 11.414062457450404
C 31.79830293017418 16.33491382961895 15.227258033182459
C 31.84824546364799 15.89247300007379 16.549414305032222
C 32.65419077569978 14.789514046112744 16.83218444893537
C 33.40197270089028 14.152439838419765 15.828706968580654
C 33.37302462205214 14.619458624063999 14.516725563511551
C 32.57164844473911 15.723999357431317 14.206289256698781
H 31.288016242940838 16.38160588078387 17.34372436297349
H 32.70321477294229 14.420156784771002 17.85626333381485
H 34.01963270456099 13.292061707762981 16.084401112732312
H 33.97292419922959 14.138187662469452 13.743993865019952
N 28.296430556362314 17.31004368820892 13.678358371828425
C 27.6649414047237 17.925225683313485 12.581929641538007
C 27.27224767501827 19.253336227266484 12.413772197388347
C 26.624170567355474 19.59054575895189 11.225369747052694
C 26.360693193324792 18.628879347901456 10.236543486509246
C 26.726020165041536 17.297998378781283 10.42493334968457
C 27.378518214848192 16.933586599102718 11.608159579472069
H 27.453913525326808 20.01005014557413 13.174303871826215
H 26.315178946015344 20.623546060265983 11.06726485678648
H 25.854283030053182 18.927430199553296 9.319184063549866
H 26.49912558763708 16.54849771690996 9.666395148722676
C 28.384756921828327 15.929119970122251 13.421630774286264
C 28.94799045011773 14.914945088197399 14.199415037431772
C 28.941886044916796 13.61983186596225 13.678570865858074
C 28.397981370271552 13.343146209593344 12.413991986531336
C 27.850647022710618 14.362313281362455 11.637338398437974
C 27.840117811524053 15.669225267615328 12.137639276491717
H 29.38192768822841 15.113434524507534 15.178649029087605
H 29.36973634658096 12.809981217240102 14.269054834820032
H 28.408783954546806 12.320772458608435 12.037543367155184
H 27.43965252356813 14.146087310961258 10.650952115541447
