54 angstroem
free
N 7.248827075401975 -10.612794917934 11.089490961642152
N 8.627764187788603 -12.42750758414642 14.56898257026062
C 6.952214705296873 -10.240813053592873 12.153396509076623
C 7.912373055169968 -11.507568131278598 14.580815973887058
C 5.714262819067575 -8.662605427290169 13.540777465206036
C 6.574446474693629 -9.759378641168867 13.440099160022886
C 7.034501904606212 -10.386309373479214 14.627509840389749
C 6.633962806572872 -9.874611486447613 15.864779254296279
C 5.7856822824448395 -8.76454290334615 15.970213867936653
C 5.296098677533947 -8.157645296075826 14.778881412259684
H 5.323407232176652 -8.209214547109616 12.631590683541674
H 7.022458779246865 -10.32500863813065 16.776461301480566
N 4.395489887224336 -7.066130276064127 14.919419731507476
C 4.4454220365212445 -5.739585995521027 14.452330391423956
C 5.552688537079928 -4.955455717388356 14.120907056984242
C 5.3179672401558875 -3.638154160438926 13.723162185904057
C 4.017059728946121 -3.1128928416150488 13.665455024681755
C 2.918144729326244 -3.8966358271712904 14.011321678267565
C 3.1250934723652746 -5.222190717633267 14.40950566918551
H 6.569084868093114 -5.344433915382901 14.168372006501992
H 6.165072823207483 -3.007921125429444 13.453342022477699
H 3.8690548246571157 -2.0805477112735513 13.350129877646632
H 1.9103635626498192 -3.482160160372838 13.976578402112008
C 3.048626121126101 -7.408763479644186 15.13805234087488
C 2.4927483391304173 -8.633852274814078 15.507515041188176
C 1.104205628700175 -8.706115763141009 15.620441495086162
C 0.289255926845513 -7.592856693211329 15.35867894238888
C 0.8486172117628104 -6.381581950854383 14.958468752458748
C 2.239409225356066 -6.282247992156195 14.838406063022846
H 3.1060497476596396 -9.51180351097854 15.700126650614811
H 0.6469556511969833 -9.650213557763257 15.915682944632543
H -0.7918758219234602 -7.684039109226844 15.458547916618768
H 0.21256625991918557 -5.525417219919383 14.732555806421233
N 5.225315469613604 -8.355698727005555 17.27346772429934
C 5.569126404428057 -7.100146147384032 17.80710164118628
C 6.275842166647109 -6.049580529855239 17.221245325158588
C 6.510992986537105 -4.915444176893806 17.998711346600203
C 6.0674601179143215 -4.834398436877436 19.328639979567214
C 5.391191436278957 -5.9000308907601795 19.917950453127798
C 5.141545431806144 -7.049187559118312 19.159208214257493
H 6.640755446564781 -6.099067666842928 16.197323363012746
H 7.053700647007149 -4.078189045184 17.56049354619472
H 6.266611714708634 -3.932502994031748 19.906615261951885
H 5.068782186030643 -5.844470128975285 20.957939814046366
C 4.610421324929597 -9.114756545901427 18.286580422747488
C 4.080568576295358 -10.405884065818624 18.232019900475247
C 3.478154816815862 -10.908342272461182 19.386691969160022
C 3.397333135302759 -10.143080183994629 20.561165800853903
C 3.915335813843934 -8.850292723056493 20.604072792847838
C 4.528467416546209 -8.323846918917015 19.461551359459094
H 4.126962607042324 -11.009950418513652 17.326729765318106
H 3.0628741741948677 -11.915761285062812 19.37138862364617
H 2.9209598468446036 -10.565946462871945 21.445095066005926
H 3.840598280647976 -8.254422820473664 21.5140076300837
