54 angstroem
free
N 13.3431254129902 11.40906339308145 -5.8312751899844715
N 10.771573791882563 13.199779823256446 -3.095956487903251
C 12.470075523048765 10.832663354136228 -5.3176690138756735
C 10.677187328649879 12.080916922135525 -3.4081264785609227
C 11.231021622257524 8.752218487296592 -5.026834544213178
C 11.408891979410258 10.101592032096463 -4.709790859741852
C 10.53918330606454 10.70889603604649 -3.766697049005067
C 9.513987147969939 9.947181772923717 -3.1993645909013773
C 9.321461558529256 8.598796797733725 -3.5276029504051336
C 10.215721026170705 7.980431321821335 -4.4469581454144285
H 11.925178577372359 8.272455488659615 -5.7145303859866345
H 8.817592725654022 10.42300457081241 -2.511194304008013
N 10.053179683012972 6.62415552992317 -4.8495454940675335
C 9.25099062198251 6.103134878466731 -5.881735200717263
C 8.138493522102307 6.665070419610306 -6.51206802812898
C 7.491924821131156 5.90251431578989 -7.48625259231197
C 7.9352950393277 4.612105340939593 -7.8177000986732
C 9.037271319887232 4.052175359771015 -7.17456894631503
C 9.706477459448426 4.7969878983369565 -6.1968719249096225
H 7.776101518043572 7.661197775546063 -6.261028613304127
H 6.625157771149819 6.321299179572677 -7.997054497926033
H 7.407936325665951 4.044055451303689 -8.583391928455777
H 9.371836329751222 3.0454829148492752 -7.426077651981333
C 11.039923733648587 5.673019018300139 -4.531873888009572
C 12.11406704237053 5.769558818775984 -3.646864526057948
C 12.972718742672907 4.674385813514185 -3.5502280912220536
C 12.77625624699674 3.5192498201696925 -4.324225334111863
C 11.720714650272253 3.442152301585915 -5.229834330794577
C 10.844087860016876 4.5269370954371215 -5.345385754220563
H 12.291876802953746 6.661480389981062 -3.0494569409596703
H 13.814370184932628 4.722726766992014 -2.8596835935779854
H 13.465248166148925 2.6814000284948425 -4.2220893211986095
H 11.584072158483929 2.5539108826396593 -5.847063243056271
N 8.340769515996532 7.900549208496337 -2.718220643453193
C 6.998493292369924 8.317127011580514 -2.6538710528671547
C 6.353871365095699 9.345491024680541 -3.3418339412340416
C 5.0067793530323925 9.569162471727035 -3.0566519212692334
C 4.322802222085492 8.799612536724041 -2.101681676608391
C 4.980971684985782 7.796090789073949 -1.3946061849697406
C 6.3324739745300205 7.55072287554929 -1.6625802684113333
H 6.870131917734261 9.962514590085497 -4.074489265841993
H 4.479286318600963 10.361480096460783 -3.5872614585582685
H 3.270013067476523 9.00005522608389 -1.9052385560897311
H 4.454379506442771 7.215825407814916 -0.6365789041089253
C 8.540177793512811 6.896424104829505 -1.752492919716017
C 9.692689765125703 6.165504567404735 -1.455501600628845
C 9.600388092481477 5.183113827025344 -0.4680690674006932
C 8.391477216861935 4.928984874618926 0.19938876642711612
C 7.242016948906633 5.652278843572489 -0.11214635352599926
C 7.308025249185489 6.6459964857252745 -1.095303983130525
H 10.636408106767645 6.343693427073517 -1.9695475278557577
H 10.487491354860552 4.603525305629508 -0.21368703341744077
H 8.354247141734279 4.155304035024613 0.9656199492373767
H 6.3021061122131234 5.444543290819253 0.3997536434227818
