54 angstroem
free
N 16.4069584909031 21.430856160760513 13.253454698849616
N 16.242499032444833 25.472901647043972 12.285811764387542
C 15.882659644586061 21.826719329108343 12.290829386977887
C 15.766064271289862 24.646384010131666 11.616415309923067
C 14.636126327218088 21.350697842488007 10.249347490233117
C 15.237453142375102 22.278873242344122 11.103665940050062
C 15.169967317923774 23.65913963008699 10.779709727079975
C 14.525077131500113 24.049913722514955 9.603055931192618
C 13.936115609923872 23.121146569907914 8.735032621080428
C 13.97320780005249 21.73975284466263 9.078056493634113
H 14.64640432970279 20.296200933297076 10.519315294164688
H 14.512465902079905 25.10340906765378 9.3293053424269
N 13.311812119938917 20.783496882142504 8.224419619770211
C 14.011256387810496 19.64232314411988 7.789809892332202
C 15.328118799034316 19.255358948034267 8.04840788886085
C 15.78928933774259 18.08370060025383 7.44581606021925
C 14.964870862386185 17.322633349455582 6.601600009978353
C 13.656633792580848 17.722397280543454 6.336655573446592
C 13.167721738963943 18.89100986666192 6.931452738781173
H 15.98378996787985 19.838525759540573 8.693876904342748
H 16.811246077658073 17.757149888767408 7.6370058152138665
H 15.356240308757858 16.412727035668368 6.147758270202242
H 13.022932889215813 17.135396694294453 5.671468734782897
C 12.015784061196467 20.743739953126283 7.6785529766694225
C 10.934120238219151 21.597593922253232 7.895997509730869
C 9.735924560242008 21.301839884354074 7.2457037908873385
C 9.612893830955313 20.178185416144267 6.412473640777767
C 10.687249606205985 19.31154869361853 6.225550651245969
C 11.900984737762416 19.586130482507407 6.865891639670335
H 11.005043490728111 22.46475616366614 8.549477243306315
H 8.879017729226012 21.95871608652722 7.3933182862602935
H 8.662631760122292 19.978091148687874 5.918410705447014
H 10.58243770337338 18.426677799632703 5.597352048074278
N 13.616451470052695 23.62523191531006 7.32814701334836
C 13.961890189955309 23.079933340969376 6.0780650352531636
C 14.745490085956499 21.964336331118886 5.781792486859611
C 14.960349466167978 21.663797254135012 4.436606143024429
C 14.421949766269867 22.460483123440078 3.4131720341985083
C 13.667926812336635 23.59181913554801 3.7160365310064205
C 13.436716677601451 23.914902488627625 5.057950455811471
H 15.183800892184692 21.343178633514793 6.560299786120751
H 15.56226183740005 20.792367414763447 4.179946576068259
H 14.607926286973083 22.195441705668372 2.3728365325492193
H 13.270985912306621 24.2224333139164 2.920187127134224
C 12.902405507290457 24.81812424458118 7.109498493619586
C 12.334644932319346 25.696318491161435 8.035324531974107
C 11.631184201913268 26.795171164683524 7.539038348503967
C 11.489048015742569 27.009254271190095 6.158635248800897
C 12.04592292194544 26.121143930558333 5.240693221327948
C 12.759972956051548 25.01349362454895 5.711516034147556
H 12.427872715233129 25.540603792915064 9.109410332365806
H 11.184299781094955 27.49850105971038 8.241325073896277
H 10.934076665968423 27.877566950651342 5.804914685111312
H 11.923822905235902 26.283895812987673 4.169604308878108
