54 angstroem
free
N 25.517164509642594 24.07727252213602 -1.9522085480690212
N 28.256577889626612 21.889839067504628 0.28659932452728737
C 25.233915653798284 23.548450642337652 -0.9530279215207892
C 27.144049961567045 22.020897326333007 0.6080311852596517
C 23.539441369311216 23.021608977325652 0.7200784292497414
C 24.85740547439728 22.91680563607588 0.2673639468326835
C 25.788693766320645 22.15958722352737 1.0249651998546923
C 25.368072756704013 21.559866799711287 2.215139673938857
C 24.052098042401735 21.67702408375597 2.681437096910101
C 23.109311750812655 22.40710349355262 1.903344624487959
H 22.812446656787962 23.56285800221652 0.11718526706770055
H 26.09182216862994 21.017686225523427 2.821091721461136
N 21.972295068998182 22.92995589085565 2.4330133329289105
C 21.818250017458304 24.051082599134677 3.269512242356886
C 22.76532037239658 24.70758021899248 4.05869501008129
C 22.32793194308682 25.77974934423164 4.838261037067795
C 20.982616964260572 26.181889679152693 4.839086268091838
C 20.040453441409753 25.513202685252928 4.060191803957294
C 20.453143276806745 24.4374372671978 3.2659060206443082
H 23.811124379193544 24.40328162911635 4.076437873764858
H 23.04901495236724 26.312334534756257 5.457919633721486
H 20.67482820125241 27.023396486389544 5.4589283761533
H 18.994530527325733 25.820651356183497 4.072050389486519
C 20.72110597429347 22.623545085195317 1.8674357503027634
C 20.390413007027924 21.664270824160045 0.9099492464780882
C 19.060579098829173 21.597601677758778 0.4938696195470328
C 18.088259027571407 22.471754631518674 1.0061768513820304
C 18.43167549548651 23.44874699798904 1.9377297431082512
C 19.75904659092953 23.536244879088883 2.372488073224474
H 21.132047348462 20.987793235520552 0.489957819724288
H 18.77607207453219 20.85100743951786 -0.24722315320052005
H 17.058217493907083 22.39056331524397 0.660407690975208
H 17.68008374440478 24.141914222743463 2.316206370203879
N 23.461860412947768 21.121229963878463 3.877517348378153
C 23.95240089702185 21.37596053415941 5.1712969920551775
C 24.967880290191726 22.240034558162215 5.581833947057995
C 25.280429153830315 22.271057666577885 6.9410121415131245
C 24.61038633763285 21.45338724288417 7.865380947232876
C 23.62015585659776 20.568951306667653 7.444173919828268
C 23.286841320894734 20.519104714554896 6.085869573015321
H 25.508921510838892 22.870564020625483 4.879171967384617
H 26.06442238517097 22.944151354070275 7.287223207150009
H 24.878525710761323 21.50466628467123 8.92018136050112
H 23.117904031096252 19.917836023179003 8.159998329238498
C 22.511796469370218 20.086174181309786 3.959364470719371
C 21.740977226081707 19.50564160795016 2.9496364459731064
C 20.829446634238305 18.514973716284754 3.3188562745174135
C 20.6827223846113 18.119160155850782 4.658016686689336
C 21.44485816516582 18.712801738331738 5.662111267714817
C 22.369344711706027 19.70568232410138 5.318682177000491
H 21.835834783569485 19.806801088479265 1.9070896583252093
H 20.22083938604015 18.042164072925004 2.54838010353121
H 19.962239494017208 17.342250639707768 4.911777112382157
H 21.320216838215273 18.411408805628554 6.702426069791731
