54 angstroem
free
N -11.36436200681282 -27.24228225414393 14.781014947149897
N -14.407025977354678 -24.5178618899862 13.992826443678553
C -12.345209112321076 -27.537642551980813 14.225186134080893
C -14.468733350616368 -25.637932328805256 13.676839875637542
C -13.685348737419497 -29.256738394317495 13.13119099155463
C -13.53118097813034 -27.929122876077585 13.539397878986604
C -14.575175411092046 -27.002688064853654 13.281654925534935
C -15.718056174538804 -27.438106188689197 12.605388323362785
C -15.869028740296354 -28.764152800670576 12.179059539677477
C -14.83705011445892 -29.70133837947481 12.468875237239521
H -12.906399459717292 -29.979076387063166 13.368715371337654
H -16.499428937241778 -26.719058883937386 12.365850331759528
N -14.9213638264556 -31.132164268419118 12.44492214878247
C -14.036548965013814 -31.962941643685582 11.73267428945835
C -13.058942198858237 -31.622766854527566 10.79496060898698
C -12.344327455941645 -32.6626170017274 10.197787349190099
C -12.601956264910315 -34.00509134704878 10.518692243472229
C -13.588645583190752 -34.33779057725859 11.444568259615806
C -14.317027359399754 -33.314285244565696 12.061310395789642
H -12.852178307605739 -30.587075309430883 10.528108255925893
H -11.571827215952208 -32.42273531428727 9.467523956233137
H -12.025245294919534 -34.792433757202616 10.0343697739836
H -13.794100578804178 -35.38164996245193 11.682824177139375
C -15.737842286273361 -31.943918721275317 13.253412944910917
C -16.69454820793675 -31.57741211255919 14.20037230872315
C -17.341278994006313 -32.599617277369994 14.895254418010815
C -17.034026107874237 -33.95029720552731 14.664456231352546
C -16.054512623560687 -34.308103208477746 13.741001877872803
C -15.391313096451334 -33.30169156026067 13.02974475741992
H -16.936120788347843 -30.536209930446347 14.404276519639772
H -18.09847165124997 -32.33866568479896 15.634259998110482
H -17.560069081475635 -34.723338121439895 15.22375975847359
H -15.80065511177211 -35.356187897239245 13.580719726908455
N -17.177171678111343 -29.25638602059814 11.65187536581383
C -17.263514039738705 -29.66113784334955 10.307217656613322
C -16.244214549049833 -29.95357453116771 9.40064596047926
C -16.614370794303678 -30.299768429675634 8.100973413860187
C -17.962394133848026 -30.33981699749129 7.709528431048203
C -18.973565255724157 -30.014667514406753 8.61064410992124
C -18.629009739554323 -29.66489601850292 9.921184211542421
H -15.193423414401343 -29.913693702882487 9.680421538454764
H -15.836389983850172 -30.54062006383524 7.376888508763938
H -18.21606303102656 -30.616395585440625 6.686645959465389
H -20.018003167485634 -30.023134682512087 8.298089555868337
C -18.475908952557354 -28.972379083265306 12.113700519808173
C -18.898611874853138 -28.560470537141317 13.379553847657034
C -20.269605961425928 -28.39335165825294 13.582237512847373
C -21.195468134236737 -28.63822978430488 12.55541672521214
C -20.76767679350605 -29.062826374528235 11.299160577580132
C -19.39815540143873 -29.2341396331717 11.067873533490035
H -18.194700685578866 -28.374427904576567 14.189798236618113
H -20.624073868922668 -28.06641812910357 14.559505255865469
H -22.25870534857462 -28.4973453476119 12.74713669575487
H -21.489971191812128 -29.2633161581811 10.507502383335776
