54 angstroem
free
N -8.322893212251866 1.8548606306010562 -15.705639469125378
N -5.375934706284724 -1.0790352379709445 -15.609712039474914
C -7.673626219788284 1.6456538297509629 -14.760690102050471
C -5.619116239492512 -0.402103278472142 -14.692739322798278
C -7.126623205394561 2.1834191719069787 -12.445590484152946
C -6.893387783380162 1.4169760618170606 -13.590636213430177
C -5.896506159960293 0.40728276190743595 -13.553437630635722
C -5.159159253573053 0.22366301496047783 -12.380533019251285
C -5.377943207475832 1.0015928085667294 -11.236021165974213
C -6.401960722471559 1.9905278126444954 -11.262203575126096
H -7.921861749159443 2.9266653355286576 -12.457113624363526
H -4.362987540767728 -0.5185029112407703 -12.364683353617
N -6.812354881321619 2.6823023485416915 -10.179813024752592
C -6.422924170346285 4.0112869901972426 -9.92975514547743
C -5.464890519491354 4.79343786790332 -10.578717664648005
C -5.242189408769335 6.082258108150675 -10.090942034615484
C -5.947578276691171 6.575959139838916 -8.981764069384997
C -6.891712598400453 5.7849000767453855 -8.330360256739608
C -7.13748911825158 4.490292983737172 -8.801593126475083
H -4.902665130005825 4.423060230420239 -11.435071259090842
H -4.50418399788981 6.714521652339024 -10.584070103223228
H -5.7497433011733845 7.586966096602688 -8.627083756958076
H -7.429277274805812 6.167151948127376 -7.462300478256635
C -7.797771598871546 2.325045255680294 -9.241430908087956
C -8.549537010822421 1.1537194757645013 -9.145566242078784
C -9.497757584874162 1.0756276743301456 -8.125367894737527
C -9.702733833644109 2.1403859903301523 -7.233021060105762
C -8.971560473892442 3.3197287297811218 -7.354577489610221
C -8.013225880599785 3.4234182373207918 -8.369184804360511
H -8.41606810996231 0.3235805115707568 -9.836284401318197
H -10.091680814546928 0.16747071956031934 -8.025009317496808
H -10.450544129517912 2.044772527521315 -6.446400611404323
H -9.149111886121718 4.154113435536887 -6.675686351178008
N -4.4627297233659275 0.9333749150094389 -10.027637179607352
C -3.145249858577258 1.4267739468795935 -10.041333805847575
C -2.505273587095064 2.223740963620453 -10.990879410070441
C -1.164773743805681 2.5411842631563184 -10.771096536714095
C -0.4750313196123322 2.0662718131755273 -9.643837232281356
C -1.1107174043650487 1.243840333126584 -8.716632641560702
C -2.455810084190686 0.9112309691356807 -8.913281197853841
H -3.0180364138012687 2.589221907988659 -11.878305365293798
H -0.645499696941248 3.1693105746463055 -11.49454273510518
H 0.5712179394872205 2.335429005342419 -9.50224249679427
H -0.5667086962214836 0.8566668425253887 -7.854795181618709
C -4.605996709110573 0.08247390454478742 -8.915835505505175
C -5.729574991330806 -0.6187822225591663 -8.472504087223541
C -5.60716151996885 -1.362585840527855 -7.297597583215983
C -4.4016916437771885 -1.4001939390935831 -6.578587848860991
C -3.2889502626630325 -0.6865582191010628 -7.019039755433764
C -3.3833072641567083 0.06390996490309642 -8.196462803342888
H -6.674842709918381 -0.5936816894204859 -9.013279176139859
H -6.4678886832436095 -1.92368729163026 -6.934418311447029
H -4.340060450639694 -1.9914196013320709 -5.665498500602402
H -2.3579131767023647 -0.7085206003897558 -6.4521926454810465
