54 angstroem
free
N -38.979334081979395 -5.76734043974999 37.20223474490588
N -35.195206999274944 -7.028003168220946 36.02214017993994
C -38.39936448543647 -5.275997348569583 36.31879733727871
C -35.75888253425896 -6.153834299626799 35.496486511204694
C -38.32354034522549 -3.5972027346902045 34.55131623527504
C -37.71775174104082 -4.657178442321343 35.23134211088157
C -36.421123335040505 -5.078611268995992 34.83664423286521
C -35.79607116278132 -4.437927379947799 33.76336149495188
C -36.4071854754496 -3.3864094089589325 33.06780573291928
C -37.69296242930689 -2.9405441077705463 33.48646023245676
H -39.29796518385781 -3.242035527765787 34.88192850511665
H -34.82160622634783 -4.789915873382069 33.429485682204415
N -38.4350950931755 -1.8038730399248386 32.79771905229249
C -38.36719299831116 -1.596210790815089 31.407520830741912
C -38.20365147756023 -2.525108935090935 30.377402763961996
C -38.121613007195386 -2.037240169479283 29.072093521459493
C -38.19149909871293 -0.6614335476824975 28.800317886305347
C -38.34032137580814 0.2606240115297873 29.834316325956248
C -38.42947717881868 -0.20205868058379142 31.152060614391797
H -38.13900216470793 -3.5950744964822676 30.571342510865843
H -38.00024259755992 -2.7424863826542705 28.250216723932564
H -38.1247171065039 -0.31431702421510244 27.76972477899353
H -38.38255540312597 1.3289272857906647 29.620858005308527
C -38.57834534441056 -0.5534248126397225 33.42628752978978
C -38.78008282278393 -0.25502685288806015 34.774102798632526
C -38.92749132864687 1.08726345511531 35.12417809890889
C -38.88963176450907 2.1047285913911145 34.15704845031215
C -38.72056980517413 1.7973508430773661 32.80902147787891
C -38.56938294617569 0.4582998297046799 32.43130514639219
H -38.827347067949844 -1.0300106327661274 35.536469150806695
H -39.07798562136598 1.3461339700272403 36.17198687231925
H -39.00630216235611 3.143075878067004 34.465847468638714
H -38.71548763514828 2.586861500518825 32.057181992111026
N -35.457698652965924 -2.69515936643839 32.29407457870945
C -35.07754662754119 -3.212233799270215 31.042075431416826
C -35.32565869412807 -4.468124005803128 30.487509745604275
C -34.79412360337813 -4.734228454825304 29.225498074021193
C -34.02381087054879 -3.7813152017795053 28.53951366303235
C -33.75222033386006 -2.5413667581986052 29.11306848030758
C -34.27464500790383 -2.2489064326534374 30.378024360549816
H -35.90745973563263 -5.225218616347049 31.009373867710462
H -34.981331623627554 -5.705343757587031 28.767840093870312
H -33.62567868778067 -4.021787606713246 27.5542238767822
H -33.13400821345282 -1.812048643956501 28.58912052856091
C -34.87565819860017 -1.4225350548213718 32.443463976972964
C -34.9812885295038 -0.5156250012580752 33.50038755342134
C -34.329897031931225 0.7119299434785961 33.368356694240006
C -33.60056453849965 1.0317042801172394 32.21191150434439
C -33.51137327929651 0.1277296762703029 31.15534061747584
C -34.151529082790915 -1.111990006445098 31.26362925132739
H -35.550063942238204 -0.7440072382280636 34.400906779793246
H -34.39195604887052 1.4341364554081737 34.1820837393933
H -33.10348668241582 1.9986839712306712 32.14161052621841
H -32.95399961503346 0.3837056178200258 30.2539866562478
