54 angstroem
free
N 14.232392026959777 -2.8833508394291534 -18.981315041813435
N 16.644083503368435 -4.3652909718276405 -15.933511055025594
C 14.75684002703973 -2.193539566775039 -18.201982556482978
C 16.437708151437796 -3.2270008642203942 -16.074642001499065
C 15.18657089562293 0.056185047967313544 -17.364032295322826
C 15.387866202405483 -1.3233031028003173 -17.266789472546115
C 16.200476701653617 -1.8295148268544192 -16.218910122382937
C 16.796426637197378 -0.9328569157450352 -15.327871310655347
C 16.611251597918045 0.4519670684821269 -15.432376344478696
C 15.767657967061789 0.9571322078943398 -16.46215680640187
H 14.526677629848177 0.4431378714346619 -18.13847427131827
H 17.457047659486822 -1.3155651081264366 -14.551942722072836
N 15.675438885726326 2.402152292785587 -16.673132746249223
C 16.700303089857183 3.3651953003676924 -16.723994598684172
C 18.08289719204035 3.187499420105689 -16.811164236180648
C 18.885044535951565 4.329843517966406 -16.79745065237974
C 18.326663080865757 5.613759201032681 -16.69086457625512
C 16.9472695127843 5.782742864398653 -16.5898255159283
C 16.119755340177335 4.654270603884324 -16.60546814616538
H 18.53307293108024 2.19836290712536 -16.885791471918502
H 19.966573012946085 4.217925539375187 -16.87062843154692
H 18.98156388277134 6.48446334514769 -16.683716060989536
H 16.517735765257864 6.780351041456405 -16.495492391750496
C 14.443159149101838 3.0716182589666396 -16.56114299076862
C 13.147500960002764 2.554401254624323 -16.57123154516062
C 12.089455512038095 3.45891089540851 -16.479430705328845
C 12.314104527224272 4.8424964807476005 -16.394388625473844
C 13.609306993400649 5.354495638663349 -16.417780473719027
C 14.688644268978521 4.468259102337594 -16.508337400839366
H 12.952324752300223 1.4869185504860136 -16.651376084494057
H 11.068294570409375 3.0783976168119502 -16.477047981854934
H 11.464330402780874 5.520556357752067 -16.321913499923355
H 13.780562634305088 6.430379810556266 -16.375824864389244
N 17.0451805170461 1.2666653449964762 -14.333591587813926
C 18.416007848787924 1.5202906961996083 -14.144145014551135
C 19.519795525047158 0.963287752239732 -14.790491202356336
C 20.786988482341275 1.3734113680438986 -14.37571991785878
C 20.952088894357786 2.302234123709049 -13.33551314571219
C 19.846614756547947 2.8296439716230672 -12.672214967112177
C 18.5640028392921 2.4353618256281244 -13.069735054768177
H 19.41312398201357 0.23117193278999115 -15.588397507614271
H 21.6645601157506 0.9586719538408286 -14.871120611682757
H 21.956545317538332 2.60204725387677 -13.038340542180896
H 19.977712967657837 3.5323388376081466 -11.849022536339392
C 16.32264155815159 1.9898503768914373 -13.366326482543787
C 14.942706036085315 2.075918592896751 -13.168586057625781
C 14.485096388849936 2.9143367326963356 -12.150606388454745
C 15.376391812205782 3.6539473866918124 -11.356808216132706
C 16.751178077496743 3.5742256052022303 -11.569115461463912
C 17.23689851102198 2.737766704950871 -12.58047244162835
H 14.236882743344308 1.5158571195000117 -13.780748959802132
H 13.412952857615226 2.993715750094969 -11.972301897487018
H 14.98571725936034 4.298534950852421 -10.570068989038559
H 17.4399105094881 4.1587217196674855 -10.958673017833034
