54 angstroem
free
N -5.152344011758016 -27.15916274759828 5.896492101236696
N -3.794875485678362 -31.051459422797 6.452205398014299
C -4.7842942644766016 -27.82897977349692 5.016646117724642
C -3.8355150490034595 -30.543504013359446 5.404091460062234
C -4.35689208290533 -28.08661177258096 2.629379222296872
C -4.34462722439463 -28.624267732193726 3.919239357180166
C -3.869270035190828 -29.947983956194758 4.11015338637981
C -3.4493246262711277 -30.6856157306964 2.9999069641800364
C -3.4763889881776198 -30.156407722462305 1.7029277936098954
C -3.9200214688737387 -28.81641031015444 1.516147203245297
H -4.677288696403519 -27.056097184072943 2.4867689950374054
H -3.128158066866769 -31.716499634392804 3.1380420010326375
N -3.9867146464709946 -28.173052805547545 0.2242869057935373
C -5.126330041764797 -27.537313122137903 -0.30249312908082765
C -6.459132620914246 -27.620791560521944 0.10666388025980086
C -7.409006166714376 -26.912663831730065 -0.6314918135791353
C -7.0433665249259185 -26.14932845962007 -1.7518563454478575
C -5.713688536043732 -26.082137868854502 -2.1628707688633972
C -4.740524550460178 -26.77918087433385 -1.437917704057207
H -6.761186007586625 -28.215082870758746 0.9681742120734371
H -8.454890263454256 -26.956643077569755 -0.3285450361282924
H -7.810020427050327 -25.60816985112455 -2.3054455640881213
H -5.4348255662993115 -25.49790980416093 -3.0401011069408406
C -2.8719540788649245 -27.794215200983743 -0.5457979471815129
C -1.5212576781442075 -28.088279633213705 -0.3574082068360662
C -0.6090764706900363 -27.546433917957017 -1.263142119223988
C -1.0281402032635445 -26.722024165249938 -2.3199025249032066
C -2.374860647547224 -26.40580332921573 -2.4829613255437146
C -3.310672238684438 -26.937316766479864 -1.588346971913661
H -1.1751501188039148 -28.712709917883586 0.4637693621629584
H 0.45086605965574666 -27.7685292372189 -1.1416464287915535
H -0.28875820734403745 -26.317187932414868 -3.0102327298735596
H -2.6953110646286493 -25.746224773022828 -3.289734637836802
N -2.9531182449622175 -31.084931490846763 0.7208896229218782
C -3.686392735289525 -31.544325760747004 -0.38845650113606817
C -4.989636697562752 -31.237259356265337 -0.7804109709015257
C -5.489226926014381 -31.87157672463273 -1.9179810432588116
C -4.717821075879104 -32.79791728756284 -2.638276928403563
C -3.4291779246972762 -33.12468317244546 -2.2225587833025373
C -2.903893472751408 -32.50159452450721 -1.0848370500208249
H -5.608490747063626 -30.533636857116836 -0.22727273568315742
H -6.501796747985249 -31.641790435092464 -2.248833302844105
H -5.138758448442377 -33.27333467490275 -3.5236707456248086
H -2.8408646830301363 -33.8619046940404 -2.7693718697369696
C -1.7225033454257113 -31.76703446111005 0.7522492840692734
C -0.6571833217243884 -31.63734386729768 1.646119887395626
C 0.4799476688675218 -32.4135880846714 1.4158761068872858
C 0.5581214623979921 -33.28858964846768 0.3205185803510263
C -0.5029599247059472 -33.40225336824536 -0.5753910427943861
C -1.6566363744840786 -32.638480380658685 -0.36536188924365015
H -0.6976798013927645 -30.957120071584797 2.495975414082651
H 1.3222333522111651 -32.3351032267355 2.1028842772753675
H 1.4603606864204932 -33.880611052895595 0.17034073613070674
H -0.4345226984862284 -34.073922860173525 -1.4314310461634212
