54 angstroem
free
N 7.281831559053451 -25.83203485121619 28.067633783787024
N 8.235480825029638 -29.389807002539094 26.135194425864107
C 7.437746325852493 -25.89979195127734 26.91466198003586
C 8.104845611330267 -28.3809878035478 25.56648416245946
C 7.483894149943291 -24.782285490536527 24.747373399734776
C 7.617908231031012 -25.950718513404397 25.50220319668547
C 7.955969259670189 -27.16198611078917 24.844036945653347
C 8.121721801066814 -27.15763534601618 23.45637377863441
C 7.971144608055575 -25.99194609945784 22.693849251841716
C 7.66677245704527 -24.770072515839868 23.358433611575855
H 7.270379892689397 -23.843555771626647 25.255458196567595
H 8.335305279232609 -28.09417554374895 22.94429426716036
N 7.341521223514725 -23.613057991479568 22.52806873206489
C 6.122411205310595 -22.91023244962737 22.541940308369316
C 4.855272165412209 -23.33722661849809 22.945394712572362
C 3.795170759310559 -22.43937380180792 22.80892570515847
C 3.989475679097492 -21.154506580701923 22.27699361879323
C 5.253880886504678 -20.740324967317175 21.863201341827594
C 6.335014998339952 -21.619405260472195 21.992973877092503
H 4.68541414932095 -24.33339648767327 23.352103831921706
H 2.797756496677165 -22.746630479909758 23.122521926920115
H 3.140249192417113 -20.4782014263596 22.184811295560237
H 5.399147291929981 -19.746200224974057 21.43984130399953
C 8.336480175032968 -22.7646610983784 22.00891641234296
C 9.709992098866707 -22.97711837126364 21.88778733336205
C 10.481150574476825 -21.93923691102345 21.364201681908078
C 9.90318093864971 -20.717000638442354 20.984599256497948
C 8.535970505808667 -20.499654312155574 21.138664020283755
C 7.739613076944318 -21.525220171612453 21.660788740277987
H 10.17881278932689 -23.91139516669167 22.19006246067775
H 11.555382353418615 -22.084312375739763 21.25219768235263
H 10.534999875322075 -19.928301093828008 20.577301131302487
H 8.093103564317815 -19.541542572043742 20.865705626714416
N 8.234811746060329 -26.072395543592382 21.25404220724106
C 7.2333639651172135 -26.28718382115894 20.289494782689818
C 5.848433822219269 -26.16455700175717 20.40479469937723
C 5.076094681120848 -26.47843161863042 19.2863182509395
C 5.6650664836071 -26.91672289634998 18.08923305845732
C 7.0462040411516496 -27.06855034260657 17.991222015812802
C 7.843930641699351 -26.759316439834627 19.098733020355045
H 5.372139430556808 -25.840950303990414 21.328076466111245
H 3.9924005773463818 -26.382459791399313 19.34923962029738
H 5.031826183316795 -27.151380917974713 17.234204105523794
H 7.499545491436588 -27.43183431096674 17.06866097094604
C 9.47427909513093 -26.43494504671748 20.694632277295078
C 10.752696632377521 -26.376999124532563 21.2541159044692
C 11.829030828575359 -26.75956415762736 20.451755096115633
C 11.6389724995035 -27.17987580295345 19.125571495729098
C 10.362127344008508 -27.221513026133522 18.5693341411479
C 9.265001105116454 -26.84732642122461 19.353380806418727
H 10.918933044768124 -26.04519442852591 22.278259396497294
H 12.835957360297398 -26.729236647979103 20.867404555809287
H 12.501017891164828 -27.472342706460598 18.526890279530864
H 10.219167135425 -27.53721964958413 17.535641849235592
