54 angstroem
free
N 20.186810601886005 -27.633361654213243 12.015755556166361
N 18.213555147130798 -29.88646376045447 14.902155612361872
C 20.679406296377067 -28.546404744163095 12.546741636043793
C 19.303967271764495 -30.117206210355686 14.561608377343125
C 22.61778701051651 -29.999929836722544 12.826089294207554
C 21.30786176531081 -29.660217151570333 13.174879587567384
C 20.639433541317175 -30.421383105257775 14.16909654873448
C 21.300973235246072 -31.504374063139313 14.754415024214163
C 22.60791473816034 -31.858934927354873 14.395055780442382
C 23.290849412844207 -31.073770451291445 13.423249828876024
H 23.148537150928913 -29.389488109440574 12.09765455448603
H 20.773903828517586 -32.11746298603669 15.483298199556861
N 24.694328683523437 -31.29152581730147 13.054659866616813
C 25.02991039375311 -31.827241459183497 11.797369499916691
C 24.258864810979826 -31.919491634689432 10.636456308777936
C 24.82915577259674 -32.548067519964945 9.528196845840732
C 26.128388045682996 -33.07835801989174 9.57695552188343
C 26.88658925830613 -32.99542590022709 10.743036209728636
C 26.340317817782903 -32.366420258803615 11.867497617168908
H 23.246335893890787 -31.52116027583579 10.58415160289812
H 24.250022660837796 -32.627035835868625 8.608439643208637
H 26.543629552667923 -33.5621886789689 8.693465707341137
H 27.890669230441627 -33.41850241093258 10.781111518780378
C 25.796816568910728 -31.452352023313438 13.913668090405563
C 25.977365440626254 -30.99980318993521 15.220935090608778
C 27.1996692933005 -31.27105212257265 15.836095689724864
C 28.220732339385034 -31.961676980277527 15.163432349584344
C 28.04593012989487 -32.38210382091269 13.84702617978301
C 26.828475936809873 -32.12331627329908 13.20716759950147
H 25.20412268922451 -30.450142406162886 15.753856185199714
H 27.361496762421055 -30.934876087505504 16.85999180015408
H 29.162516584991813 -32.158292859906666 15.67482117797713
H 28.848656133972053 -32.8969634244465 13.318664494899613
N 23.012786816993813 -33.07978149429328 14.996117636136642
C 23.681571199343004 -34.12046206213206 14.325972277283125
C 23.63532718795264 -34.48386293622078 12.979805792611144
C 24.380031236407994 -35.595066490346476 12.584006435344742
C 25.139172911655336 -36.33399526606675 13.50579175071066
C 25.154762962721808 -35.98545426379574 14.854300115838901
C 24.416933157622697 -34.87402913680474 15.277283953387782
H 23.04149851198199 -33.933269624532045 12.253003638052782
H 24.366544424902976 -35.89360324934532 11.536029092869542
H 25.710832340281566 -37.19540500689804 13.161828189496857
H 25.725625819796655 -36.57472884553453 15.57227202298327
C 23.292794644257 -33.185924498614405 16.371250429962593
C 22.877182332385946 -32.372808436522824 17.428056814454703
C 23.345790265748562 -32.6815948653511 18.706216319131073
C 24.211763887906958 -33.764947831110206 18.92526660305542
C 24.633766178795984 -34.56326089327035 17.864098602517533
C 24.175442093161085 -34.27820155823847 16.572932083156413
H 22.212710428564954 -31.523371117807994 17.27465497624173
H 23.03072009617862 -32.065926003420884 19.54839677020292
H 24.55830611663094 -33.97871305611761 19.935856162594174
H 25.31543638670926 -35.39659836357629 18.03586133396798
