54 angstroem
free
N -0.17517620321082758 -11.785554880999424 16.302052550308524
N 3.7831919866053254 -12.341771094592302 15.151636854630096
C 0.1324723912447283 -12.036123694993673 15.206236858167303
C 2.8937184063833223 -12.422334910312255 14.402931758682966
C -0.5326050963755178 -12.45485100603026 12.897464570516988
C 0.476013878941653 -12.345848836076398 13.858594017989104
C 1.8276098052777587 -12.52301749380673 13.46307286282011
C 2.1106686750285952 -12.825443052516707 12.128337549385682
C 1.1011313840563153 -12.952784692756872 11.165234683978975
C -0.2517362352646157 -12.740219019680783 11.55492028940973
H -1.565623132877311 -12.273710342353995 13.18903579717155
H 3.1423341401905707 -13.007340975880576 11.832482206938943
N -1.3337532134537151 -12.850081937554036 10.527613848841517
C -1.812267493609144 -14.135521255769696 10.212883420907922
C -1.2115683130187878 -15.380581545836638 10.412197724186766
C -1.8947317200704412 -16.509750212767504 9.957396292209202
C -3.137943280335136 -16.401840160366625 9.313680237379135
C -3.724634328276777 -15.155279982465503 9.105420008345659
C -3.0628963894854717 -14.007203713732842 9.55541758837645
H -0.2438204692067448 -15.481569115062836 10.901977351472137
H -1.4498019029156455 -17.493276201569824 10.106723299153304
H -3.6447252318577177 -17.303596457387343 8.97151141562506
H -4.684538111315993 -15.074160586495518 8.594906125656653
C -2.289377342104907 -11.906415577520733 10.108667479739454
C -2.3082872148570495 -10.522811751067586 10.286510724274534
C -3.4103685665562566 -9.822729389971725 9.795260649115855
C -4.4723787120941845 -10.48337244786927 9.156751754773268
C -4.462456864431499 -11.868671834621997 9.011538426660438
C -3.3679336736762977 -12.594617636846644 9.494866872907384
H -1.5023206588059772 -9.994324204776804 10.791639467086974
H -3.4442052719211116 -8.740086296873097 9.914862955127905
H -5.316934429625773 -9.905144824097047 8.783238223168524
H -5.29905681238138 -12.38196386734672 8.536936134991816
N 1.580439324727583 -13.412463865134244 9.855006952254993
C 2.3392826152500716 -14.541757076176113 9.496904871462261
C 2.5789319538596063 -15.714380825706064 10.213762350236374
C 3.4098273156990944 -16.67083642482689 9.629964290729587
C 3.9985001193163043 -16.46006304930367 8.372570597107316
C 3.78152331710584 -15.273040949016671 7.676798873400503
C 2.95102516083746 -14.297531040320521 8.24002812645611
H 2.144239410692173 -15.8900876107758 11.195697369342623
H 3.6053605355830673 -17.598734522769814 10.166932148850726
H 4.640775976347256 -17.229403274182513 7.945101864639409
H 4.258674302578239 -15.101416551304792 6.711664376611396
C 1.7312359720918158 -12.439774051884326 8.84912633324791
C 1.157758235582584 -11.170317741443233 8.747465032238432
C 1.443711543424102 -10.419720589446122 7.605769453556542
C 2.270840681821409 -10.922588325320152 6.588651752298936
C 2.8280144656364494 -12.195667460879212 6.690111563702751
C 2.560896285569224 -12.96757882338392 7.826435240739663
H 0.5069874247056578 -10.768273765263185 9.523001482889192
H 1.0133770525913495 -9.423513469334567 7.505925218321719
H 2.474206669477088 -10.310089907183604 5.710832688707104
H 3.4603916371036165 -12.587761676344538 5.8932494132064654
