54 angstroem
free
N 15.44939687160209 -21.509255191784455 2.564094328269293
N 15.859652177361076 -25.592564857337663 3.2421682435408012
C 16.376241700505087 -21.96799719707787 3.1014571992187667
C 16.661942589078 -24.816118393724185 3.576344968377713
C 18.530287072230568 -21.632761839794057 4.194981727313161
C 17.52415816083593 -22.498559266395656 3.757874240568256
C 17.658484471091853 -23.890516501394174 4.000873754692975
C 18.804431025393598 -24.359390742955963 4.648998233106177
C 19.823502660405932 -23.49658732109851 5.073276234541179
C 19.672175065957916 -22.096839578644467 4.860917932347256
H 18.40775083402132 -20.560747120486877 4.051032792262496
H 18.930976371516657 -25.430663989306023 4.794980345761922
N 20.805146334381014 -21.204573346128786 5.191775815707408
C 22.150820881414056 -21.268853086683727 4.78506519645057
C 22.78438612940467 -22.19514604235475 3.953610291018014
C 24.157740015721195 -22.050000350671553 3.75011510000162
C 24.88241785760867 -21.01619799218239 4.364675618820134
C 24.246347896171123 -20.104183269334193 5.20439886806704
C 22.8691713301376 -20.224386162461766 5.422137268328259
H 22.23895129094169 -23.00808811713842 3.4758608988863684
H 24.674012196129787 -22.756404550457585 3.100468572952727
H 25.953486461293554 -20.931200032766814 4.18395688353843
H 24.81407588910621 -19.309662285018206 5.689209537332062
C 20.65469165428078 -20.103026274227116 6.053864658068475
C 19.498155856265903 -19.580152181052988 6.632978621021792
C 19.63120217994262 -18.442483476998603 7.429241046353695
C 20.879755426809478 -17.83265433437803 7.632296737919314
C 22.025558544666467 -18.34072883083629 7.0246494176602505
C 21.91951871553707 -19.48193373273326 6.221535704451128
H 18.51960307361297 -20.02930859320164 6.4757234403106505
H 18.743279074458272 -18.02019173188051 7.89916438267533
H 20.947759233578243 -16.946106881351476 8.26201334004879
H 22.989919958538525 -17.851717728141963 7.164258600387935
N 20.853720694780336 -24.18969879437954 5.780294325973221
C 21.641756847666155 -25.212014926996535 5.220604998685042
C 21.768765107652296 -25.606991142131 3.888604398195166
C 22.603351262342436 -26.690033893422406 3.6120199825558754
C 23.282300748603184 -27.37138563815981 4.635146260861058
C 23.12526874975908 -26.992654576587533 5.966349635675197
C 22.29432970999352 -25.908460320897937 6.270713051923434
H 21.239559431600757 -25.10152648614971 3.083325752544696
H 22.72526223728446 -27.012059575357565 2.5780955291926855
H 23.928003136610954 -28.212057382221996 4.3832105146167075
H 23.63444294929682 -27.538035309335058 6.761279874496499
C 20.97625294839116 -24.2518600430711 7.180930876737439
C 20.404579807900873 -23.43617376892933 8.160000221131442
C 20.73457706038602 -23.693882660593037 9.491661632205286
C 21.616689428294972 -24.729700239296676 9.838802386959177
C 22.194549160433734 -25.530396841296557 8.855730525081809
C 21.87732895619529 -25.296181984514103 7.5129924584559
H 19.725204870988954 -22.622910188033714 7.907709047197781
H 20.296457610320715 -23.075353715057137 10.274642195488685
H 21.85246783809107 -24.904262115644595 10.88809502410103
H 22.888132443407258 -26.32635739792475 9.127791307921882
