54 angstroem
free
N 7.492328628446318 -16.735429056664856 -9.22622584188857
N 5.178186511242376 -19.3919111747243 -7.015036005377798
C 7.3739394578212885 -17.858253267666043 -9.515179497044867
C 5.761296999754369 -19.71210018936438 -7.97194470118144
C 7.9182504887245635 -19.690157055549633 -11.030416810254923
C 7.245752697911843 -19.224907858316964 -9.897167750670521
C 6.466558353950884 -20.13460479323867 -9.135626598473326
C 6.373823719015287 -21.464918780734262 -9.553677888857072
C 7.032370750811809 -21.931364952963992 -10.698969266577839
C 7.842328551151687 -21.026923813101114 -11.44277328515359
H 8.553375225603636 -19.00524767361153 -11.589404905946951
H 5.739788615565934 -22.153179384064277 -8.99757744857311
N 8.548131052841486 -21.349991173918678 -12.696476043539198
C 7.998411048847294 -22.120594959227326 -13.737803620563493
C 6.763577969556739 -22.769622886130637 -13.80629332303347
C 6.485771816059536 -23.514140373096797 -14.95394131537362
C 7.415476880505636 -23.617149277897635 -16.001141191665596
C 8.65128842892962 -22.97868306272871 -15.919767395326776
C 8.953587103873742 -22.22215672820209 -14.781893300010784
H 6.034391035625399 -22.707249798408004 -12.99943864283596
H 5.5263888773156475 -24.0247703241538 -15.034103013063566
H 7.166454360961475 -24.206022258407497 -16.8833476673681
H 9.375483973285625 -23.070255405439635 -16.729566983557767
C 9.832398144607374 -20.928811706734102 -13.08699573309652
C 10.722454682826662 -20.073737381718058 -12.436616913514031
C 11.931284666289274 -19.79255117299502 -13.073554619675203
C 12.240339289373697 -20.336199423531735 -14.330909075255175
C 11.33333524866341 -21.163113067041362 -14.98954193275089
C 10.113588242752172 -21.461693939931276 -14.37176251116509
H 10.495186156448682 -19.630690870031295 -11.469096873270562
H 12.646492988387273 -19.133739652614658 -12.581609360643878
H 13.194750596886497 -20.09705021864901 -14.798926828226241
H 11.565207435962751 -21.564769319142723 -15.976214656064165
N 7.401826438120503 -23.399050167822406 -10.517677586087206
C 6.307820977482656 -24.283260873012473 -10.491090422526705
C 4.963638185647687 -24.02502469879785 -10.221183755706889
C 4.083553847211686 -25.107356698966534 -10.226040539659897
C 4.531315642596086 -26.41419852178829 -10.478377241364399
C 5.880082978185292 -26.669622116353935 -10.714563931429593
C 6.783745967281028 -25.600994776293184 -10.716228635717473
H 4.599584794628121 -23.02187090565272 -10.008640915465707
H 3.027118945221832 -24.92968386150006 -10.02618994150269
H 3.816091999116944 -27.23613765012158 -10.476537539670309
H 6.2292713591576785 -27.688011315414208 -10.88650435003695
C 8.57373478386572 -24.14979576036772 -10.726657981811353
C 9.896040155243844 -23.717224325986997 -10.84962756136576
C 10.872473346527872 -24.68210091432558 -11.103055194958563
C 10.540597692993867 -26.039613629469912 -11.239307785368194
C 9.217387637455525 -26.462183328824416 -11.129684785015463
C 8.219245951283368 -25.515868291511445 -10.871553428606076
H 10.169863929426532 -22.667111625969603 -10.75537974274601
H 11.912526883708459 -24.3705304725746 -11.196851629305055
H 11.327526775214412 -26.766954887949037 -11.436273921619385
H 8.961551709630896 -27.515406177297443 -11.247573110036317
