54 angstroem
free
N 24.612897990734805 -34.00764069339055 35.64536563214184
N 24.032662994022456 -30.430815760456454 37.68770796951001
C 24.926631267047078 -33.86020671910613 36.75805564913713
C 24.523786188027263 -31.364708885896803 38.18253595737982
C 25.9189541711277 -34.784911102106925 38.784951591178896
C 25.317537990195632 -33.71279886437855 38.120243044333975
C 25.131423197235325 -32.488359801826775 38.81360264186993
C 25.5326643406277 -32.39627245347886 40.14912776868634
C 26.120075837645537 -33.47420409158741 40.82437563524588
C 26.33886609770874 -34.69107334801345 40.11822418780424
H 26.104794602081597 -35.70962466787071 38.24151793423148
H 25.348703323546122 -31.473383611887417 40.69628898848043
N 26.97404192369525 -35.85209743806098 40.41313492462848
C 26.320437316446903 -37.03334061649106 40.81043955610262
C 24.967837724920347 -37.252324268190655 41.08110785540185
C 24.590589480308125 -38.52673040047348 41.50789964723786
C 25.53535276258114 -39.552843074906505 41.669470195505674
C 26.88521543001725 -39.32320165550239 41.41134893830833
C 27.28987789247718 -38.0555425221936 40.97803305617254
H 24.223113649249314 -36.46524519137414 40.96925509683747
H 23.540015549696367 -38.724530021590546 41.71945151806575
H 25.206903999116793 -40.53645183106572 42.0036963057541
H 27.61776807231346 -40.11884174841372 41.54898440732209
C 28.348509992745825 -36.12584055554378 40.290082223342274
C 29.380230291043333 -35.30443572431732 39.83489799601363
C 30.663650596761215 -35.84839461666557 39.780434276618045
C 30.911660227180953 -37.1788196461307 40.15522604749899
C 29.871530149134735 -38.00335444228637 40.57773230228373
C 28.57447623425777 -37.48175858316745 40.64233579655719
H 29.20596007005798 -34.27574417387216 39.525932290808306
H 31.487583163301053 -35.223834988271854 39.43601288116867
H 31.92687541201754 -37.57081164210343 40.102176007245
H 30.06237106267745 -39.04286185937862 40.845350677127335
N 26.77564441111966 -33.370528261184376 42.118999476750005
C 26.350961419749446 -33.92810250515595 43.338892388297864
C 25.467323249877595 -34.981837283658805 43.573816864781456
C 25.190959710897122 -35.31035088763336 44.901113589717404
C 25.767145429678795 -34.59990154107293 45.96660489881052
C 26.62284700009444 -33.52771305550009 45.72497426215535
C 26.91732785783118 -33.17827876808358 44.40219285004242
H 24.999094828936826 -35.53485195422513 42.76205102224198
H 24.51017394694817 -36.1352322949006 45.11007293611942
H 25.530902855980397 -34.8847285864198 46.99139520711292
H 27.05020382881332 -32.962333980365514 46.55342174755616
C 27.582528871645106 -32.25213779931739 42.3997149261254
C 28.248157721384516 -31.39379981916005 41.52169146133221
C 29.028898934709794 -30.377992917098407 42.075960050350886
C 29.151000506910613 -30.226143249674273 43.466492277287664
C 28.495583806084426 -31.095012140353475 44.336528485261034
C 27.70285026989368 -32.11957058094916 43.80710963870979
H 28.171374952498443 -31.50263503285144 40.44055405284845
H 29.553125030857224 -29.691283803753958 41.411729017322024
H 29.768092748484776 -29.42200937822717 43.866047314473605
H 28.601804617604408 -30.981552160414605 45.415635532703526
