54 angstroem
free
N -24.78457689148222 -12.699415304085063 -4.008822520781203
N -25.642465033079734 -8.764590957375718 -5.049349681563187
C -25.100690041484615 -11.896023908410804 -3.225956528984373
C -25.697378678984716 -9.150651632913123 -3.9510989154307277
C -25.573402550966733 -11.319856289867449 -0.9037455436321679
C -25.48877956414978 -10.93794267089315 -2.245365632542101
C -25.76910780411584 -9.592022385670372 -2.59828478654186
C -26.14548295435949 -8.691773157495811 -1.5977874238842935
C -26.248415622321833 -9.074877779610903 -0.2540671111192005
C -25.932961478081722 -10.416185636225087 0.10464133389445329
H -25.314008580773702 -12.339545226669271 -0.6246376355044823
H -26.405726800199634 -7.671115050783244 -1.8725255539108552
N -25.761207232527052 -10.965346809164355 1.413569517808183
C -26.449475729940687 -12.080053152178795 1.9274777233332843
C -27.491645470684915 -12.81863046871004 1.3625648079758443
C -28.030484261749148 -13.86136979886081 2.118161200398978
C -27.550987841683455 -14.155274009920557 3.4047432693306323
C -26.52062566709127 -13.405052920693556 3.9677824263255346
C -25.959587409739342 -12.356599262275326 3.229910458818039
H -27.88131037648389 -12.598651864405188 0.3693935556323027
H -28.84034051685815 -14.456555497869893 1.696887776597091
H -27.99366211068153 -14.976594874655666 3.96736516448218
H -26.158554057566572 -13.628496231165247 4.971573883798342
C -24.810227404629842 -10.55407463357533 2.3652692073224313
C -23.834823277994577 -9.56079732195485 2.273987645915191
C -22.98768234588721 -9.383928872154177 3.368106033950728
C -23.098634708715373 -10.183748717512426 4.517012555597403
C -24.053443650603686 -11.195405560415283 4.588637002248389
C -24.916451555340267 -11.393050623374855 3.504783462663863
H -23.723158901141677 -8.940718420945274 1.3868183011239288
H -22.22301181105077 -8.608759921276514 3.3238593163811077
H -22.421574754558417 -10.017031171232976 5.354227570656233
H -24.12210491507224 -11.83085986765892 5.4718691196403135
N -26.73732886376617 -8.12121014498083 0.7306736766986861
C -27.922747070243208 -8.19706235124862 1.4846057126949077
C -28.954597010647657 -9.134135898327555 1.4250928889989005
C -30.046343923855133 -8.94861616406351 2.273435800444737
C -30.116468741239473 -7.851806119801309 3.1475583451153444
C -29.09809476348196 -6.901984180520989 3.178403374946692
C -27.9910555039137 -7.0653672523013915 2.3379606281416025
H -28.925874408947163 -9.98239978836889 0.7441742094522177
H -30.86111454851461 -9.67195407135035 2.25121639511082
H -30.98315783394943 -7.738747460827931 3.7980965312258306
H -29.165747804001775 -6.038477277748626 3.8405147618692492
C -26.06733688078198 -6.932791534395245 1.0762642872500523
C -24.84688359754318 -6.434393939895181 0.6149350341763009
C -24.38543460253411 -5.238017538206049 1.1666437469223885
C -25.114620622287948 -4.560699979314006 2.1571363832365527
C -26.32450944204933 -5.071226222886084 2.622968115235645
C -26.812128990984 -6.266949045859546 2.0836121300105765
H -24.264219946090165 -6.95137623197371 -0.1465314275360495
H -23.438810915081767 -4.825226592955393 0.8186602683719519
H -24.72600044493407 -3.628621266976119 2.5661375780027402
H -26.882521085153435 -4.548936937998637 3.4004415596308606
