54 angstroem
free
N 35.05743772491479 -26.40693138328298 -0.9328064260309051
N 38.673090469528894 -26.718413253814873 -2.9654268406606823
C 35.40047867061003 -27.38798652693036 -1.4601565318045202
C 37.92169101121611 -27.60513366995295 -2.8797597135658406
C 34.94548698749677 -29.71298960078009 -2.0393226363516628
C 35.79345587611543 -28.603394105707554 -2.091381511408003
C 37.02129121868537 -28.70618962520454 -2.796002486304461
C 37.35943322575076 -29.92138759575193 -3.3977131930978883
C 36.520106507997646 -31.04134150676567 -3.333041231413401
C 35.272555732229065 -30.927521577803 -2.6563197839126897
H 33.982845425119045 -29.622519731575338 -1.539234235029455
H 38.321119150336145 -30.016190422430704 -3.8988354104204914
N 34.61817317183077 -32.140072492280375 -2.424070288512963
C 34.66644149840776 -32.976998821611616 -1.2937562227258135
C 35.40733627139585 -32.83988510637775 -0.1177393914650015
C 35.302079289301524 -33.85355532040509 0.8361852001856388
C 34.4883530740928 -34.9775471064399 0.6215179371032445
C 33.763104018253024 -35.11465212494496 -0.5603056566555894
C 33.84729475236672 -34.11067711475952 -1.5316038290563123
H 36.05000480577416 -31.97874053187495 0.06121769380771561
H 35.86543864179422 -33.76672642524787 1.7649862826412201
H 34.42842474692822 -35.75032306434113 1.3872187812187606
H 33.14132248449719 -35.99421758244279 -0.72874669610443
C 33.743895059109576 -32.71504885717196 -3.3644317594034816
C 33.302983721151996 -32.213782165158335 -4.5894518600664185
C 32.39538753698026 -32.98567060535388 -5.315043106425895
C 31.92770135682272 -34.21699287408142 -4.828089808096763
C 32.34687838964753 -34.69626357468243 -3.5892072650937026
C 33.257930948529065 -33.941492062205604 -2.841619204241432
H 33.64204791079145 -31.255220031231396 -4.977047439992366
H 32.04261807431033 -32.61909252998679 -6.278754641137003
H 31.220445627175142 -34.79510427783979 -5.421984109235951
H 31.96413562083962 -35.640936331562536 -3.2022746167434617
N 37.05971779996175 -32.264250557443354 -3.7921133772847977
C 38.27935669225523 -32.74146170923446 -3.2781738036424493
C 38.8207759015651 -32.59953969597012 -2.0002511572067094
C 40.0818921311898 -33.14860355633102 -1.7675940654974354
C 40.79196173730195 -33.80875350325374 -2.783469642702987
C 40.259823441536575 -33.91814918640988 -4.066068609435738
C 38.99567266513048 -33.376697427098165 -4.325542631020232
H 38.292943679244075 -32.078670782191566 -1.2039374106903646
H 40.52224313016966 -33.057887524721885 -0.7749087174611015
H 41.774033637051176 -34.227743141738905 -2.5664105679233193
H 40.82303742183575 -34.410013958130904 -4.85946110527559
C 37.01000788675554 -32.56401883615956 -5.166278150867311
C 35.997335511608576 -32.31223680621771 -6.0946269692141595
C 36.18960759628198 -32.7635276559441 -7.401532546385685
C 37.354322838376184 -33.45457678850358 -7.77225682506558
C 38.35418692105675 -33.7148650860388 -6.837383024797205
C 38.188602294918915 -33.269620191265204 -5.521036000663436
H 35.08377869498233 -31.785267698320112 -5.822016816289929
H 35.416730442528994 -32.57373261255877 -8.145994780608428
H 37.472849005092165 -33.792507146735616 -8.801252921437653
H 39.25212157115722 -34.26187513573259 -7.12569087652987
