54 angstroem
free
N -1.1052351211347318 -0.21652217409753477 -13.13137323310498
N -3.863267734577486 -2.4877310234688803 -11.001495785691933
C -0.8275055326514205 -0.7928688413776861 -12.15724017537834
C -2.751559140458615 -2.3757649624893658 -10.670164075823282
C 0.8584113142438459 -1.402332339669518 -10.503659596339668
C -0.45558230174201614 -1.4896446675674742 -10.971378379122662
C -1.3995531737039564 -2.2542812024476344 -10.237288992215037
C -0.9831410847564241 -2.918421950312367 -9.080301551298499
C 0.3373999853388678 -2.8476388295094393 -8.617581769402053
C 1.2755375445234518 -2.0519722341949636 -9.334591128479861
H 1.5723151737397285 -0.7791449926438769 -11.03931881066532
H -1.6938199288212417 -3.542676782221264 -8.541606502478363
N 2.6248772036105623 -1.8111989348649447 -9.050289487628786
C 3.8024551916950835 -2.457834442382811 -9.469285909797996
C 3.9601345202545453 -3.5467172411131913 -10.329641826223959
C 5.2549761798100585 -4.023794844931035 -10.54026114693467
C 6.361888982480924 -3.4385630315684073 -9.904778893726496
C 6.195563228501743 -2.3615599837672647 -9.036509831481895
C 4.908360251052683 -1.8608453159475848 -8.810971903911069
H 3.1115366848993378 -4.017960276607288 -10.824040629796173
H 5.404925577651816 -4.868536498984855 -11.212206966059384
H 7.359248418079995 -3.8352699949759894 -10.091780523643353
H 7.055867433144134 -1.9169286161843517 -8.535710793993097
C 2.977620753995157 -0.7817751217904957 -8.15860662066319
C 2.173078190166171 0.18617223792642562 -7.5568304801469885
C 2.795968758209001 1.1232641758646171 -6.73227527003754
C 4.184528065219743 1.1066409882068449 -6.523385040792031
C 4.986192160662021 0.1574876947513642 -7.153212357015655
C 4.385926958997925 -0.7946264725650056 -7.984924452567134
H 1.0976298258187631 0.22491338249364567 -7.71790860470975
H 2.1874754103678375 1.8843802916407622 -6.244418933390779
H 4.6379546073015465 1.852545912602787 -5.871338939739325
H 6.0667915980809575 0.1612060921967829 -7.00862138774078
N 0.5852724432226227 -3.3851619007315046 -7.399797018341418
C 1.2394698443435939 -4.630552499154805 -7.420080362980847
C 1.8522840758284564 -5.294538352281716 -8.483068797945682
C 2.400330042378363 -6.552212227654144 -8.23025141038318
C 2.3278212514599725 -7.140156911468304 -6.95704148648089
C 1.6855864838131276 -6.486089741775415 -5.908266328721738
C 1.128226813783597 -5.222606945966882 -6.135280389844714
H 1.9055884671112728 -4.862408399813305 -9.480289540410316
H 2.891715502097438 -7.08699712287559 -9.042721746284226
H 2.7684749796778587 -8.123225411860421 -6.794152595749643
H 1.6094436337708111 -6.954701358565986 -4.92682962026012
C 0.03174708185186393 -3.1958757647900446 -6.119780864376848
C -0.6854953558182945 -2.109567891266787 -5.6135896475034635
C -1.0831670901902961 -2.162136856766622 -4.276530236414598
C -0.7677470472106089 -3.2621413978053084 -3.462867409586762
C -0.03945129606663628 -4.336026094739729 -3.9706312923633713
C 0.36791111450770664 -4.310690166734327 -5.309229338785132
H -0.9312088480465877 -1.24453465431908 -6.2283588497841285
H -1.6495348852853886 -1.3295928649235926 -3.859776959527581
H -1.0941236000029853 -3.271439520242606 -2.4234107071375
H 0.21385638877412225 -5.183343916263832 -3.3330453971178655
