54 angstroem
free
N 34.298388480545555 -16.35497680906632 -16.058676778039207
N 36.4207716305611 -16.488461123955446 -12.483878437225567
C 34.02593068995577 -15.691811609588965 -15.139860643054082
C 35.5049946442698 -15.785977467434591 -12.645378662345607
C 32.5800134592379 -13.997547881842284 -14.146440347044209
C 33.67026336740102 -14.864737637773919 -14.035532321274678
C 34.38629589974384 -14.91933403393935 -12.811214588123264
C 33.99630257880546 -14.086901888719378 -11.758568478330186
C 32.91471086135747 -13.203530428636446 -11.87154097416958
C 32.17477956820033 -13.174433955659042 -13.087659762990958
H 32.00113822798411 -13.987650453510355 -15.06826326471399
H 34.572410591937704 -14.09363670987389 -10.834985742688664
N 31.122198633102432 -12.27655745151425 -13.10674466782667
C 31.039729205354543 -11.215521736310675 -14.027498382966636
C 32.057576405149305 -10.572218662265879 -14.73523354229497
C 31.698664281104783 -9.503804047587646 -15.558793351900505
C 30.36401755122149 -9.081462490990651 -15.668043698417021
C 29.35566329883198 -9.718787111680985 -14.947953415597757
C 29.687583761223767 -10.795645898894925 -14.118087161589207
H 33.09903807506132 -10.881434722278298 -14.655474655772196
H 32.47386773955759 -8.989484002065671 -16.126348597337422
H 30.118164772413575 -8.24428365228602 -16.320546473402473
H 28.322056912005255 -9.380901176004848 -15.026126205601704
C 29.825831064598106 -12.559658496520932 -12.639278454984554
C 29.390073496296875 -13.579702525573257 -11.793127834850669
C 28.02446712654129 -13.652188452524026 -11.517645915841138
C 27.114550418965077 -12.742703212018354 -12.080581604800638
C 27.55214113749999 -11.746727902285054 -12.950516826592404
C 28.917489661699058 -11.651663001462982 -13.242699615132619
H 30.077279414208775 -14.303054468290062 -11.358908747030664
H 27.660847640855458 -14.43536426282698 -10.852828481462797
H 26.0547246375798 -12.827155291359752 -11.842314816081762
H 26.84103476672956 -11.05668143525879 -13.405246550516202
N 32.808055581722485 -12.393973392323309 -10.753994518321147
C 33.3031848130152 -11.079387814759116 -10.675922756947122
C 33.8908924519589 -10.291542278705256 -11.66600459739228
C 34.33183368946757 -9.01888456801312 -11.302785977027046
C 34.20468971678115 -8.547932883108338 -9.985956866244665
C 33.64693133257441 -9.352146129225192 -8.994823509730779
C 33.195663403204186 -10.632921885400236 -9.333268009380681
H 34.01199535457946 -10.643909589757435 -12.688353964404767
H 34.78675789214942 -8.381512171929016 -12.060653379297245
H 34.55801819127444 -7.547672441838341 -9.737420723758753
H 33.57103951500483 -8.993632150771115 -7.968022286027464
C 32.415878492710995 -12.797406437121241 -9.463994583991665
C 31.847351876493963 -14.002080281779676 -9.044150001840025
C 31.507500389809795 -14.122893142259716 -7.695617691150122
C 31.71950846667447 -13.069936621850934 -6.791249330882429
C 32.27390592039089 -11.86565698670234 -7.219993109584574
C 32.62769981037373 -11.719595326299888 -8.566071356735264
H 31.66801065914239 -14.825859986594224 -9.733948899385224
H 31.068286285474073 -15.05546479033268 -7.342083586382402
H 31.443342208577203 -13.197701196672607 -5.745072119856792
H 32.4264569486206 -11.045889924556212 -6.51761273165954
