54 angstroem
free
N -28.549432382778537 0.737799364927137 9.414133331110857
N -24.727578541841176 -0.33140763537004175 10.659822330943134
C -28.149859011108468 -0.3552095388224666 9.35154678034946
C -25.483270533584193 -1.101141368192649 10.218627710413879
C -28.53626080894627 -2.6851157224461195 8.743006783381935
C -27.692131267332275 -1.7017785308368938 9.265937763335497
C -26.383546424263976 -2.0646312941434504 9.678952104744168
C -25.98379879152379 -3.399637989191347 9.57378151222668
C -26.833086366575053 -4.391670070778702 9.066305868946815
C -28.13314694039515 -4.021131402799061 8.619278541160536
H -29.523333538877157 -2.400726154921988 8.382781876277816
H -24.997551392773982 -3.688349657424415 9.932825397109225
N -29.477210496086865 -4.736016152295598 8.415512446203811
C -29.918294715713422 -5.738459694387678 9.29921887681807
C -29.491213881544365 -6.029809793340107 10.596700246195262
C -30.07305929310202 -7.123502152416914 11.240028624543369
C -31.04714038713495 -7.9112031009695745 10.60577066430339
C -31.458069762859658 -7.623288202086459 9.305873343347448
C -30.89383695724447 -6.529620203671148 8.639535823162442
H -28.73058732763456 -5.434383834968087 11.10022148232034
H -29.761262429350992 -7.367586365008933 12.255306951291374
H -31.481480362965414 -8.75761785667367 11.136809942425163
H -32.20615514262397 -8.243898572865385 8.812080789962664
C -30.193053465240226 -4.860663603758359 7.210825104666517
C -30.175345599267608 -4.0452386097140005 6.078962099678496
C -31.023798420055428 -4.383889728610768 5.024700042601946
C -31.877817636599417 -5.496072874745998 5.100252901943159
C -31.914233415957522 -6.28702933745879 6.24624657983442
C -31.072200971663825 -5.969387548753111 7.318006705349757
H -29.5317939607464 -3.1707600526043613 6.007095803094782
H -31.021976568101177 -3.7668579001714826 4.126460595229564
H -32.526188838306965 -5.732892420351254 4.257243298904117
H -32.595279367800764 -7.13582199514835 6.3121476781239085
N -26.431311628530114 -5.841361223140604 9.079946160603278
C -26.201539075215575 -6.6302993633476595 10.221946414987789
C -26.01567898873562 -6.239811271743889 11.548346802088664
C -25.76618276810036 -7.240161372981193 12.488062663688906
C -25.689144614028667 -8.591978529749644 12.115697944908048
C -25.84293403622392 -8.971802662719256 10.784427449324252
C -26.09519552200343 -7.987621637345134 9.82196923562717
H -26.056735307624727 -5.196421335878798 11.85441653853253
H -25.625878158866538 -6.960733090974999 13.531996115946425
H -25.494772671533333 -9.347707095233067 12.87610971405825
H -25.758939094640247 -10.019251471463411 10.493896148827355
C -26.44015058331999 -6.684408958789053 7.953068478844176
C -26.651475630145665 -6.368977135709977 6.608979364206852
C -26.65334604298867 -7.419316757683102 5.689513566418481
C -26.45907364567954 -8.748601404900688 6.097934368895393
C -26.26313295808963 -9.05754079081518 7.442416018779185
C -26.252405469477907 -8.022825147404143 8.384583323958873
H -26.812404763644437 -5.344362294267384 6.276015351065847
H -26.80976337988479 -7.198265779011557 4.633930621777204
H -26.465732815779628 -9.544638403088383 5.354053263791838
H -26.124202845487243 -10.091914273752872 7.7576904536694675
