54 angstroem
free
N 36.868105368528994 -28.904982593464737 32.86139214070823
N 37.302609816399624 -31.816854907780108 29.92307340626509
C 35.98945153878293 -29.59000154714002 32.51939667299252
C 36.29163359712996 -31.62006585610334 30.46843040147547
C 33.64772250046257 -30.23856127979862 32.728598695043644
C 34.89629577607943 -30.41490648497862 32.1261614209246
C 35.04095179750823 -31.399901793154072 31.11448155857028
C 33.93694489812821 -32.18263004838381 30.765759400081762
C 32.68793230598444 -32.020843084527016 31.379551781550955
C 32.53408044630966 -31.008934101543687 32.36932935620576
H 33.52293413569839 -29.452782844492717 33.471520022382975
H 34.05734281898758 -32.969532458633324 30.02330414379861
N 31.206098708696864 -30.65386430220767 32.63432311138203
C 30.34049067290265 -31.486886623560164 33.36725007902046
C 30.59916140847182 -32.71184910386135 33.986360081660955
C 29.53335206329885 -33.35779506401883 34.615154736488655
C 28.243142420319494 -32.80378546724195 34.61988401477713
C 27.98929748405391 -31.588222097949757 33.98785598578781
C 29.04109100541149 -30.917525950888322 33.35352869862163
H 31.592075338505303 -33.159886883180945 33.98476713072181
H 29.71096293049099 -34.311907464762555 35.110844533083444
H 27.433681228012336 -33.33401886987645 35.12058051473039
H 26.983921498902028 -31.166535716826193 33.98340874298585
C 30.4744734336365 -29.53885586897728 32.18630482467866
C 30.91468400231684 -28.402576572442307 31.50701890035947
C 29.970342544922612 -27.419042204585832 31.212223015863394
C 28.626401393253577 -27.555769469213146 31.59580644001821
C 28.200143508963055 -28.677863441361215 32.302523553444274
C 29.127555882755228 -29.679805014728583 32.61010131973323
H 31.954448290781396 -28.271205514557316 31.214327779112985
H 30.28841898339689 -26.525862085621643 30.674987168546632
H 27.914869399675485 -26.768881296285937 31.347485823430524
H 27.161390801232546 -28.7708599878526 32.62026554555226
N 31.772732446967883 -32.86995770968943 30.799700919823035
C 31.764294274699676 -34.27642953038911 30.83360093709219
C 32.509091782063805 -35.15010306035158 31.62627624539889
C 32.32768204076184 -36.51873522701175 31.426398563193725
C 31.439537341007536 -37.005374976637476 30.453577545384384
C 30.723522629702195 -36.12760901711687 29.642992235698614
C 30.886570227256062 -34.74947540683193 29.82392646176443
H 33.21321893225681 -34.79281753314853 32.37499439768613
H 32.89211578798951 -37.22116404909535 32.03923695608068
H 31.320712020449562 -38.08084037526141 30.325566237539523
H 30.05259006471076 -36.507533885271975 28.872200965956317
C 30.930668930575166 -32.44656632408931 29.754555145153084
C 30.60201593302339 -31.151600148228486 29.34739317604246
C 29.69310223921365 -31.01376219589566 28.29691196757879
C 29.11998487923412 -32.13432697063708 27.67448280142468
C 29.441524854740017 -33.42308198259386 28.09542195071425
C 30.353448501295922 -33.589632521026466 29.14379543076846
H 31.03058471200794 -30.27127744466722 29.824844254828893
H 29.42537144384297 -30.013717767410945 27.95659353766685
H 28.41433458929138 -31.991236771604402 26.856765730057884
H 28.985895368909787 -34.29076410304111 27.61776354014663
