54 angstroem
free
N -25.840890263636762 -4.408000204184988 39.62389733190124
N -25.829922951237688 -7.358531070933023 42.55574978345829
C -26.35343952685068 -5.44416763620491 39.47592866981355
C -26.3444014666135 -7.5033397683282255 41.52010727883186
C -27.628641929239176 -6.954900372681979 38.04777057854761
C -26.993063942930636 -6.699908464495999 39.26595910061726
C -26.97845404584292 -7.71170825741794 40.26129070139498
C -27.620846673697677 -8.926071797700628 40.00486370799426
C -28.27413743342664 -9.179251473625849 38.79157899305367
C -28.258337386130957 -8.177404545156243 37.77997485986778
H -27.601170566950817 -6.1979683324925645 37.2659450258975
H -27.650692813442582 -9.685748076777665 40.783934968622084
N -28.900910035741823 -8.317517754500502 36.50820877081183
C -29.95104305775973 -7.499199569293683 36.05218093918087
C -30.633915110117226 -6.477644654015075 36.716147909845986
C -31.67985862123475 -5.849951874439191 36.0374856907258
C -32.0420679695108 -6.234692077525863 34.736574745894764
C -31.365671034796527 -7.264392055358195 34.085655297558766
C -30.310141549364772 -7.907640363757329 34.741828414672135
H -30.37156456333549 -6.172498368550409 37.728410917524975
H -32.22409837370241 -5.045556202412371 36.53178839404061
H -32.86315410386293 -5.723360799801077 34.23514703168149
H -31.65702058606146 -7.568455607205132 33.08003069119231
C -28.563955507703966 -9.219252628236665 35.48225770081606
C -27.53137185841062 -10.15576237243921 35.42688751284659
C -27.400470103439485 -10.905582930842748 34.25784554817424
C -28.26504999174331 -10.71852796724755 33.16719415351908
C -29.273509870251946 -9.7589470948425 33.21672159452744
C -29.426844215890622 -8.993868473870993 34.37849953888682
H -26.8420317430046 -10.305133335712517 36.25546143441024
H -26.606484877681314 -11.649253451987796 34.193757183199715
H -28.13545520055242 -11.322991615218942 32.26999696695544
H -29.92838362583387 -9.598770802742251 32.359925563534894
N -28.821896735347483 -10.42352065516934 38.64966816570363
C -30.184665199779907 -10.71133795952306 38.45115693678347
C -31.248808606403703 -9.843526385153297 38.20444903285453
C -32.52207831408241 -10.400097340439162 38.081861868192775
C -32.73326767966647 -11.781942850659227 38.2156603138411
C -31.671264378490086 -12.638965402679176 38.494694405659395
C -30.38345538535188 -12.106002638990597 38.62147236407852
H -31.10795987231419 -8.768490118969062 38.11233213078905
H -33.36818381073147 -9.743414155183823 37.88077660358437
H -33.74090078405442 -12.183230860563176 38.11185455567697
H -31.84103170945099 -13.708358714271796 38.621932733921696
C -28.158764616181386 -11.621147528590827 38.976174805665934
C -26.80501712198882 -11.844593705188943 39.237269781956996
C -26.402254376178377 -13.156660826394088 39.492017133804154
C -27.320512590342226 -14.218811414365463 39.47841675979522
C -28.66717253060654 -13.990520923207333 39.202994064596076
C -29.098392110016007 -12.683756051151454 38.94834525510411
H -26.077847162258212 -11.033552971921514 39.24323400918871
H -25.352229131026228 -13.356010570734126 39.70483615420786
H -26.972751488990276 -15.231054682110443 39.68214238128557
H -29.375544396738782 -14.819004244734078 39.181716543309825
