54 angstroem
free
N 2.081152245714373 2.491895959630883 0.0
N -2.081152245714373 2.491895959630883 0.0
C 1.448092111636044 1.5139718337845935 0.0
C -1.448092111636044 1.5139718337845935 0.0
C 1.3959469191356348 -0.9262647361329164 0.0
C 0.7086848802584712 0.2948543771367517 0.0
C -0.7086848802584712 0.2948543771367517 0.0
C -1.3959469191356348 -0.9262647361329164 0.0
C -0.7074500614579763 -2.1407905977197976 0.0
C 0.7074500614579763 -2.1407905977197976 0.0
H 2.4850862030732914 -0.937337079963997 0.0
H -2.4850862030732914 -0.937337079963997 0.0
N 1.445351088330357 -3.3476998873763457 2.254051546887807e-08
C 1.6185532180564928 -4.195006102414019 1.0979951670874624
C 1.1775482931725814 -4.024289431636587 2.409812514479529
C 1.4861031020689304 -5.025814257322757 3.3280523248638567
C 2.2184625326459457 -6.162282622136567 2.9436869343982575
C 2.6725385979042553 -6.315227730452606 1.634362502302633
C 2.381444451501053 -5.322307598237781 0.6883026773034997
H 0.614449949634329 -3.1403121547971486 2.7068389120919236
H 1.1516898152491752 -4.9208840531364775 4.360458900242439
H 2.437674030880376 -6.930825332013349 3.6843212491191464
H 3.250583813698834 -7.196620922929012 1.3545114617130796
C 2.120572143118101 -3.8880731506269024 -1.097995150840077
C 2.2719992591957223 -3.355145204560848 -2.377663823266727
C 3.001887197597524 -4.099068145798257 -3.3024690194078774
C 3.5666219476966017 -5.3380217664520755 -2.9535907869760427
C 3.4269950995847966 -5.853955157855127 -1.665869999459388
C 2.701510446894879 -5.126620153345435 -0.7117677023070424
H 1.8378159896322235 -2.3923496158817317 -2.6445529279408846
H 3.134240609529166 -3.708758101347764 -4.311848321052312
H 4.126223972424243 -5.898450670571216 -3.701932809953208
H 3.881840315873839 -6.810672481794832 -1.4068050897197086
N -1.4453507849779035 -3.3477000728451287 2.3239408147165784e-07
C -2.120571600727382 -3.8880733369881386 1.0979955523339455
C -2.2719987304589995 -3.3551452322276547 2.377664157055338
C -3.001886394941802 -4.099068214726617 3.3024695361914618
C -3.566620866430585 -5.338022030966162 2.953591547342651
C -3.4269940096932463 -5.853955585267649 1.6658708260275483
C -2.7015096295070897 -5.126620545107721 0.7117683488446354
H -1.837815677801844 -2.3923494933826746 2.644553072879603
H -3.1342398100895497 -3.708758048345852 4.311848790265791
H -4.126222679948281 -5.898450960678147 3.701933709093943
H -3.88183900986818 -6.81067306336352 1.4068061061455317
C -1.6185528049538873 -4.195006500238471 -1.0979947655936029
C -1.1775480462967476 -4.024289920314146 -2.4098121806909374
C -1.4861026897826866 -5.025814964738165 -3.3280518080802985
C -2.2184617985799613 -6.162283454529895 -2.9436861740316727
C -2.6725377023126664 -6.315228475661514 -1.6343616757344857
C -2.3814437165418867 -5.322308124820054 -0.6883020307659125
H -0.6144499528651538 -3.1403125476111717 -2.7068387671532266
H -1.1516895263884215 -4.920884835235692 -4.360458431028996
H -2.4376731732673758 -6.930826333380724 -3.6843203499784414
H -3.25058267026466 -7.196621770399092 -1.3545104452872672
