#atom	Koopmans	DeltaSCF (eV)
C1	270.570659	297.838552
C2	270.798654	297.888236
C3	270.870354	297.048241
C4	271.652777	297.881491
C5	271.876529	297.941005
C6	271.051045	297.178907
C7	271.989430	298.094450
C8	272.102281	298.142138
C9	270.396228	296.873328
C10	269.330224	295.872784
C11	269.332170	295.829568
C12	269.354282	295.853521
C13	269.495677	295.976017
C14	269.636565	296.084861
C15	270.270429	296.802214
C16	269.117972	295.651393
C17	269.264866	295.737417
C18	269.176782	295.718170
C19	269.313109	295.881227
C20	269.534349	295.975599
C21	270.520702	296.992261
C22	269.513632	295.989205
C23	269.489339	296.042474
C24	269.395696	295.897907
C25	269.530939	296.078816
C26	269.488030	296.067904
C27	270.386570	296.905452
C28	269.534097	296.030358
C29	269.512477	295.997815
C30	269.433648	295.943451
C31	269.528422	296.022829
C32	269.471020	295.994866
N1	381.054713	411.529104
N2	381.249233	411.509784
N3	382.700930	412.888240
N4	382.708140	413.019081
