#atom	Koopmans	DeltaSCF (eV)
C1	270.775695	297.909090
C2	270.750951	297.857388
C3	271.009642	297.171699
C4	271.748901	297.963712
C5	271.709643	297.900992
C6	270.949947	297.125927
C7	271.981836	298.021793
C8	272.031803	298.098217
C9	270.678407	297.064925
C10	269.668154	296.126794
C11	269.542302	295.976054
C12	269.385551	295.879702
C13	269.553612	296.017312
C14	269.685973	296.163791
C15	270.592802	296.965274
C16	269.540469	295.975221
C17	269.456532	295.896435
C18	269.315000	295.826125
C19	269.492746	295.965192
C20	269.634917	296.119728
C21	270.601880	296.987123
C22	269.546370	296.007988
C23	269.453701	295.907696
C24	269.306695	295.823018
C25	269.488976	295.966185
C26	269.627916	296.115319
C27	270.660100	297.036732
C28	269.658974	296.101277
C29	269.533895	295.965330
C30	269.369694	295.861574
C31	269.541592	296.003721
C32	269.666579	296.140393
N1	381.290837	411.579552
N2	381.262938	411.529792
N3	382.731294	412.851206
N4	382.708592	412.828408
