#atom	Koopmans	DeltaSCF (eV)
C1	270.530141	297.630185
C2	270.552024	297.662477
C3	270.577099	296.701764
C4	271.364691	297.483287
C5	271.432789	297.571123
C6	270.765865	296.872604
C7	271.848630	297.898018
C8	271.564210	297.649586
C9	270.640744	296.981847
C10	269.690846	296.118248
C11	269.574618	295.996905
C12	269.434981	295.907502
C13	269.599722	296.050623
C14	269.741932	296.187763
C15	270.835343	297.152274
C16	269.775315	296.205130
C17	269.659951	296.063938
C18	269.513377	295.976832
C19	269.678081	296.103185
C20	269.821335	296.257231
C21	270.620361	296.979197
C22	269.666789	296.092854
C23	269.566632	295.979779
C24	269.407380	295.876596
C25	269.575837	296.017213
C26	269.696487	296.148423
C27	270.757244	297.118253
C28	269.577078	295.974487
C29	269.493679	295.913008
C30	269.375632	295.841077
C31	269.553709	295.995759
C32	269.718231	296.161934
N1	381.027001	411.235953
N2	381.045541	411.283445
N3	382.712636	412.934825
N4	382.811432	412.916862
