#atom	Koopmans	DeltaSCF (eV)
C1	270.677149	297.960689
C2	270.665046	297.875833
C3	271.021830	297.271647
C4	271.984552	298.116242
C5	271.919635	298.030826
C6	271.022729	297.279486
C7	272.018615	298.176534
C8	272.049654	298.068430
C9	270.606125	296.949888
C10	269.609829	296.039131
C11	269.513591	295.945028
C12	269.379921	295.873819
C13	269.397481	295.947558
C14	269.429712	296.025127
C15	270.330646	296.827609
C16	269.420359	295.917988
C17	269.381282	295.795540
C18	269.001487	295.653079
C19	269.212643	295.755567
C20	269.499187	295.965623
C21	270.697275	297.018032
C22	269.578008	296.030431
C23	269.368613	295.834301
C24	269.173003	295.775250
C25	269.426150	295.927536
C26	269.550077	296.055674
C27	270.544098	296.979941
C28	269.494914	295.896959
C29	269.254865	295.790263
C30	269.119038	295.692936
C31	269.312703	295.787568
C32	269.294706	295.924792
N1	381.059675	411.629297
N2	381.134165	411.538796
N3	382.626771	412.860643
N4	382.817492	413.045091
