#atom	Koopmans	DeltaSCF (eV)
C1	270.534575	297.623746
C2	270.534685	297.623696
C3	270.735355	296.788780
C4	271.415870	297.524419
C5	271.416036	297.539634
C6	270.735176	296.789208
C7	271.795177	297.896670
C8	271.795043	297.896706
C9	270.610150	296.921101
C10	269.474321	295.797181
C11	269.453162	295.802241
C12	269.365310	295.741384
C13	269.547052	295.907215
C14	269.746486	296.113346
C15	270.782912	297.118050
C16	269.775151	296.170754
C17	269.667287	296.040933
C18	269.533619	295.959193
C19	269.707795	296.106176
C20	269.877081	296.262601
C21	270.782677	297.119589
C22	269.775114	296.175790
C23	269.667707	296.036278
C24	269.533602	295.951617
C25	269.707793	296.099776
C26	269.876968	296.265187
C27	270.610118	296.923484
C28	269.475398	295.797658
C29	269.452921	295.802125
C30	269.365335	295.749392
C31	269.546906	295.908524
C32	269.747024	296.113910
N1	381.023142	411.243086
N2	381.023152	411.243481
N3	382.932105	413.010055
N4	382.932098	413.007135
