#atom	Koopmans	DeltaSCF (eV)
C1	270.803897	297.939085
C2	270.803859	297.936401
C3	271.000013	297.236923
C4	271.786348	298.020960
C5	271.786248	298.015900
C6	271.000005	297.224013
C7	271.905988	298.073710
C8	271.906001	298.075901
C9	270.576007	296.961971
C10	269.526091	295.978338
C11	269.432666	295.869766
C12	269.276601	295.783599
C13	269.473155	295.933615
C14	269.625721	296.103209
C15	270.600119	296.979868
C16	269.571724	296.028840
C17	269.472249	295.906904
C18	269.302246	295.798764
C19	269.495831	295.951739
C20	269.640019	296.113277
C21	270.600118	296.979604
C22	269.571793	296.026550
C23	269.472384	295.910292
C24	269.302243	295.802516
C25	269.495389	295.956366
C26	269.640018	296.114459
C27	270.575997	296.962305
C28	269.526262	295.977905
C29	269.432661	295.870316
C30	269.276652	295.783702
C31	269.472106	295.934138
C32	269.625719	296.103997
N1	381.318349	411.616398
N2	381.318350	411.621494
N3	382.636943	412.844564
N4	382.636939	412.844751
