#atom	Koopmans	DeltaSCF (eV)
C1	270.534018	297.672210
C2	270.877041	298.083502
C3	270.989294	297.171768
C4	271.656274	297.706122
C5	271.677052	298.028652
C6	270.763366	296.912239
C7	272.063733	298.220294
C8	271.902289	298.019026
C9	270.362660	296.835537
C10	269.597115	295.968985
C11	269.550626	295.925007
C12	269.070027	295.684168
C13	269.144604	295.716488
C14	269.222810	295.843024
C15	270.471446	296.886239
C16	269.517112	295.969357
C17	269.545669	295.909004
C18	269.478397	295.913090
C19	269.498208	295.927147
C20	269.410514	295.951989
C21	270.764734	297.175412
C22	269.947603	296.231934
C23	269.716454	296.063112
C24	269.317734	295.874652
C25	269.562481	295.995595
C26	269.694145	296.165926
C27	270.525296	296.899493
C28	269.273287	295.744199
C29	269.234319	295.754253
C30	269.425045	295.844109
C31	269.622379	296.036564
C32	269.561273	296.082596
N1	380.975486	411.317329
N2	381.311032	411.784409
N3	382.650334	412.932603
N4	382.915869	413.004387
