#atom	Koopmans	DeltaSCF (eV)
C1	270.588465	297.836951
C2	270.735413	297.815194
C3	270.829816	297.057093
C4	271.796184	297.891088
C5	271.826743	297.842148
C6	271.009600	297.201137
C7	272.149403	298.159664
C8	272.083626	298.137150
C9	270.575578	296.992395
C10	269.515138	295.936015
C11	269.430195	295.803808
C12	269.144144	295.733128
C13	269.345498	295.825981
C14	269.636961	296.080974
C15	270.451501	296.848781
C16	269.175183	295.764986
C17	269.081265	295.679662
C18	269.245006	295.752966
C19	269.548236	295.972021
C20	269.518611	296.044073
C21	270.627326	297.044941
C22	269.702872	296.048964
C23	269.595738	296.048921
C24	269.370407	295.860635
C25	269.578432	296.009022
C26	269.489106	295.988280
C27	270.638560	297.057477
C28	269.719325	296.027685
C29	269.493528	295.948420
C30	269.225942	295.787899
C31	269.415819	295.904856
C32	269.478805	295.990189
N1	381.073019	411.502401
N2	381.213399	411.479895
N3	382.727022	412.819859
N4	382.878260	413.077223
