#atom	Koopmans	DeltaSCF (eV)
C1	270.671619	297.736504
C2	270.671615	297.740206
C3	270.875783	296.986603
C4	271.607473	297.704182
C5	271.606856	297.705830
C6	270.875776	296.990411
C7	271.833423	297.915522
C8	271.833149	297.914964
C9	270.601999	296.976184
C10	269.546928	295.971565
C11	269.466556	295.884401
C12	269.332896	295.803211
C13	269.519808	295.956175
C14	269.691054	296.135712
C15	270.673936	297.040424
C16	269.652584	296.083090
C17	269.562908	295.976507
C18	269.396013	295.857157
C19	269.583380	296.013522
C20	269.728700	296.163617
C21	270.673911	297.040412
C22	269.652539	296.086655
C23	269.562835	295.972985
C24	269.396119	295.865071
C25	269.583388	296.017846
C26	269.728920	296.163753
C27	270.601780	296.973804
C28	269.546988	295.971379
C29	269.466564	295.888096
C30	269.332985	295.803274
C31	269.520705	295.959673
C32	269.691106	296.130209
N1	381.173962	411.380756
N2	381.174420	411.380976
N3	382.761103	412.911262
N4	382.761040	412.912520
