#atom	Koopmans	DeltaSCF (eV)
C1	270.652129	297.725851
C2	270.630781	297.730443
C3	270.990915	297.088869
C4	271.584138	297.703269
C5	271.512990	297.638691
C6	270.682251	296.798920
C7	271.799829	297.808357
C8	271.933751	297.983962
C9	270.603538	296.958343
C10	269.662852	296.081534
C11	269.560298	295.973778
C12	269.395038	295.861277
C13	269.560971	295.993967
C14	269.665896	296.113417
C15	270.733787	297.095559
C16	269.565169	295.987801
C17	269.472063	295.889404
C18	269.351644	295.827155
C19	269.528871	295.975768
C20	269.696156	296.141460
C21	270.530449	296.898455
C22	269.546066	295.958662
C23	269.451968	295.870019
C24	269.334460	295.796382
C25	269.491350	295.919915
C26	269.636566	296.080225
C27	270.751068	297.090972
C28	269.682583	296.105132
C29	269.573176	295.980907
C30	269.424435	295.889835
C31	269.591397	296.016498
C32	269.732264	296.182196
N1	381.147963	411.365832
N2	381.137252	411.368101
N3	382.747822	412.888094
N4	382.813442	412.882910
