54 angstroem
free
N 22.024 -4.763 31.906
N 22.879 -9.092 31.757
C 22.155001 -5.454 30.973
C 22.677 -8.448 30.846001
C 22.219 -5.553 28.533001
C 22.268998999999997 -6.223 29.722
C 22.337999 -7.616 29.686001
C 22.459999000000003 -8.376 28.514999
C 22.450001 -7.629 27.319
C 22.23 -6.242 27.305
H 22.172001 -4.474 28.563
H 22.554001 -9.451 28.533001
N 22.056999 -5.449 26.138
C 20.868 -4.841 25.739
C 19.735001 -4.613 26.538
C 18.674999 -3.908 26.049
C 18.708 -3.349 24.822001
C 19.849001 -3.439 24.014999
C 20.863001 -4.221 24.527000000000005
H 19.679001 -4.988 27.549
H 17.785 -3.79 26.649
H 17.823 -2.83 24.488001
H 19.940001 -2.94 23.061001
C 22.855 -5.26 25.051001
C 24.120001 -5.758 24.844
C 24.802999 -5.354 23.669001
C 24.254 -4.44 22.732
C 22.941 -4.071 22.891001
C 22.289 -4.495 24.035
H 24.555 -6.433 25.566999
H 25.785999 -5.76 23.48
H 24.826 -4.032 21.910999
H 22.440001 -3.471 22.146
N 22.452999 -8.46 26.143999
C 21.481001 -8.482 25.18
C 20.211 -7.932 25.240999
C 19.239999999999995 -8.21 24.25
C 19.665001 -8.931 23.068001
C 20.947001 -9.456 22.976999
C 21.767 -9.293 24.091999
H 19.976999 -7.281 26.07
H 18.219 -7.886 24.389999
H 19.004 -9.081 22.226999
H 21.287001 -9.964 22.087
C 23.396 -9.272 25.558001
C 24.628 -9.59 26.128
C 25.511 -10.379 25.417999
C 25.153 -10.867 24.146999
C 23.92 -10.549 23.506001
C 23.101 -9.726 24.264
H 24.895 -9.229 27.110001
H 26.472 -10.613 25.851999
H 25.854 -11.513 23.639999
H 23.631001 -10.904 22.528
