54 angstroem
free
N 15.753 4.477 39.624001
N 16.018999 8.431 38.070999
C 14.959 5.13 39.126999
C 15.058 7.877 38.035
C 12.576 5.026 38.421001
C 13.797 5.719 38.480999
C 13.869 7.082 38.009998
C 12.714 7.665 37.525002
C 11.538 6.991 37.43
C 11.446 5.674 37.911999
H 12.505 4.004 38.762001
H 12.732 8.696 37.206001
N 10.135 5.075 37.837002
C 9.737 3.967 37.066002
C 10.408 3.332 36.028
C 9.789 2.3430000000000004 35.318001
C 8.513 1.8409999999999997 35.664001
C 7.793 2.518 36.709999
C 8.44 3.595 37.317001
H 11.419 3.609 35.771999
H 10.32 1.949 34.464001
H 8.106 0.981 35.153
H 6.803 2.228 37.028
C 9.24 5.159 38.830002
C 9.315 5.821 40.034
C 8.266 5.752 40.937
C 7.146 5.008 40.706001
C 7.070999999999999 4.243 39.487
C 8.166 4.345 38.526001
H 10.198 6.396000000000001 40.27
H 8.324 6.304 41.862999
H 6.362 5.024 41.449001
H 6.216 3.61 39.299
N 10.503 7.802 36.858002
C 9.889 7.615 35.654999
C 9.986 6.513 34.799
C 9.173 6.463 33.665001
C 8.248 7.449 33.423
C 8.025 8.499 34.347
C 8.87 8.551 35.424999
H 10.68 5.713 35.011002
H 9.261 5.648 32.962002
H 7.691 7.398 32.5
H 7.241 9.232 34.23300199999999
C 9.931 8.931 37.43
C 10.249 9.521 38.667
C 9.61 10.737 38.891998
C 8.714 11.336 37.977001
C 8.363 10.662 36.775002
C 9.027 9.467 36.505001
H 10.926000000000002 9.078 39.382999
H 9.82 11.242 39.823002
H 8.297 12.308000000000002 38.195999
H 7.619 11.043 36.091
