54 angstroem
free
N -1.365 6.12 -11.598
N -2.097 10.130000000000003 -10.59
C -1.574 6.476 -10.557
C -2.272 9.279 -9.881
C -1.963 5.926 -8.193
C -2.003 6.93 -9.204
C -2.407 8.236 -8.902
C -2.758 8.561 -7.635
C -2.694 7.582 -6.607
C -2.337 6.237 -6.917
H -1.645 4.914 -8.396
H -3.08 9.575 -7.449
N -2.312 5.218 -5.965
C -3.166 4.135 -5.929
C -4.077 3.695 -6.882
C -4.939 2.678 -6.606
C -4.919 2.13 -5.275
C -4.051 2.629 -4.332
C -3.197 3.618 -4.692
H -4.115 4.152 -7.859
H -5.595 2.331 -7.39
H -5.571 1.323 -4.976
H -4.04 2.249 -3.321
C -1.828 5.344 -4.638
C -1.034 6.402 -4.071
C -0.768 6.47 -2.692
C -1.348 5.445 -1.879
C -2.131 4.395 -2.441
C -2.316 4.378 -3.837
H -0.622 7.172999999999999 -4.704999999999999
H -0.157 7.26 -2.282
H -1.19 5.463000000000001 -0.811
H -2.575 3.629 -1.823
N -3.317 8.012 -5.387
C -4.432 7.498 -4.798
C -5.369 6.59 -5.341
C -6.453 6.181 -4.639
C -6.635 6.725 -3.365
C -5.821 7.76 -2.829
C -4.732 8.118 -3.599
H -5.25 6.192 -6.338
H -7.134 5.461 -5.07
H -7.442 6.328999999999999 -2.768
H -6.019 8.247 -1.886
C -2.989 9.12 -4.644
C -2.017 10.032 -4.968
C -1.757 11.083 -4.066
C -2.489 11.218 -2.917
C -3.488 10.275 -2.567
C -3.781 9.235 -3.504
H -1.4780000000000002 9.927 -5.898
H -0.977 11.804 -4.261
H -2.278 12.069 -2.287
H -4.006 10.347 -1.622
