54 angstroem
free
N 44.852001 0.699 28.757999
N 40.738998 0.395 28.079999999999995
C 44.27 -0.095 29.305
C 41.299 -0.26599999999999996 28.816999
C 44.035999 -1.976 30.839001
C 43.438999 -1.026 29.978001
C 42.042999 -1.047 29.757
C 41.361 -2.096 30.378
C 41.917 -3.031 31.224001
C 43.275002 -2.927 31.488001
H 45.10399999999999 -1.974 31.004999
H 40.303001 -2.194 30.184999
N 43.993 -3.875 32.316002
C 44.978001 -4.745 31.84
C 45.484001 -4.818 30.503
C 46.527 -5.679 30.233
C 47.146999 -6.403 31.264999
C 46.689999 -6.328999999999999 32.581001
C 45.595001 -5.492 32.841999
H 45.078999 -4.223 29.697001
H 46.860001 -5.788 29.212
H 47.997002 -7.031 31.041
H 47.165001 -6.898 33.366001
C 43.895 -4.211 33.653
C 42.941002 -3.796 34.611
C 42.945999 -4.461 35.818001
C 43.811001 -5.468 36.155998000000004
C 44.742001 -5.89 35.231998
C 44.806999 -5.227 34.008999
H 42.233002000000006 -3.001 34.42599899999999
H 42.215 -4.169 36.556999
H 43.761002000000005 -5.922 37.134998
H 45.400002 -6.715 35.460999
N 41.112 -4.117 31.757
C 41.243999 -5.451 31.608999
C 42.073002 -6.101 30.677
C 42.084 -7.48 30.646
C 41.356998 -8.247 31.608999
C 40.493999 -7.595 32.501999
C 40.521999 -6.215 32.504002
H 42.695999 -5.545 29.992001
H 42.660999 -7.96 29.868999
H 41.459 -9.321000000000002 31.660999
H 39.834 -8.135 33.164001
C 40.21099900000001 -4.025 32.828999
C 39.700001 -2.845 33.324001
C 38.750999 -2.935 34.383999
C 38.356998 -4.16 34.923
C 38.872002 -5.356 34.347
C 39.845001 -5.248 33.362999
H 40.025002 -1.905 32.905998
H 38.311001 -2.039 34.796001
H 37.674999 -4.181 35.759998
H 38.528 -6.333 34.653
