54 angstroem
free
N 17.695 -10.92 -10.151
N 20.021999 -13.316 -12.063
C 17.357 -11.988 -10.22
C 19.032 -13.683 -11.624
C 15.627 -13.68 -10.233
C 16.950001 -13.327000000000002 -10.439
C 17.746 -14.21 -11.118
C 17.379 -15.539 -11.415
C 16.115 -15.901 -11.103999999999997
C 15.183 -14.97 -10.54
H 14.941 -12.948 -9.832
H 18.046 -16.257999 -11.868
N 13.833 -15.116 -10.318
C 13.17 -15.056 -9.105
C 13.706 -14.827 -7.902
C 12.952 -14.986 -6.726
C 11.671000000000001 -15.349 -6.756
C 11.108 -15.66 -8.018
C 11.842 -15.477 -9.163
H 14.74 -14.517 -7.881
H 13.379 -14.82 -5.748
H 11.126 -15.389 -5.824
H 10.103 -16.044001 -8.109
C 12.885 -15.604 -11.195
C 12.96 -15.634 -12.554
C 11.839 -16.0 -13.334
C 10.634 -16.212999 -12.644
C 10.455 -16.124001 -11.263
C 11.638999999999998 -15.887 -10.573
H 13.902 -15.369 -13.01
H 11.901 -16.113001 -14.406
H 9.764 -16.468 -13.231
H 9.497 -16.229 -10.776
N 15.762 -17.236 -11.411
C 15.295000000000002 -18.218 -10.564
C 14.821 -18.066999 -9.281
C 14.113 -19.118999 -8.689
C 13.821 -20.275999 -9.439
C 14.294999999999998 -20.486 -10.764
C 14.947 -19.365999 -11.253
H 15.0 -17.143999 -8.75
H 13.795 -19.038 -7.66
H 13.207 -21.035 -8.978
H 14.172 -21.393999 -11.335
C 15.872 -17.886999000000003 -12.636
C 16.330999 -17.299 -13.795
C 16.497 -18.224001 -14.903
C 16.243999 -19.591999 -14.756
C 15.68 -20.156 -13.579
C 15.517 -19.202 -12.565
H 16.537001 -16.239 -13.831
H 16.822001 -17.881000999999998 -15.874
H 16.493999 -20.239 -15.584
H 15.406 -21.195 -13.467
