54 angstroem
free
N 19.434 -35.862 49.021999
N 17.214999999999996 -39.014999 47.289001
C 19.280001 -35.976002 47.888
C 17.674000000000003 -38.150002 46.719002
C 19.544001 -34.978001 45.747002
C 19.038 -36.053001 46.5
C 18.305 -37.062 45.917
C 18.142 -37.018002 44.577999
C 18.639999 -35.98 43.798
C 19.322001 -34.868 44.383999
H 20.124001 -34.208 46.231998
H 17.6 -37.832001 44.118999
N 19.601999 -33.672001 43.675999
C 18.737 -32.831001 43.025002
C 17.34 -32.875999 43.054001
C 16.566 -31.9 42.348999
C 17.214001 -30.832001 41.706001
C 18.648001 -30.753 41.709
C 19.344999 -31.728001 42.467999
H 16.861 -33.660999 43.618999
H 15.489 -31.969 42.301998
H 16.615999 -30.079 41.214001
H 19.181999 -29.990999 41.160999
C 20.816 -32.976002 43.584999
C 22.077 -33.305 44.125
C 23.174 -32.415001 43.924999
C 23.052999 -31.287001 43.148998
C 21.813 -30.972 42.56000099999999
C 20.714001 -31.809 42.839001
H 22.201 -34.222 44.681999
H 24.135 -32.603001 44.380001
H 23.919001000000005 -30.658001 43.004002
H 21.707001 -30.114 41.914001
N 18.514 -36.084 42.374001
C 17.386999 -36.176998 41.595001
C 16.101 -36.299 42.094002
C 15.023 -36.205002 41.234001
C 15.185 -35.759998 39.931999
C 16.458 -35.407001 39.459
C 17.548 -35.609001 40.340999999999994
H 15.94 -36.466 43.148998
H 14.039999999999997 -36.484001 41.584999
H 14.321 -35.688999 39.286999
H 16.593 -35.000999 38.467999
C 19.462 -35.727001 41.411999
C 20.851 -35.608002 41.60699799999999
C 21.638 -35.167 40.575001
C 21.025 -34.674999 39.402
C 19.67 -34.764999 39.198002
C 18.924 -35.375 40.191002
H 21.315001 -35.854 42.549999
H 22.712 -35.207001 40.682999
H 21.618 -34.209999 38.629002
H 19.212999 -34.375 38.29999900000001
