54 angstroem
free
N 25.094999 -30.483 6.672999999999999
N 23.312 -28.76 10.018
C 23.958 -30.487 6.721
C 22.778 -29.141000999999996 9.068
C 21.740999 -30.664 5.823
C 22.538 -30.313999 6.899
C 22.009001 -29.716 8.036
C 20.607 -29.638 8.198
C 19.787001 -30.037001 7.081
C 20.363001 -30.486 5.858
H 22.202 -31.084999 4.941
H 20.184 -29.291000000000004 9.129
N 19.705999 -30.743 4.642
C 19.252999999999997 -29.834 3.698
C 19.216 -28.474001 3.865
C 19.002001000000003 -27.653 2.72
C 18.98 -28.212 1.459
C 19.149 -29.618 1.322
C 19.240999 -30.360001 2.439
H 19.35 -28.066999 4.856
H 18.853001 -26.587 2.811
H 18.834999 -27.569 0.604
H 19.208 -30.122 0.369
C 19.878 -31.934999 3.912
C 20.391001 -33.161999 4.378
C 20.608 -34.195 3.496
C 20.242001 -34.035999 2.145
C 19.753 -32.784 1.659
C 19.549999 -31.753 2.572
H 20.622 -33.312 5.422
H 21.055 -35.110001 3.855
H 20.336000000000002 -34.881001 1.4780000000000002
H 19.539 -32.617001 0.6139999999999999
N 18.388 -29.861 7.152
C 17.667999 -28.695 7.338
C 18.177 -27.370000999999995 7.497
C 17.294001 -26.349001 7.662
C 15.89 -26.542 7.798
C 15.423 -27.841999 7.465
C 16.330999 -28.867001 7.297
H 19.232 -27.138 7.491
H 17.719999 -25.357 7.686
H 15.226 -25.757999 8.131
H 14.371 -28.052 7.34
C 17.358999 -30.82 6.953
C 17.495001 -32.207001 6.863
C 16.315001 -32.962002 6.682
C 15.026 -32.365002 6.637999999999999
C 14.93 -30.941999 6.766
C 16.094 -30.219999 6.972
H 18.466 -32.674 6.93
H 16.4 -34.033001 6.573
H 14.145 -32.976002 6.51
H 13.987 -30.419001 6.708
