54 angstroem
free
N 38.104 26.955 23.419001
N 38.688999 24.853001 26.913
C 37.236 26.659 24.062
C 37.646999 25.172001 26.566999
C 34.880001 26.681999 24.486
C 36.153999 26.375999 24.947001
C 36.313 25.624001 26.094000000000005
C 35.167 25.18 26.790001
C 33.868999 25.702 26.49
C 33.740002 26.452 25.275
H 34.775002 27.105 23.497999
H 35.284 24.431999 27.559999
N 32.554001 26.913 24.721001
C 32.051998 28.198 24.615999
C 32.514 29.389999 25.173
C 31.754999 30.575001 24.860001
C 30.552000000000003 30.535999000000004 24.159
C 30.056999 29.357 23.67
C 30.826 28.233999 23.941
H 33.393002 29.395 25.799999
H 32.108002 31.548 25.169001
H 29.988001 31.441999 23.99
H 29.132999 29.315999999999995 23.113001
C 31.674 26.174 23.973
C 31.636 24.77 23.809
C 30.676001 24.214001 22.992001
C 29.695999 24.966999 22.469
C 29.598 26.330999 22.728001
C 30.573 26.870001 23.554001
H 32.341 24.122 24.309
H 30.693001 23.16 22.756001
H 28.978001 24.471001 21.833
H 28.808001 26.937 22.311001
N 32.856998 25.531 27.444
C 32.222 26.507999 28.202
C 32.271999 27.889999 28.106001
C 31.524 28.624001 29.030001
C 30.664 28.072001 29.985001
C 30.556 26.686001 30.011999
C 31.343 25.927 29.141000999999996
H 32.867001 28.372999 27.346001
H 31.618999 29.698999 29.003
H 30.106001 28.690001 30.673
H 29.872999 26.207001 30.698
C 32.337002 24.378 27.857
C 32.534 23.084 27.281
C 31.792 21.968 27.746
C 30.882 22.125 28.802
C 30.759000999999998 23.368 29.392
C 31.43 24.478001 28.879998999999998
H 33.251999 22.947001 26.485001
H 31.92 20.995001 27.294001
H 30.285 21.298 29.156
H 30.129999 23.474001 30.264
