54 angstroem
free
N 36.478001 23.224001 24.059
N 38.617001 20.129 22.523001
C 36.036999 22.195999 23.959
C 37.544998 20.004999 22.815001
C 34.296001 20.492001000000002 24.614
C 35.453999 20.879 23.919001000000005
C 36.189999 19.858 23.268999
C 35.591999 18.584 22.976
C 34.391998 18.239 23.601999
C 33.747002 19.212 24.436001
H 33.821999 21.187 25.292
H 36.043999 17.886 22.287001
N 32.404999 19.127001 24.9
C 31.901999999999997 18.860001 26.169001
C 32.587002 18.527 27.306999
C 31.93 18.266001 28.466999
C 30.556 18.556999 28.555
C 29.764999 18.862 27.43
C 30.513 19.028 26.237
H 33.666 18.468 27.290001
H 32.481998 17.841999 29.292999
H 30.087 18.546 29.528
H 28.690001 18.959 27.478001
C 31.268999 19.563 24.209
C 31.218 19.941999 22.875
C 30.025 20.308001 22.315001
C 28.874001000000003 20.327999 23.066999
C 28.895999999999997 19.916000000000004 24.436001
C 30.097 19.462999 24.943001
H 32.112 19.952 22.268998999999997
H 29.990999 20.582001000000005 21.271
H 27.965 20.663 22.589001
H 28.025 19.947001 25.073
N 33.720001 16.988001 23.313
C 33.287998 16.028 24.278
C 33.637001 15.942 25.653
C 33.084999 14.908 26.507
C 32.032001 14.144 26.013
C 31.605 14.286 24.643999
C 32.328999 15.166 23.804001000000003
H 34.327 16.67 26.052999
H 33.455002 14.707 27.500999
H 31.552 13.449 26.686001
H 30.757 13.742 24.254999
C 32.851002 16.722 22.260000000000005
C 32.761002 17.51 21.087999
C 31.823999 17.09 20.096001
C 30.988000999999997 15.98 20.379999
C 31.084 15.251 21.546000000000003
C 32.040001 15.635 22.513
H 33.375999 18.388 20.957001
H 31.747999 17.601999 19.148001
H 30.237 15.673 19.667999
H 30.431 14.405 21.698
