54 angstroem
free
N 20.868 -15.697 4.946999999999999
N 25.017 -16.415001 4.367
C 21.368999 -16.368 4.164
C 24.271999 -16.846001 3.618
C 20.943001 -17.879999 2.295
C 21.872 -17.202999 3.04
C 23.297001 -17.334 2.712
C 23.684 -18.032 1.519
C 22.686001 -18.59 0.735
C 21.322001 -18.643999 1.175
H 19.907 -17.812 2.592
H 24.715 -18.135 1.215
N 20.372 -19.513 0.612
C 20.482 -20.855 0.436
C 21.582001 -21.712999 0.767
C 21.419001 -23.115 0.683
C 20.132 -23.638 0.358
C 19.035999 -22.848 0.099
C 19.264999 -21.457001 0.079
H 22.532 -21.304001 1.08
H 22.257999 -23.771 0.8620000000000001
H 19.976 -24.705999 0.304
H 18.065001 -23.287001 -0.075
C 19.110001 -19.252999999999997 0.108
C 18.568001 -18.017 -0.128
C 17.239 -17.830999 -0.613
C 16.488001 -18.948999 -0.921
C 17.079 -20.195 -0.7369999999999999
C 18.368999 -20.332001 -0.246
H 19.205 -17.169001 0.075
H 16.805 -16.851 -0.746
H 15.478 -18.853001 -1.292
H 16.517 -21.084 -0.982
N 22.983999 -19.158001 -0.56
C 24.018999 -20.032 -0.936
C 24.764999 -20.768999 -0.102
C 25.756001 -21.625999 -0.612
C 26.0 -21.627001 -1.981
C 25.167 -20.906 -2.901
C 24.216999 -20.070999 -2.315
H 24.573 -20.676001 0.956
H 26.323000000000004 -22.274 0.04
H 26.848 -22.194 -2.3349999999999995
H 25.25 -20.988001 -3.9749999999999996
C 22.594 -18.539 -1.735
C 21.806999 -17.454 -1.948
C 21.583999999999996 -17.045 -3.295
C 22.07 -17.768999 -4.407
C 22.950001 -18.848 -4.15
C 23.26 -19.190001 -2.823
H 21.382999 -16.947001 -1.094
H 21.02 -16.143 -3.481
H 21.781 -17.51 -5.415
H 23.384001000000005 -19.409 -4.964
