54 angstroem
free
N -27.291000000000004 -21.209 -15.354
N -26.222 -23.407 -11.927
C -26.253 -21.658001 -15.174000000000001
C -25.378 -23.246 -12.7
C -24.003 -21.958 -15.971
C -24.938999 -22.209 -14.955
C -24.497 -22.899 -13.824
C -23.187 -23.284 -13.666
C -22.202 -22.986 -14.645
C -22.608 -22.33 -15.87
H -24.368 -21.462 -16.858
H -22.93 -23.823 -12.767
N -21.632999 -21.892 -16.768999
C -21.507999 -22.281 -18.106001
C -22.426001 -22.999001 -18.837999
C -22.01 -23.455999 -20.111
C -20.738001 -23.166 -20.628999999999998
C -19.795 -22.365 -19.982
C -20.267 -21.961 -18.712
H -23.410999 -23.191 -18.438999
H -22.688 -24.047001 -20.709
H -20.466999 -23.586 -21.586
H -18.837999 -22.096001 -20.403999
C -20.518 -21.17 -16.566
C -20.187 -20.513999999999996 -15.334
C -18.878 -20.002001 -15.322
C -18.035 -20.039 -16.409
C -18.348 -20.587999 -17.632999
C -19.615 -21.232 -17.638
H -20.860001 -20.415001 -14.494
H -18.495001 -19.552 -14.418
H -17.054001 -19.603001 -16.292999
H -17.684 -20.523001 -18.482
N -20.896 -23.525 -14.444
C -20.257999 -24.403 -15.262999999999998
C -20.862 -25.152 -16.320999
C -20.075001 -26.204 -16.858999
C -18.799 -26.538 -16.385
C -18.219 -25.747999 -15.364
C -18.940001 -24.660999 -14.92
H -21.853001 -24.936001 -16.693001
H -20.471001 -26.785999 -17.677999
H -18.274 -27.386999 -16.798
H -17.253 -25.968 -14.935
C -19.938999 -23.247 -13.437
C -20.058001 -22.33 -12.39
C -18.884001 -22.098 -11.586
C -17.643999 -22.679001 -11.928
C -17.507999 -23.542 -12.965
C -18.679999999999996 -23.846001 -13.701
H -21.0 -21.832001 -12.213
H -18.934 -21.474001 -10.707
H -16.75 -22.450001 -11.366
H -16.537001 -23.958 -13.189
