54 angstroem
free
N -35.602001 -19.829 15.026
N -38.231998 -19.76 18.290001
C -35.536999 -20.587 15.848999999999998
C -37.473 -20.655001 18.195
C -34.665001 -22.669001 16.756001
C -35.547001 -21.604 16.864
C -36.433998 -21.635 17.940999999999995
C -36.361 -22.636 18.912001
C -35.526001 -23.674999 18.844
C -34.646999 -23.691 17.711
H -33.985001 -22.702 15.918
H -36.999001 -22.605 19.783001
N -33.595001 -24.596001 17.482
C -33.678001 -25.833 16.851999
C -34.764999 -26.601999 16.476
C -34.605999 -27.944 15.937
C -33.326 -28.427 15.796
C -32.234001 -27.764999 16.271999
C -32.398998 -26.452999 16.836
H -35.738998 -26.153 16.604
H -35.431 -28.577 15.645
H -33.173 -29.367001 15.288
H -31.277 -28.261 16.205999
C -32.254002 -24.419001 17.733998999999997
C -31.659999999999997 -23.245001 18.240999
C -30.245001 -23.18 18.385
C -29.486 -24.336 18.079
C -30.056999 -25.506001 17.540001
C -31.445 -25.506001 17.396
H -32.279999 -22.405001 18.516001
H -29.76 -22.275 18.717999999999996
H -28.422001 -24.326 18.264
H -29.462 -26.360001 17.252001
N -35.365002 -24.631001 19.917
C -36.125 -25.815001 20.105
C -36.950001 -26.448 19.139999
C -37.681 -27.545 19.521000000000004
C -37.623001 -28.108999 20.844999
C -36.813999 -27.445999 21.778999
C -36.07 -26.27 21.419001
H -37.021999 -26.097 18.121
H -38.316002 -27.975 18.761
H -38.167 -28.997 21.128
H -36.764 -27.844999 22.782000000000004
C -34.918999 -24.33 21.201
C -34.25500099999999 -23.156 21.629999
C -34.132 -22.924 23.024000000000004
C -34.683998 -23.805 23.969999
C -35.333 -24.973 23.576
C -35.375999 -25.235001 22.165001
H -33.853001 -22.457001 20.912001
H -33.603001 -22.051001 23.375
H -34.606998 -23.579 25.023001
H -35.771 -25.629 24.313
