54 angstroem
free
N -9.139 -15.663 4.596
N -12.361 -13.71 6.318
C -10.111 -15.525 4.029
C -12.361 -14.028 5.22
C -11.234 -15.469 1.881
C -11.251 -15.102 3.225
C -12.349 -14.45 3.828
C -13.436 -14.148 2.988
C -13.486 -14.504 1.649
C -12.37 -15.157 1.061
H -10.368 -15.98 1.487
H -14.281 -13.613 3.395
N -12.28 -15.539 -0.299
C -11.272 -15.199 -1.218
C -10.107 -14.473 -0.896
C -9.109 -14.305 -1.921
C -9.42 -14.743 -3.233
C -10.639 -15.399 -3.511
C -11.546 -15.611 -2.487
H -9.985 -14.062 0.095
H -8.148 -13.86 -1.71
H -8.717 -14.574 -4.035
H -10.879 -15.738 -4.508
C -13.14 -16.399 -1.034
C -14.317 -17.068001 -0.601
C -15.079 -17.778 -1.543
C -14.729 -17.747999 -2.89
C -13.56 -17.122999000000004 -3.371
C -12.799 -16.409 -2.42
H -14.628 -17.038 0.433
H -15.94 -18.35 -1.23
H -15.394 -18.23 -3.592
H -13.266 -17.188 -4.408
N -14.6 -14.032 0.898
C -14.576 -13.269 -0.26800000000000007
C -13.551 -12.457 -0.853
C -13.827 -11.874 -2.114
C -15.021 -11.931 -2.6979999999999995
C -16.056999 -12.677 -2.085
C -15.782 -13.324 -0.857
H -12.604 -12.289 -0.361
H -13.069 -11.346 -2.673
H -15.143 -11.395 -3.627
H -17.032 -12.752 -2.5420000000000003
C -15.898 -14.452 1.024
C -16.48 -15.253 2.014
C -17.862 -15.62 1.975
C -18.667 -15.108 0.915
C -18.143999 -14.297 -0.11
C -16.759001 -13.992 0.008
H -15.851 -15.595 2.823
H -18.287001 -16.267 2.728
H -19.719999 -15.346000000000002 0.888
H -18.757000000000005 -13.936 -0.923
