54 angstroem
free
N -26.297001 1.431 -13.483
N -25.058001 4.58 -10.846
C -25.374001 1.354 -12.774
C -24.48 3.625 -11.048
C -23.284 0.223 -12.296
C -24.167999 1.3 -11.963
C -23.684 2.4 -11.231
C -22.351 2.33 -10.716
C -21.514 1.231 -10.915
C -21.986 0.218 -11.784
H -23.598 -0.589 -12.935
H -21.952 3.156 -10.145
N -21.156 -0.808 -12.237
C -21.385 -2.161 -12.186
C -22.254999 -2.831 -11.387
C -22.431 -4.215 -11.506
C -21.599001 -4.903 -12.373
C -20.804001 -4.225 -13.227
C -20.688 -2.805 -13.145
H -22.809 -2.262 -10.655
H -23.188999 -4.739 -10.943
H -21.57 -5.981999999999999 -12.382
H -20.27 -4.809 -13.963
C -20.243999 -0.632 -13.293
C -19.68 0.5709999999999998 -13.704
C -18.628 0.444 -14.694
C -18.209999 -0.789 -15.242
C -18.865 -1.936 -14.829
C -19.945999 -1.812 -13.94
H -20.025 1.5089999999999997 -13.296
H -18.120001 1.33 -15.047
H -17.408001 -0.854 -15.963
H -18.540001 -2.901 -15.189
N -20.235001 1.2629999999999997 -10.270000000000001
C -19.804000999999996 0.371 -9.321000000000002
C -20.573 -0.6569999999999999 -8.753999999999998
C -20.0 -1.398 -7.667
C -18.708 -1.133 -7.157
C -17.986 -0.112 -7.698
C -18.57 0.646 -8.726
H -21.559999 -0.867 -9.137
H -20.57 -2.195 -7.211
H -18.271999 -1.709 -6.355
H -16.992001 0.089 -7.326
C -19.236 2.224 -10.263
C -19.128 3.363 -11.079000000000002
C -17.993 4.155 -11.057
C -16.948000000000004 3.814 -10.18
C -17.044001 2.717 -9.319
C -18.259001 1.963 -9.358
H -19.938 3.636 -11.74
H -17.924998999999996 5.016 -11.706
H -16.047001 4.411 -10.166
H -16.226 2.466 -8.661
