54 angstroem
free
N -28.440001 -0.131 34.702999
N -26.091 2.437 36.617001
C -28.736 0.26699999999999996 35.724998
C -27.016001 2.093 37.166
C -30.218 0.252 37.598
C -29.066999 0.772 37.021
C -28.209999 1.608 37.748001
C -28.589001 1.994 39.050999
C -29.792999 1.53 39.612999
C -30.649 0.664 38.875999
H -30.784 -0.484 37.046001
H -27.952 2.651 39.625
N -31.903999 0.196 39.334
C -33.096001 0.314 38.669998
C -33.333 1.029 37.507
C -34.618 0.9829999999999999 37.008999
C -35.681 0.385 37.639
C -35.486 -0.177 38.903
C -34.20099999999999 -0.149 39.417999
H -32.556 1.594 37.013
H -34.806 1.451 36.054001
H -36.644001 0.358 37.152
H -36.299 -0.617 39.462002
C -32.271 -0.481 40.494999
C -31.459999 -0.943 41.52
C -32.095001 -1.629 42.610001
C -33.474998 -1.816 42.634998
C -34.282001 -1.396 41.612999
C -33.618999 -0.796 40.576
H -30.393999 -0.7779999999999999 41.473
H -31.517 -2.016 43.437
H -33.937 -2.305 43.479
H -35.354 -1.526 41.624001
N -30.207001 2.065 40.872002
C -31.259001 2.904 41.074001
C -32.028 3.662 40.13299899999999
C -32.981998 4.54 40.604
C -33.276001 4.652 41.966999
C -32.487 3.825 42.925999
C -31.485000999999997 2.997 42.466
H -31.888 3.571 39.066002
H -33.509998 5.153999999999999 39.889
H -34.063 5.332 42.258999
H -32.646 3.825 43.994999
C -29.736 1.716 42.123001
C -28.691 0.827 42.490002
C -28.405001 0.498 43.826
C -29.246 1.097 44.757
C -30.278999 1.956 44.457001
C -30.438999 2.289 43.119999
H -28.086 0.379 41.715
H -27.601 -0.163 44.115002
H -29.084 0.876 45.801998
H -30.926001 2.347 45.228001
