54 angstroem
free
N -20.649 0.447 12.854
N -18.400999 -3.411 13.32
C -20.580999 -0.426 12.102
C -19.066 -3.043 12.453
C -20.999001 -1.192 9.794
C -20.488999999999997 -1.489 11.083
C -19.85 -2.716 11.281
C -19.774999999999995 -3.638 10.244
C -20.252001 -3.336 8.997
C -20.816 -2.115 8.753
H -21.525 -0.26699999999999996 9.607
H -19.337 -4.611 10.411
N -21.059 -1.682 7.408
C -22.235001 -1.231 6.901
C -23.475 -1.537 7.419
C -24.556 -0.99 6.757
C -24.417999 -0.13 5.656
C -23.174 0.14 5.083
C -22.118 -0.465 5.708
H -23.593 -2.166 8.289
H -25.542999 -1.245 7.113
H -25.296 0.339 5.236
H -23.038 0.772 4.218
C -20.131001 -1.238 6.457
C -18.763 -1.37 6.573
C -18.030001 -0.671 5.661
C -18.561001 0.075 4.613
C -19.926001 0.106 4.454
C -20.717999999999996 -0.581 5.371
H -18.295 -1.982 7.33
H -16.957001 -0.71 5.775
H -17.923 0.622 3.934
H -20.363001 0.6549999999999999 3.633
N -20.138 -4.328 7.962
C -21.188999 -5.025 7.375
C -22.576 -4.681 7.483
C -23.495001 -5.462 6.738
C -23.096001 -6.491 5.851
C -21.733 -6.826 5.769
C -20.865999 -6.03 6.485
H -22.916 -3.864 8.103
H -24.551001 -5.264 6.851
H -23.822001 -7.014 5.246
H -21.368999 -7.656 5.184
C -19.082001 -5.082 7.509
C -17.691999 -4.787 7.671
C -16.813 -5.501 6.883
C -17.113001 -6.469 5.99
C -18.507 -6.765 5.813
C -19.459 -6.004 6.52
H -17.318001 -4.05 8.367
H -15.761 -5.273 6.976
H -16.309 -6.963 5.464
H -18.836 -7.554 5.153
