54 angstroem
free
N -9.657 29.083 41.213001
N -9.105 31.612 44.513
C -8.668 29.4 41.634998
C -8.286 31.134001 43.898998
C -6.232 29.351 41.323002
C -7.366 29.792 42.073002
C -7.133 30.551001 43.202
C -5.852 30.747 43.731998
C -4.773 30.355 43.043999
C -4.93 29.693001 41.804001
H -6.356 28.775999 40.416999999999994
H -5.692 31.211 44.695
N -3.845 29.407 40.966
C -3.332 28.104 40.688
C -3.875 26.872999 41.067001
C -3.224 25.712 40.721001
C -2.054 25.708 39.992001
C -1.458 26.923 39.637001
C -2.078 28.118 40.109001
H -4.797 26.819 41.625999
H -3.648 24.768999 41.033001
H -1.61 24.767 39.702999
H -0.565 26.938999 39.029999
C -2.846 30.219999 40.478001
C -3.013 31.604 40.264999
C -1.958 32.259998 39.674
C -0.876 31.546 39.078999
C -0.712 30.146999 39.21699900000001
C -1.796 29.5 39.896
H -3.909 32.138 40.542999
H -1.98 33.34 39.676998
H -0.146 32.09 38.498001
H 0.155 29.624001 38.841999
N -3.554 30.711 43.624001
C -2.532 29.809 43.883999
C -2.633 28.431999 43.994999
C -1.476 27.684999 44.115002
C -0.23499999999999996 28.382999 44.165001000000004
C -0.149 29.773001 44.165001000000004
C -1.279 30.426001 43.95799999999999
H -3.598 27.948999 43.987
H -1.538 26.608 44.167999
H 0.691 27.827999 44.203999
H 0.765 30.327999 44.320999
C -2.922 31.934 43.623001
C -3.487 33.18 43.268002
C -2.638 34.265999 43.027
C -1.242 34.159 43.118999
C -0.688 32.922001 43.431
C -1.54 31.849001 43.68
H -4.557 33.299999 43.182999
H -3.075 35.217999 42.762001
H -0.605 35.014999 42.952
H 0.384 32.797001 43.48
