54 angstroem
free
N -15.023 -2.763 -8.322
N -14.838 -6.723 -9.52
C -14.648 -3.031 -9.396
C -14.41 -5.85 -10.164
C -13.858 -2.4210000000000003 -11.67
C -14.146 -3.419 -10.713
C -13.839 -4.799 -10.95
C -13.176 -5.114 -12.137
C -12.914 -4.138 -13.093
C -13.266 -2.811 -12.915
H -14.084 -1.387 -11.456
H -12.86 -6.13 -12.32
N -13.189 -1.6809999999999998 -13.841
C -13.593 -1.622 -15.196
C -14.432 -2.483 -15.917
C -14.795 -2.156 -17.198
C -14.241 -1.056 -17.815001
C -13.37 -0.231 -17.138
C -13.029 -0.513 -15.805
H -14.8 -3.402 -15.485
H -15.517999999999999 -2.765 -17.719999
H -14.493 -0.839 -18.843
H -12.958 0.628 -17.646
C -12.422 -0.551 -13.703
C -11.677 -0.198 -12.522
C -10.965 0.975 -12.56
C -10.923 1.715 -13.761
C -11.561 1.297 -14.928
C -12.36 0.23 -14.816
H -11.651 -0.801 -11.626
H -10.453 1.308 -11.669
H -10.376 2.646 -13.787
H -11.44 1.782 -15.885
N -12.108 -4.639 -14.145
C -12.385 -5.747 -14.948
C -13.571 -6.486 -15.072000000000001
C -13.684 -7.614 -15.96
C -12.555 -7.98 -16.641001
C -11.395 -7.171 -16.617001
C -11.355 -6.044 -15.809
H -14.414 -6.18 -14.471
H -14.596 -8.172 -16.112
H -12.579 -8.906 -17.195999
H -10.534 -7.416 -17.221001
C -10.809 -4.294 -14.471
C -10.057 -3.2760000000000002 -14.036
C -8.736 -3.109 -14.474
C -8.236 -3.931 -15.496
C -9.04 -4.88 -16.049999
C -10.288 -5.075 -15.473
H -10.515 -2.593 -13.336
H -8.107 -2.352 -14.028
H -7.223999999999999 -3.832 -15.859
H -8.705 -5.45 -16.903999
