54 angstroem
free
N -39.952999 8.697 42.556999
N -39.875 10.904 39.139
C -39.536999 8.27 41.563
C -39.519001 9.825 39.127998
C -38.730999 6.277 40.215
C -39.054001 7.676 40.332001
C -39.122002 8.457 39.152
C -38.688 7.907 37.924999
C -38.284 6.586 37.865002
C -38.338001 5.714 38.993
H -38.785999 5.626 41.075001
H -38.665001 8.502 37.023998
N -38.132 4.331 38.959999
C -37.497002 3.486 39.926998
C -36.522999 3.88 40.868
C -36.134998 2.925 41.791
C -36.754002 1.675 41.853001
C -37.765999 1.296 40.967999
C -38.083 2.2220000000000004 39.995998
H -36.092999 4.871 40.882
H -35.333 3.158 42.476002
H -36.43999900000001 0.976 42.613998
H -38.271999 0.344 41.030998
C -39.125999 3.514 38.459999
C -39.960999 3.893 37.411999
C -40.923 2.9479999999999995 36.974998
C -41.001999 1.691 37.584
C -40.09 1.296 38.660999
C -39.153 2.2569999999999997 39.007
H -39.868 4.871 36.962002
H -41.602001 3.189 36.169998
H -41.77 1.024 37.222
H -40.106998 0.345 39.173
N -37.855 6.083 36.587002
C -36.577999 5.585 36.296001
C -35.616001 5.099 37.14899799999999
C -34.421001 4.55 36.627998
C -34.241001 4.459 35.275002
C -35.146 4.975 34.337002
C -36.391998 5.4 34.916
H -35.798 5.147 38.213001
H -33.632 4.194 37.273998
H -33.348 3.958 34.931999
H -34.909 5.039 33.285
C -38.525002 6.089 35.348999
C -39.805 6.369 35.051998
C -40.280998 6.254 33.763
C -39.456001 5.793 32.641998
C -38.115002 5.537 32.974998
C -37.646999 5.813 34.278999
H -40.453999 6.689000000000001 35.853001
H -41.317001 6.529 33.630001
H -39.813 5.651 31.632999
H -37.446999 5.129 32.230999
