54 angstroem
free
N 3.525 32.223 13.967
N 1.306 31.33 10.575
C 2.903 31.297001 13.968
C 1.331 30.659 11.495
C 2.185 29.160999 14.823
C 2.062 30.087999 13.816
C 1.3139999999999998 29.782 12.671000000000001
C 0.679 28.504999 12.493
C 0.815 27.604 13.566
C 1.613 27.950001 14.699
H 2.738 29.386 15.723
H 0.13 28.239 11.602
N 1.961 26.990999 15.705
C 2.678 25.813999 15.608
C 3.204 25.306999 14.408
C 3.89 24.066999 14.535
C 4.223 23.462999 15.763
C 3.712 24.051001 16.926001
C 2.947 25.207001 16.847
H 3.091 25.825999999999997 13.468
H 4.179 23.547001 13.633
H 4.845 22.582001 15.812
H 3.909 23.610001 17.892
C 1.778 27.097 17.083
C 1.048 28.070999 17.711
C 0.8620000000000001 27.895 19.114
C 1.317 26.771 19.854
C 2.054 25.801001 19.162001
C 2.25 26.062 17.782
H 0.654 28.905001 17.15
H 0.339 28.669001 19.655001
H 1.109 26.658001 20.907
H 2.441 24.921 19.653999
N 0.063 26.389 13.443
C 0.196 25.372999 12.524
C 1.148 25.284 11.543
C 1.075 24.226 10.588
C 0.068 23.327 10.767
C -0.939 23.334 11.719
C -0.757 24.399 12.638
H 1.933 26.025998999999995 11.522
H 1.756 24.108999 9.758
H 0.068 22.504999 10.067
H -1.746 22.615999 11.742
C -0.989 26.007 14.274
C -1.6339999999999997 26.652 15.301
C -2.778 26.065001 15.929
C -3.288 24.763 15.475
C -2.564 24.136 14.462
C -1.553 24.829 13.836
H -1.247 27.612 15.611
H -3.252 26.6 16.739
H -4.169 24.281 15.874
H -2.785 23.121 14.163
