54 angstroem
free
N -16.976999 -1.576 -11.84
N -16.658001 -4.804 -14.213
C -17.318001 -2.609 -11.508
C -17.058001 -4.968 -13.181
C -18.174999 -4.066 -9.682
C -17.632999 -3.955 -10.974
C -17.565001 -5.108 -11.84
C -17.995000999999995 -6.368 -11.444
C -18.549 -6.452 -10.166
C -18.584 -5.35 -9.265
H -18.273001 -3.204 -9.038
H -17.905001 -7.229 -12.09
N -19.083 -5.477 -7.944
C -18.479 -5.248 -6.715
C -17.103001 -4.903 -6.5169999999999995
C -16.650999 -4.574 -5.261
C -17.493999 -4.564 -4.145
C -18.841 -4.949 -4.313
C -19.280001 -5.295 -5.611
H -16.392 -4.89 -7.33
H -15.608 -4.318 -5.148
H -17.113001 -4.266 -3.18
H -19.516001 -4.979000000000001 -3.471
C -20.393999 -5.726 -7.572
C -21.479 -6.039 -8.384
C -22.711 -6.291000000000001 -7.818
C -22.941999 -6.129 -6.477
C -21.893999 -5.706 -5.613
C -20.612 -5.58 -6.201
H -21.364 -6.086999999999999 -9.457
H -23.523001 -6.626 -8.446
H -23.936001 -6.332 -6.106
H -22.063 -5.492 -4.567999999999999
N -18.825001 -7.7780000000000005 -9.797
C -18.094 -8.653 -8.89
C -17.134001 -8.263 -7.919
C -16.513 -9.265 -7.195
C -16.924 -10.59 -7.324
C -17.962 -10.985 -8.169
C -18.542999 -9.981 -8.901
H -16.882999 -7.228 -7.737
H -15.704 -9.013 -6.526
H -16.416 -11.345 -6.742
H -18.296 -12.009 -8.253
C -19.781 -8.661 -10.285
C -20.802999 -8.366 -11.253
C -21.558001 -9.441 -11.747
C -21.368999 -10.791999999999998 -11.272
C -20.409 -11.018 -10.29
C -19.665001 -10.007 -9.81
H -20.997999 -7.363 -11.601
H -22.297001 -9.224 -12.504
H -21.941999 -11.627 -11.648
H -20.236 -12.006 -9.889
