54 angstroem
free
N -20.724001 -15.049 3.966
N -22.372999 -17.336 0.735
C -21.686001 -15.651 4.0
C -22.854 -17.302999 1.785
C -23.455999 -16.518999 5.371
C -22.874000999999996 -16.445999 4.083
C -23.389 -17.261 3.106
C -24.613001 -17.98 3.334
C -25.280001 -17.857 4.531
C -24.57 -17.292000000000005 5.598
H -23.040001000000004 -15.971 6.203
H -25.042 -18.629999 2.586
N -25.094999 -17.155001 6.876
C -24.575001 -17.621 8.079
C -23.284 -18.188 8.262
C -22.832001 -18.469 9.561
C -23.542 -18.025 10.679
C -24.764999 -17.341999 10.488
C -25.186001 -17.093 9.183
H -22.646999 -18.405001 7.416
H -21.924999000000003 -19.037001 9.703000000000001
H -23.153999 -18.205999 11.67
H -25.365999 -17.016001 11.323
C -26.224001 -16.499001 7.29
C -27.204 -15.89 6.496
C -28.222 -15.134 7.085
C -28.212999 -14.954 8.464
C -27.226999 -15.521 9.294
C -26.240999 -16.323 8.627000000000002
H -27.174 -16.004 5.422
H -29.004 -14.695 6.484
H -28.997 -14.356 8.905
H -27.228001 -15.353 10.36
N -26.424999 -18.684 4.744
C -26.445999 -19.885 5.458
C -25.43 -20.368 6.259
C -25.539 -21.677999 6.813
C -26.612 -22.481001 6.463
C -27.642 -21.938999 5.648
C -27.58 -20.663 5.127
H -24.573 -19.738001 6.448
H -24.804001 -22.066 7.503
H -26.643 -23.502001 6.816
H -28.516001 -22.525999 5.413
C -27.674 -18.629 4.168
C -28.115999 -17.704 3.258
C -29.257999 -18.021 2.527
C -29.98 -19.183001 2.6549999999999994
C -29.573999 -20.105 3.608
C -28.43 -19.839001 4.366
H -27.591 -16.768999 3.124
H -29.612 -17.306 1.799
H -30.84 -19.367001 2.027
H -30.138 -21.013 3.759
