54 angstroem
free
N 31.134001 -19.152 33.723
N 29.691 -21.440001 30.392
C 31.17 -18.827 32.646
C 30.273001 -20.451000000000004 30.379999
C 31.778 -17.056 31.148001
C 31.231001 -18.311001 31.325001
C 30.865 -19.17 30.236
C 30.986 -18.658001000000002 28.941999
C 31.301001 -17.316999 28.761999
C 31.761 -16.500999 29.848
H 32.202 -16.531 31.990999
H 30.836 -19.296 28.084
N 32.136002 -15.103 29.663
C 31.309999 -14.07 29.353001
C 29.877001 -14.032 29.188
C 29.32 -12.769 28.799
C 30.058001 -11.594 28.614999999999995
C 31.444 -11.684 28.752001
C 32.014999 -12.878 29.278000000000002
H 29.257 -14.901 29.348
H 28.256001 -12.696 28.631001
H 29.577 -10.657 28.378
H 32.062 -10.849 28.455999
C 33.433998 -14.52 29.823999
C 34.577 -15.136 30.347
C 35.743999 -14.408 30.398001
C 35.681 -12.973 30.212999
C 34.515999 -12.291 29.889999
C 33.452999 -13.155000000000001 29.577
H 34.560001 -16.155001 30.705
H 36.667 -14.94 30.575001
H 36.568001 -12.367 30.325001
H 34.445 -11.213 29.884001
N 31.566998999999996 -17.007999 27.422001000000005
C 30.622 -16.799999 26.382999
C 29.297001 -16.473 26.551001
C 28.523001 -16.183001 25.389
C 29.084999 -16.403 24.097
C 30.438999 -16.74 23.954000000000004
C 31.184999 -16.875 25.122999
H 28.884001 -16.445 27.548
H 27.518 -15.801 25.488001
H 28.474001 -16.312 23.209999
H 30.889 -16.889 22.983999
C 32.743 -17.223 26.716999
C 34.058998 -17.489 27.256000999999998
C 35.097 -17.586 26.298
C 34.860001 -17.474001 24.922001
C 33.598 -17.223 24.393999
C 32.516998 -17.167999 25.354
H 34.254002 -17.608 28.311001
H 36.11099999999999 -17.750999 26.631001
H 35.688 -17.587 24.237
H 33.466999 -17.082001 23.332001
