54 angstroem
free
N -33.814999 11.884 33.567001
N -30.136999 12.933 31.944
C -32.847 11.771 34.151001
C -30.278999 12.485 32.939999
C -31.726999 11.093 36.195999
C -31.629999 11.656 34.909
C -30.382998999999998 11.957 34.308998
C -29.179000999999996 11.743 35.035
C -29.299998999999996 11.192 36.388
C -30.566 10.944999999999999 36.963001
H -32.681 10.777 36.59
H -28.226999 11.986 34.584999
N -30.684999 10.439 38.306
C -31.493999 10.893999999999998 39.308998
C -32.049 12.118 39.42800100000001
C -32.806 12.526 40.504002
C -33.125 11.599 41.508999
C -32.568001 10.284 41.431
C -31.726999 9.986 40.328999
H -31.878 12.81 38.616001
H -33.141998 13.551 40.558998
H -33.779999 11.888 42.317001
H -32.776001 9.536 42.181999
C -30.589001 9.075 38.597
C -29.782 8.131 37.932999
C -29.722 6.909 38.522999
C -30.374001 6.564 39.724998
C -31.094999 7.506 40.476002
C -31.118999 8.788 39.897999
H -29.238001 8.333 37.021999
H -29.124001 6.172 38.008999
H -30.32 5.546 40.082001
H -31.582999999999995 7.266 41.409
N -28.084 10.992 37.069
C -27.747 11.65 38.242001
C -28.368999 12.861 38.609001
C -27.811001 13.541 39.699001
C -26.684 13.017 40.27
C -26.105 11.77 39.948002
C -26.662001 11.116 38.865002
H -29.229 13.248 38.083
H -28.242001 14.451 40.091
H -26.219 13.631 41.02799999999999
H -25.282 11.340000000000002 40.499001
C -27.120001 9.987 36.941002
C -27.037001 9.019 35.917999
C -26.056 8.05 36.098999
C -25.145 8.018 37.182999
C -25.249001 8.978 38.219002
C -26.254999 9.923 38.07
H -27.683001 9.019 35.053001
H -25.997 7.274 35.351002
H -24.374001 7.263 37.219002
H -24.594999 8.99 39.077999
