54 angstroem
free
N 21.747999 -40.813 28.301001
N 18.054001 -38.832001 28.589999999999996
C 21.368999 -40.394001 29.309999
C 18.794999999999998 -38.893002 29.451
C 21.497999 -40.213001 31.711
C 20.783001 -39.896 30.556999
C 19.612 -39.091999 30.629999
C 19.177000000000003 -38.69100199999999 31.922001
C 19.864 -39.014999 33.091
C 21.047001 -39.742001 32.978001
H 22.389 -40.817001 31.625
H 18.274 -38.105999 32.021
N 21.921 -39.974998 34.097
C 22.290001 -41.18500100000001 34.580002
C 21.811001 -42.403 34.023998
C 22.165001 -43.521 34.724998
C 23.025 -43.472 35.818001
C 23.52 -42.254002 36.358002
C 23.075001 -41.104 35.714001
H 21.215000000000003 -42.473999 33.125999
H 21.754 -44.466999 34.404999
H 23.316999 -44.411999 36.263
H 24.191 -42.206001 37.20299899999999
C 22.471001 -39.067001 35.050999
C 22.333 -37.685001 34.993999
C 22.907 -36.938 36.002998000000005
C 23.466999 -37.624001 37.125
C 23.589001 -39.022999 37.203998999999996
C 23.118999 -39.714001 36.104
H 21.794001 -37.206001 34.189999
H 22.919001 -35.862 35.917999
H 23.819 -37.048 37.96799899999999
H 24.016999999999996 -39.533001 38.054001
N 19.288 -38.497002 34.264
C 18.833 -39.105 35.459
C 19.073999 -40.431999 35.91
C 18.618 -40.747002 37.194
C 17.899 -39.785 37.993
C 17.650999 -38.507999 37.575001
C 18.171 -38.220001 36.314999
H 19.58 -41.168999 35.305
H 18.823 -41.738998 37.57
H 17.520999999999997 -40.037998 38.973
H 17.101 -37.800999 38.176998
C 18.982 -37.146 34.477001
C 19.361 -36.026001 33.696999
C 19.021 -34.75 34.12500000000001
C 18.448999 -34.57 35.400002
C 18.025999 -35.674 36.181
C 18.201 -36.887001 35.636002
H 19.909 -36.145 32.775002
H 19.198998999999997 -33.907001 33.473999
H 18.333 -33.568001 35.785
H 17.584 -35.594002 37.162998
