54 angstroem
free
N 16.601 21.434999 13.076
N 16.146999 25.400999 12.249
C 15.93 21.858999 12.249
C 15.624 24.655001 11.58
C 14.555999999999997 21.348 10.32
C 15.055 22.271999 11.198
C 15.068 23.642 10.844
C 14.608 24.042999 9.605
C 14.08 23.167999 8.7
C 14.006 21.768 9.123
H 14.597 20.298 10.569
H 14.663 25.086999999999996 9.331
N 13.337 20.745001 8.265
C 13.934 19.591999 7.838
C 15.219 19.259001 8.058
C 15.765 18.098 7.434
C 14.952 17.368999 6.554
C 13.656 17.773001 6.32
C 13.13 18.848 7.033000000000001
H 15.79 19.902 8.711
H 16.777 17.775 7.627
H 15.327000000000002 16.49 6.05
H 13.06 17.250999 5.587
C 12.059 20.691 7.705
C 11.004 21.608999 7.845
C 9.804 21.301001 7.235
C 9.665 20.146 6.437
C 10.687 19.225 6.2749999999999995
C 11.874 19.517 6.965999999999999
H 11.112 22.525999 8.405
H 8.968 21.969 7.382
H 8.732 19.959 5.926
H 10.568 18.347 5.658
N 13.679 23.622999 7.422
C 13.977 23.139 6.126
C 14.789 22.063999 5.787
C 14.962 21.749001 4.433
C 14.29 22.504999 3.427
C 13.575 23.603001 3.712
C 13.469 23.868 5.108
H 15.275 21.486 6.559
H 15.611 20.927999 4.166
H 14.325 22.228001 2.383
H 13.141 24.195999 2.92
C 12.84 24.686001 7.127
C 12.267 25.649 8.058
C 11.592 26.733 7.515
C 11.616 27.003 6.113
C 12.175 26.059999 5.189
C 12.696 24.921 5.733
H 12.341 25.559999 9.132
H 11.042 27.372 8.19
H 11.205999999999998 27.933001 5.746
H 12.201 26.202 4.119
