54 angstroem
free
N -2.03 -15.453 23.923
N -1.964 -14.74 27.82
C -1.032 -15.222 24.392
C -0.991 -14.824 27.274
C 1.391 -14.865 24.333
C 0.214 -14.943 25.045
C 0.245 -14.876 26.461
C 1.477 -14.726 27.159
C 2.638 -14.62 26.398001
C 2.6 -14.66 24.996
H 1.366 -14.963 23.257
H 1.531 -14.693 28.237
N 3.737 -14.429000000000002 24.219
C 4.399 -15.204 23.266001
C 4.153 -16.583 23.034
C 4.869 -17.208 22.021
C 5.867 -16.528 21.296
C 6.098 -15.172 21.495001
C 5.297 -14.549 22.448
H 3.437 -17.145 23.615999
H 4.645 -18.239 21.792
H 6.468 -17.059 20.572001
H 6.855 -14.635 20.941999
C 4.3069999999999995 -13.2 23.938999
C 3.987 -12.001 24.608999
C 4.646 -10.832 24.207001
C 5.619000000000001 -10.879 23.179001
C 5.964 -12.035 22.516001
C 5.319 -13.201 22.966
H 3.259 -11.978 25.407
H 4.405 -9.896 24.690001
H 6.129 -9.975 22.881001
H 6.683 -12.029 21.709999
N 3.925 -14.606 27.054001
C 4.768 -15.648 27.172001
C 4.567 -16.966999 26.698999
C 5.576 -17.893 26.948999
C 6.834 -17.528 27.506001
C 7.064 -16.198 27.771999000000005
C 6.017 -15.297 27.715
H 3.673 -17.256001 26.166
H 5.377000000000001 -18.924999 26.702
H 7.605 -18.250999 27.725
H 8.06 -15.864 28.025
C 4.608 -13.524 27.652
C 4.204 -12.299 28.107
C 4.971 -11.419 28.844999
C 6.247 -11.809 29.156
C 6.748 -13.038 28.794001
C 5.902 -13.846 28.047001
H 3.194 -12.003 27.863999999999997
H 4.588 -10.462 29.167
H 6.878 -11.124 29.702999
H 7.742 -13.35 29.077999
