54 angstroem
free
N 36.549999 -20.434 18.77
N 39.581001 -22.448999 20.631001
C 37.472 -20.733 18.200001
C 39.650002 -22.216 19.507999
C 38.828999 -20.67 16.200001
C 38.657001 -21.131001 17.497999
C 39.709 -21.851999 18.101
C 40.764 -22.320999 17.409
C 40.943001 -21.858 16.101
C 39.978001 -21.059999 15.463
H 38.081001 -20.018999 15.773
H 41.43 -23.030001 17.877001
N 40.221001 -20.544001 14.166
C 39.236 -20.457001 13.21
C 37.953999 -21.056 13.258
C 37.18099999999999 -20.864 12.112
C 37.535 -20.099001 11.026
C 38.700001 -19.349001 11.109
C 39.542999 -19.540001 12.196
H 37.594002 -21.618999000000002 14.106
H 36.219002 -21.351999 12.061
H 36.918999 -20.087999 10.138
H 38.946999 -18.629999 10.341
C 41.214001 -19.632999 13.681
C 42.422001 -19.312 14.251
C 43.220001 -18.282 13.668
C 42.775002 -17.634001 12.515
C 41.541 -18.011999 11.892
C 40.783001 -18.975 12.545
H 42.736 -19.853001 15.132
H 44.166 -17.990999 14.101
H 43.383999 -16.841999 12.106
H 41.194 -17.586 10.963
N 42.154999 -22.302999 15.461
C 42.287998 -23.075001 14.277
C 41.323002 -23.794001 13.549
C 41.785999 -24.499001 12.417
C 43.183998 -24.559999 12.042
C 44.165001000000004 -23.962999000000003 12.852
C 43.674 -23.188 13.901
H 40.284 -23.804001000000003 13.844
H 41.046001 -25.009001 11.818
H 43.500999 -25.061001 11.14
H 45.223 -24.091999 12.679
C 43.457001 -21.966999 15.827
C 43.949001 -21.236 16.972999999999995
C 45.312 -21.09 17.195
C 46.229 -21.551001 16.275
C 45.752998 -22.287001 15.134
C 44.395 -22.476999 14.911
H 43.276001 -20.784 17.687000000000005
H 45.665001 -20.610001 18.096001
H 47.276001 -21.344 16.441
H 46.439999 -22.712999 14.418
