54 angstroem
free
N -7.523 13.143 40.32
N -3.6119999999999997 13.489 39.123001
C -7.146 12.516 39.462002
C -4.363 12.739 38.634998
C -7.454 10.934 37.666
C -6.595 11.740999999999998 38.397999
C -5.267 11.848 38.02
C -4.819 11.12 36.945999
C -5.657 10.238000000000001 36.223999
C -7.001 10.137 36.638
H -8.507 10.926000000000002 37.903
H -3.785 11.245 36.662998
N -8.03 9.224 36.185001
C -7.954 7.845 36.377998
C -6.863 7.084 36.911999
C -7.019999999999999 5.707 36.995998
C -8.203 5.016 36.471001
C -9.211 5.777 35.962002
C -9.094 7.191 35.948002
H -5.941 7.539 37.244999
H -6.215 5.168 37.473
H -8.331 3.943 36.460999
H -10.084 5.271 35.577000000000005
C -9.348 9.392 35.685001
C -10.001 10.532 35.25
C -11.331 10.474 34.82
C -11.941 9.239 34.688
C -11.305 8.063 35.07
C -10.028000000000002 8.188 35.604
H -9.47 11.473 35.245998
H -11.882 11.375 34.592999
H -12.938 9.191 34.276001
H -11.78 7.1 34.957001
N -5.136 9.743 34.972
C -3.985 9.057 34.723
C -3.1199999999999997 8.488 35.630001
C -2.044 7.736 35.216
C -1.7630000000000001 7.572 33.816002
C -2.615 8.168 32.861
C -3.645 8.985 33.387001
H -3.291 8.635 36.686001
H -1.429 7.281 35.978001
H -0.91 7.001 33.48
H -2.489 8.01 31.799999
C -5.762 9.856000000000002 33.691002
C -6.95 10.507 33.324001
C -7.251 10.562 31.937
C -6.316 10.115 30.938
C -5.105 9.547 31.325001
C -4.882 9.433 32.673
H -7.598 10.943 34.07
H -8.212 10.951 31.635000000000005
H -6.527 10.209 29.882999
H -4.369 9.208 30.611
