54 angstroem
free
N -14.699 -31.417999 41.887001
N -14.151 -33.574001 38.384998
C -15.481 -31.294000999999998 41.071999
C -14.987 -32.832001 38.610001
C -17.440001 -30.299999 40.07
C -16.400999 -31.264 39.950001
C -16.125999 -31.965 38.793999
C -16.819 -31.635000000000005 37.644000999999996
C -17.837 -30.610001 37.75
C -18.209999 -30.025999000000002 38.950001
H -17.643 -29.784 40.997002
H -16.579 -32.144001 36.722
N -19.495001 -29.509001 39.173
C -20.729 -30.068001 38.834998999999996
C -21.027 -31.356001 38.479
C -22.389999 -31.775 38.303001
C -23.382999 -30.841 38.731998
C -23.15 -29.566999 39.198002
C -21.763000000000005 -29.174999 39.122002
H -20.197001 -32.033001 38.338001
H -22.650999000000002 -32.730999 37.874001
H -24.423 -31.129999 38.701
H -23.954000000000004 -28.952999 39.575001
C -19.792999 -28.259001 39.675999
C -18.958 -27.219 40.019001
C -19.507999 -26.021 40.486
C -20.907 -25.761999 40.465
C -21.704 -26.739 40.09400200000001
C -21.166 -27.995001 39.735001
H -17.889 -27.34 39.923
H -18.830999 -25.274 40.874001
H -21.365999 -24.822001 40.730999
H -22.761 -26.517 40.084999
N -18.382 -30.096001 36.514999
C -18.943001 -30.764 35.441002
C -18.736 -32.096001 35.076
C -19.052 -32.525002 33.763
C -19.591999 -31.652 32.777
C -19.642 -30.313 33.039001
C -19.264999 -29.888999999999996 34.346001
H -18.334999 -32.787998 35.801998
H -18.874001 -33.558998 33.504002
H -19.964001 -32.007 31.827
H -19.959 -29.632 32.263
C -18.511999 -28.677 36.194
C -18.174 -27.504 36.89799899999999
C -18.381001 -26.278999 36.265999
C -18.908001 -26.15 34.997002
C -19.273001 -27.26 34.306
C -19.014999 -28.528 34.898998
H -17.767 -27.544001 37.896999
H -18.117001 -25.374001 36.792999
H -19.035999 -25.177999 34.543999
H -19.740999 -27.139999 33.34
