54 angstroem
free
N -31.379 -19.268999 23.469999
N -34.799999 -20.094999 25.521999
C -31.945 -18.452999 23.98
C -34.398998 -19.032 25.391001
C -32.279999 -16.041 24.569
C -32.750999 -17.363001 24.584999
C -33.916 -17.701 25.278999
C -34.627998 -16.656 25.952999
C -34.181 -15.331 25.966999
C -32.966999 -15.063 25.242001
H -31.381001 -15.774 24.035
H -35.547001 -16.877001 26.476
N -32.405998 -13.708 25.120001
C -32.212002 -12.768 26.149
C -32.234001 -13.084 27.472
C -31.98 -12.025 28.368999
C -31.795 -10.706 27.912001
C -31.681999 -10.441 26.517
C -31.875 -11.548 25.691999
H -32.436001 -14.098 27.785
H -31.926001 -12.228 29.427999
H -31.740999 -9.901 28.629999
H -31.462999 -9.465 26.111
C -32.252998 -12.956 24.035
C -32.367001 -13.426 22.754
C -32.080002 -12.554 21.705999
C -31.684999 -11.202 21.929001
C -31.589001 -10.689999999999998 23.233999
C -31.841999 -11.635 24.225
H -32.671001 -14.447 22.577
H -32.167 -12.934 20.698
H -31.454 -10.555 21.094999
H -31.344 -9.662 23.455999
N -35.025002 -14.258 26.431999
C -35.470001 -14.024 27.736
C -35.226002 -14.775 28.885
C -35.865002 -14.399 30.049999
C -36.608002 -13.209 30.181
C -36.868999 -12.477 29.087999
C -36.28599899999999 -12.889 27.863001
H -34.558998 -15.624 28.872
H -35.779999 -15.064 30.896999
H -36.980999 -12.855 31.129999
H -37.507999 -11.612 29.187
C -35.666 -13.275999999999998 25.723
C -35.717999 -13.051 24.344
C -36.491001 -11.995 23.789
C -37.238998 -11.229 24.6
C -37.159 -11.352 25.972
C -36.438999 -12.43 26.51
H -35.15000199999999 -13.703 23.698
H -36.511002 -11.772 22.732
H -37.905998 -10.511 24.146999
H -37.646 -10.626 26.606000999999996
