54 angstroem
free
N -2.801 -6.098 16.198999
N -2.483 -7.381 11.975
C -2.993 -7.112 15.706
C -2.703 -8.02 12.845
C -3.774 -9.351 16.240999
C -3.324 -8.445 15.242
C -3.117 -8.9 13.967
C -3.542 -10.122 13.553
C -4.038 -11.029 14.473
C -4.089 -10.668 15.841
H -3.874 -9.048 17.273001
H -3.485 -10.368 12.503
N -4.681 -11.376 16.936001
C -4.104 -11.587 18.159
C -2.822 -11.211 18.660999
C -2.56 -11.457 20.021
C -3.506 -12.081 20.868999
C -4.735 -12.518 20.422001
C -5.003 -12.223 19.028
H -2.073 -10.754000000000001 18.032
H -1.604 -11.158 20.426001
H -3.277 -12.233 21.914
H -5.412000000000001 -13.033 21.087999
C -5.906 -12.007 17.032
C -6.825 -12.399 16.006001
C -7.989 -13.101 16.287001
C -8.279 -13.534 17.584
C -7.312999999999999 -13.308000000000002 18.596001
C -6.178 -12.521 18.273001
H -6.632 -12.154 14.972
H -8.679 -13.314 15.484
H -9.216 -14.025 17.797001
H -7.437 -13.723 19.586
N -4.448 -12.282 13.908
C -3.937 -13.543 14.106
C -3.051 -13.95 15.07
C -2.779 -15.335 15.147
C -3.419 -16.254999 14.325
C -4.257 -15.824 13.292
C -4.435 -14.433 13.16
H -2.595 -13.226 15.729
H -2.057 -15.705 15.86
H -3.264 -17.311001 14.49
H -4.74 -16.527 12.631
C -5.448 -12.37 13.009
C -6.248 -11.359000000000002 12.515
C -7.268 -11.75 11.595
C -7.377 -13.049 11.128
C -6.486 -14.023 11.557
C -5.53 -13.704 12.543
H -6.086999999999999 -10.337 12.826
H -7.989 -11.031 11.235
H -8.16 -13.303 10.429
H -6.534 -15.014 11.129
