54 angstroem
free
N -18.35 -13.171 -11.842
N -17.708 -9.017 -13.255
C -17.427 -12.518 -11.671000000000001
C -16.92 -9.608 -12.645
C -15.167 -12.342 -10.734
C -16.209999 -11.73 -11.416
C -15.957 -10.368 -11.93
C -14.733 -9.762 -11.743
C -13.676 -10.378 -11.02
C -13.941 -11.658 -10.513
H -15.309 -13.35 -10.374
H -14.598 -8.781 -12.173999999999998
N -12.9 -12.354 -9.851
C -12.776 -12.633 -8.499
C -13.792000000000002 -12.587 -7.468
C -13.322 -12.711 -6.107
C -11.968 -12.961 -5.819
C -11.002 -13.046 -6.819
C -11.43 -12.946 -8.151
H -14.84 -12.468 -7.702
H -14.006 -12.613 -5.277
H -11.658 -13.093 -4.792
H -9.96 -13.184 -6.57
C -11.662 -12.566 -10.369
C -11.161 -12.321 -11.693
C -9.922 -12.818 -12.124
C -9.009000000000002 -13.255 -11.148
C -9.387 -13.278 -9.77
C -10.689999999999998 -12.895 -9.446
H -11.74 -11.738 -12.394
H -9.679 -12.861999999999998 -13.175
H -8.023 -13.571 -11.454
H -8.702 -13.578 -8.991
N -12.477 -9.622 -10.721
C -12.181 -9.004 -9.52
C -12.846 -9.281 -8.291
C -12.498 -8.524 -7.192
C -11.559 -7.482000000000001 -7.28
C -10.816 -7.21 -8.5
C -11.203 -8.007 -9.583
H -13.598 -10.05 -8.194
H -12.968 -8.751 -6.247
H -11.407 -6.879999999999999 -6.396000000000001
H -10.034 -6.471 -8.596
C -11.602 -9.019 -11.575
C -11.403 -9.341 -12.901
C -10.503 -8.593 -13.725
C -9.812 -7.531 -13.19
C -10.004 -7.194 -11.803
C -10.86 -7.988 -10.998
H -11.955 -10.181 -13.294999999999998
H -10.342 -8.834 -14.766
H -9.144 -6.982000000000001 -13.835
H -9.504 -6.343 -11.366
