54 angstroem
free
N 13.477 -26.129 -8.637
N 15.826 -23.521999 -10.185
C 14.095 -25.507 -7.878
C 15.72 -23.546000000000003 -9.059
C 14.738 -24.676001 -5.62
C 14.913000000000002 -24.625999 -7.005
C 15.744 -23.750999 -7.645
C 16.459999 -22.787001 -6.878
C 16.346001 -22.868999 -5.48
C 15.38 -23.731001 -4.851
H 14.12 -25.43 -5.156
H 17.066999 -22.021 -7.338
N 15.258 -23.888 -3.463
C 14.718 -22.917998999999995 -2.598
C 14.008 -21.757 -2.922
C 13.458 -20.997999 -1.912
C 13.557 -21.431999 -0.591
C 14.215 -22.614 -0.255
C 14.736 -23.368999 -1.283
H 13.884 -21.447001 -3.949
H 12.955 -20.073 -2.152
H 13.111 -20.836 0.192
H 14.318 -22.934999 0.771
C 15.724 -24.874001000000003 -2.633
C 16.493 -25.986 -2.973
C 16.892 -26.966999 -1.999
C 16.509001 -26.729 -0.658
C 15.796 -25.546000000000003 -0.241
C 15.485 -24.612 -1.242
H 16.785999 -26.087999 -4.008
H 17.455999 -27.849001 -2.264
H 16.771999 -27.479 0.073
H 15.505 -25.365999 0.783
N 17.030001 -21.833 -4.796
C 16.899 -20.486 -4.961
C 15.767 -19.791 -5.448
C 15.778 -18.440001 -5.635
C 16.865999 -17.646 -5.235
C 17.919001 -18.257999 -4.503
C 17.900999 -19.688 -4.373
H 14.854 -20.316 -5.688
H 14.913000000000002 -17.993 -6.104
H 16.893999 -16.594999 -5.484
H 18.702 -17.66 -4.061
C 18.243 -21.836 -4.077
C 18.966999 -23.030001 -3.79
C 20.216 -22.938999 -3.177
C 20.74 -21.656 -2.913
C 20.077999 -20.495001 -3.26
C 18.877001 -20.622 -3.839
H 18.57 -24.003 -4.038
H 20.761 -23.834 -2.915
H 21.697001 -21.556 -2.42
H 20.49 -19.513 -3.082
