54 angstroem
free
N 3.762 -9.712 1.071
N 1.645 -12.84 -1.054
C 4.026 -10.819 1.1110000000000002
C 2.434 -12.995 -0.259
C 5.41 -12.612 1.842
C 4.215 -12.278 1.276
C 3.384 -13.306 0.743
C 3.697 -14.639000000000001 0.914
C 4.809 -15.018 1.63
C 5.704 -13.967 2.084
H 6.106 -11.824000000000002 2.092
H 3.063 -15.398 0.481
N 7.0 -14.141 2.736
C 8.119 -14.867 2.342
C 8.309 -15.531 1.18
C 9.474000000000002 -16.358999 0.989
C 10.457 -16.521 1.993
C 10.273 -15.764 3.1980000000000004
C 9.081 -14.999 3.342
H 7.549 -15.403 0.423
H 9.616 -16.879999 0.054
H 11.298 -17.183001 1.848
H 11.016 -15.77 3.982
C 7.431000000000001 -13.701 4.042
C 6.678 -12.771 4.793
C 7.298 -12.252 5.951
C 8.571 -12.712 6.306
C 9.296 -13.66 5.6
C 8.671 -14.109 4.401
H 5.682 -12.472 4.498
H 6.804 -11.51 6.56
H 9.03 -12.303 7.194
H 10.254 -14.015000000000002 5.95
N 5.033 -16.431999 1.78
C 5.295 -17.375999 0.813
C 5.324 -17.143 -0.603
C 5.655 -18.209999 -1.423
C 5.817 -19.492001 -0.949
C 5.646 -19.726999 0.408
C 5.452 -18.634001 1.283
H 5.1 -16.181999 -1.043
H 5.793 -18.035 -2.48
H 6.071 -20.295 -1.625
H 5.665 -20.740999 0.777
C 4.795 -17.211 2.9050000000000002
C 4.076 -16.878 4.06
C 3.885 -17.929001 5.017
C 4.225 -19.247 4.675
C 4.825 -19.627001 3.516
C 5.094 -18.542999 2.658
H 3.695 -15.878 4.203
H 3.484 -17.726 5.999
H 4.004 -20.045 5.369
H 5.059 -20.66 3.305
