54 angstroem
free
N 3.713 31.965 37.470001
N 5.92 35.567001 37.813
C 4.585 32.111 38.143002
C 6.027 34.685001 38.512001
C 5.924 31.195999 39.914001
C 5.717 32.301998 39.049999
C 6.314 33.551998 39.313
C 7.312 33.66 40.247002
C 7.646 32.518002 40.977001
C 6.875 31.351999 40.896999
H 5.378 30.268 39.826
H 7.812999999999999 34.604 40.402
N 6.917 30.271999 41.799999
C 5.897 29.916 42.653
C 4.66 30.554001 42.785
C 3.841 30.202 43.914001
C 4.331 29.237 44.847
C 5.586 28.587 44.647999
C 6.354 28.975 43.577
H 4.353 31.284 42.049999
H 2.872 30.656 44.05799900000001
H 3.742 28.995001 45.719002
H 5.951 27.809 45.301998000000005
C 8.013 29.518999 42.16
C 9.258 29.579 41.595001
C 10.306 28.816999 42.183998
C 9.973 28.037001 43.349998
C 8.691 27.947001 43.856998
C 7.735 28.694 43.223999
H 9.407 30.198999 40.723999
H 11.302 28.829 41.766998
H 10.736 27.483999 43.877998
H 8.448 27.325001 44.706001
N 8.621 32.743 41.98
C 8.33 33.002998 43.327
C 7.055 33.212002 43.935001
C 7.085 33.473999 45.328999
C 8.248 33.591999 46.087002
C 9.531 33.349998 45.500999
C 9.435 33.042 44.125999
H 6.131 33.174 43.376999
H 6.149 33.594002 45.855999
H 8.156 33.870998 47.125999
H 10.467 33.396 46.036999
C 9.987 32.713001 41.952999
C 10.842999999999998 32.407001 40.884998
C 12.257000000000001 32.241001 41.198002
C 12.782 32.324001 42.492001
C 11.975 32.629002 43.588001
C 10.561 32.735001 43.231998
H 10.441 32.305 39.888
H 12.969 32.042 40.410999
H 13.836 32.148998 42.650002
H 12.389 32.764 44.577
