54 angstroem
free
N 6.417 17.860001 19.6
N 5.553 21.246 17.253
C 7.2589999999999995 18.33 18.99
C 6.65 20.823999 17.284
C 9.402 18.389999 18.016001
C 8.18 19.003 18.155001
C 7.935 20.191999 17.410999
C 8.934 20.809 16.596001
C 10.125 20.1 16.423
C 10.401 18.948999 17.198
H 9.576 17.466999000000005 18.549999
H 8.795 21.773001 16.129
N 11.497 18.153998999999995 16.886
C 12.649 17.908001 17.605
C 13.142 18.527 18.791
C 14.439 18.115998999999995 19.266001
C 15.101 17.09 18.698
C 14.616 16.431999 17.548
C 13.435 16.948999 17.009001
H 12.557 19.274 19.306999
H 14.941 18.603001 20.09
H 16.027 16.792 19.167
H 15.118 15.584 17.107
C 11.551 17.250999 15.807
C 10.599 17.042 14.851
C 10.886 16.202999 13.781
C 12.071 15.465 13.742
C 13.024 15.632 14.744
C 12.641 16.471001 15.81
H 9.64 17.530001 14.941
H 10.179 16.124001 12.969
H 12.25 14.766 12.939
H 13.989 15.148 14.698
N 11.064 20.684 15.568
C 12.263 21.311001 15.925
C 12.835 21.374001 17.164
C 14.025 22.084999 17.412001
C 14.61 22.735001 16.313999
C 14.029 22.665001 14.97
C 12.844 21.973 14.879
H 12.337 20.85 17.966
H 14.466 22.129999 18.396
H 15.515 23.292999 16.504999
H 14.457 23.105 14.081
C 10.921 21.094 14.226
C 9.78 20.948 13.505
C 9.706 21.454 12.212
C 10.788 22.115999000000002 11.694
C 11.944 22.327 12.426
C 11.922 21.917999 13.747
H 8.942 20.434999000000005 13.954
H 8.814 21.334999 11.614000000000003
H 10.729 22.483 10.68
H 12.818 22.785999 11.989
