54 angstroem
free
N 12.858 5.418 43.306
N 13.338 8.978 41.028999
C 13.901 5.783 42.981998
C 14.215 8.397 41.410999
C 16.257 5.495 42.66
C 15.16 6.365 42.514
C 15.32 7.595 41.833
C 16.579 8.035 41.528999
C 17.691 7.223999999999999 41.775002
C 17.51 5.9 42.312
H 16.136 4.494 43.047001
H 16.694 9.018 41.097
N 18.555 4.945 42.52
C 18.954 4.258 43.631001
C 18.362 4.331 44.896999
C 18.923 3.597 45.963001
C 20.018000000000004 2.789 45.728001
C 20.533001 2.593 44.480999
C 19.976 3.34 43.426998
H 17.486 4.944 45.048
H 18.514999 3.653 46.960998999999994
H 20.493 2.286 46.556999
H 21.337 1.887 44.337002
C 19.379 4.43 41.536999
C 19.301001 4.692 40.167
C 20.073999 3.987 39.229
C 20.952999 2.965 39.751999
C 21.110001 2.773 41.129002
C 20.169001 3.416 41.977001
H 18.624001 5.461 39.823002
H 19.997999 4.216 38.176998
H 21.511999 2.321 39.089001
H 21.912001 2.162 41.515999
N 18.988001 7.787 41.519001
C 20.115 7.609 42.402
C 20.113001 7.509 43.813
C 21.367001 7.437 44.499001
C 22.507 7.605999999999999 43.798
C 22.511 7.887 42.403
C 21.316 7.84 41.741001
H 19.177999 7.489 44.354
H 21.454 7.253 45.558998
H 23.424999 7.515 44.359001
H 23.407 8.132 41.853001
C 19.535 8.207 40.299999
C 18.917999 8.42 39.063998999999995
C 19.778999 8.804 37.971001
C 21.18 8.954 38.136002
C 21.756001 8.692 39.367001
C 20.952999 8.235 40.404999
H 17.85 8.297 38.960999
H 19.358999 8.986 36.993
H 21.812 9.270000000000001 37.319
H 22.816 8.841 39.515999
