54 angstroem
free
N 2.729 -7.656 30.294001
N 2.117 -3.543 30.014999
C 3.545 -6.895 30.436001
C 3.13 -3.995 30.334999
C 5.923 -6.434 30.797001
C 4.626 -5.975 30.663
C 4.447 -4.564 30.541
C 5.571 -3.748 30.323999
C 6.882 -4.207 30.486
C 7.004 -5.592 30.833
H 6.101 -7.496 30.879
H 5.419 -2.723 30.018
N 8.292 -6.227 30.947001
C 9.361 -6.03 31.865
C 9.521 -5.029 32.789001
C 10.772 -4.968 33.492001
C 11.869 -5.756000000000001 33.141998
C 11.795 -6.608 32.085999
C 10.524 -6.76 31.481001
H 8.712 -4.333 32.952
H 10.896 -4.295 34.327
H 12.792000000000002 -5.705000000000001 33.700001
H 12.681 -7.127 31.750999
C 8.833 -7.217 30.091
C 8.165 -7.782 29.023001
C 8.769 -8.672 28.261999
C 10.056 -9.104 28.504999
C 10.747 -8.6 29.617001
C 10.157 -7.529 30.327999
H 7.146 -7.521 28.778
H 8.2 -9.053 27.427
H 10.513 -9.821 27.839001
H 11.696 -9.02 29.916
N 7.96 -3.375 30.045
C 8.503 -2.235 30.639
C 8.271 -1.715 31.966000000000005
C 9.048 -0.637 32.483002
C 10.103 -0.147 31.679001
C 10.347 -0.632 30.375999
C 9.394 -1.546 29.881001
H 7.498 -2.142 32.587002
H 8.843 -0.207 33.452
H 10.746 0.625 32.075001
H 11.204 -0.325 29.795
C 8.656 -3.401 28.837
C 8.508 -4.37 27.782
C 9.335 -4.174 26.601999
C 10.196 -3.088 26.506001
C 10.32 -2.147 27.531
C 9.516 -2.336 28.643999
H 7.817 -5.196 27.868999
H 9.31 -4.859 25.768
H 10.787 -2.97 25.610001
H 11.004 -1.3139999999999998 27.466
