54 angstroem
free
N -14.207 -16.813 21.445999
N -10.888 -14.176 20.716
C -13.498 -16.937 20.556
C -11.131 -15.056 20.039
C -12.825 -18.110000999999997 18.556999
C -12.629 -17.049 19.395
C -11.548 -16.152 19.188999
C -10.662 -16.371 18.149
C -10.902 -17.409 17.271999
C -12.009 -18.281 17.454
H -13.62 -18.811001000000005 18.766001
H -9.795 -15.739 18.023001
N -12.329 -19.245001 16.51
C -12.078 -20.570999 16.695
C -11.052 -21.110001 17.482
C -11.045 -22.489000000000004 17.575000999999997
C -11.994 -23.294001 16.892
C -13.061 -22.816999 16.191
C -13.101 -21.405001 16.136999
H -10.314 -20.502001 17.985001
H -10.285 -22.944 18.193001
H -11.893999999999998 -24.368999 16.907
H -13.785 -23.476999 15.734
C -13.436 -19.190001 15.664
C -14.06 -18.052 15.132
C -15.205 -18.233999 14.377
C -15.734 -19.518999 14.035
C -15.071 -20.686001 14.513
C -13.971 -20.469999 15.41
H -13.668 -17.059999 15.3
H -15.705 -17.337999 14.041
H -16.622 -19.607 13.426
H -15.384 -21.674999 14.213
N -9.89 -17.608999 16.263
C -8.675 -18.250999 16.464001
C -8.219 -19.023999999999997 17.566
C -6.939 -19.434 17.528
C -6.03 -19.239 16.458
C -6.484 -18.514999 15.33
C -7.821 -18.058001 15.324
H -8.833 -19.292999 18.413
H -6.618 -19.953999999999997 18.419001
H -5.024 -19.631001 16.5
H -5.827 -18.316 14.496
C -9.874999999999998 -17.211 14.939
C -10.877 -16.551001 14.288
C -10.685 -15.983000000000002 13.004
C -9.404 -16.073999 12.418
C -8.35 -16.77 13.001
C -8.669 -17.341999 14.294
H -11.829 -16.476999 14.793
H -11.496 -15.493 12.484
H -9.22 -15.584 11.473
H -7.394 -16.858 12.508
