54 angstroem
free
N -20.323999 17.615 30.554001
N -21.841999 21.212999 32.516998
C -19.841 18.111 31.437
C -20.903999 20.648001 32.84
C -18.011 18.177 33.037998
C -19.218 18.74 32.560001
C -19.698999 19.879 33.200001
C -19.091999 20.319 34.419998
C -18.013 19.68 34.96600000000001
C -17.474001 18.565001 34.278000000000006
H -17.492001 17.438999 32.445
H -19.466 21.177999 34.958
N -16.370001 17.792 34.693001
C -16.208 17.198 35.903
C -17.271 17.045 36.868
C -16.914 16.318001 37.986
C -15.657 15.817 38.160999
C -14.623 15.946 37.245998
C -14.922 16.709 36.133998999999996
H -18.267 17.447001 36.759998
H -17.649 16.132999 38.755001
H -15.466999999999999 15.285 39.081001
H -13.657 15.486 37.389999
C -15.124 17.552999 34.130001
C -14.704 18.011999 32.894001
C -13.419 17.73 32.506001
C -12.478 17.056 33.325001
C -12.879 16.688999 34.59
C -14.194 16.952999 34.937
H -15.362 18.576 32.249001
H -13.136 18.052 31.514999
H -11.477 16.827 32.992001
H -12.194 16.216 35.278
N -17.499001000000003 20.396 36.058998
C -18.002001 20.521 37.388
C -19.134001 19.888 37.95000100000001
C -19.563999 20.242001 39.216
C -18.749001 21.087999 39.966999
C -17.601999 21.708 39.490002
C -17.201 21.316999 38.195999
H -19.674999 19.127001 37.408001
H -20.500999 19.871 39.603001
H -19.025999 21.278 40.993
H -17.063999 22.434999000000005 40.078999
C -16.289 21.117001 36.089001
C -15.319 21.252999999999997 35.063
C -14.145 21.955 35.331001
C -14.042 22.591000000000005 36.578999
C -14.935 22.405001 37.651001
C -16.129 21.763000000000005 37.327
H -15.474 20.825001 34.084
H -13.349 22.004 34.602001
H -13.217 23.273001 36.724998
H -14.718 22.733 38.655998
