54 angstroem
free
N -11.058 -43.594002 38.793999
N -13.473 -40.854 36.785
C -11.857 -42.943000999999995 39.272999
C -13.616 -40.970001 37.924
C -13.017 -42.477001 41.303001
C -12.939 -42.240002 39.951
C -13.696 -41.255001 39.271999
C -14.524 -40.473 40.037998
C -14.595 -40.629002 41.408001
C -13.915 -41.666 42.057999
H -12.411 -43.254002 41.745998
H -15.129 -39.721001 39.555
N -14.194 -42.123001 43.361
C -15.204 -43.034 43.747002
C -16.211 -43.589001 42.962002
C -17.231000999999996 -44.408001 43.525002
C -17.171 -44.834 44.875999
C -16.115 -44.386002 45.668999
C -15.2 -43.485001 45.077999
H -16.201 -43.382 41.902
H -18.068001 -44.713001 42.915001
H -17.919001 -45.491001 45.294998
H -16.01 -44.720001 46.691002000000005
C -13.477 -42.046001 44.570999
C -12.324 -41.346001 44.816002
C -11.675 -41.400002 46.083
C -12.181 -42.224998 47.057999
C -13.364 -42.98799900000001 46.837002
C -14.011 -42.803001 45.588001
H -11.925 -40.75 44.008999
H -10.796 -40.813 46.305
H -11.65 -42.275002 47.998001
H -13.751 -43.672001 47.577
N -15.508 -39.794998 42.037998
C -16.907 -39.880001 41.99399900000001
C -17.667 -40.511002 41.026001
C -19.045 -40.388 40.999001
C -19.705 -39.752998 42.097
C -18.945999 -39.256001 43.130001
C -17.594 -39.220001 43.050999
H -17.174 -41.112 40.277
H -19.587 -40.775002 40.148998
H -20.778999 -39.647999 42.145
H -19.424 -38.886002 44.025002
C -15.338 -39.161999 43.273998
C -14.104000000000001 -38.743 43.823002
C -14.067 -38.034 45.004002
C -15.32 -37.560001 45.592999
C -16.518 -37.966999 45.041
C -16.514 -38.75899900000001 43.908001
H -13.17 -38.970001 43.331001
H -13.099 -37.858002 45.448002
H -15.362 -36.898998 46.445999
H -17.452 -37.668999 45.493
