54 angstroem
free
N 14.002 -5.109 -10.272
N 15.17 -2.266 -12.886
C 13.832 -3.986 -10.101
C 14.601000000000003 -1.922 -11.979
C 13.061 -2.252 -8.568
C 13.635 -2.55 -9.812
C 13.937 -1.55 -10.716
C 13.732 -0.219 -10.383
C 13.145 0.156 -9.177
C 12.86 -0.872 -8.268
H 12.79 -3.041 -7.882
H 14.038 0.545 -11.082
N 12.285 -0.663 -7.005
C 10.957 -0.169 -6.736
C 9.969 -0.071 -7.706
C 8.803 0.459 -7.289
C 8.66 0.961 -5.989
C 9.63 0.929 -4.999
C 10.786 0.27 -5.434
H 10.1 -0.38899999999999996 -8.73
H 7.986 0.481 -7.995
H 7.716 1.414 -5.726
H 9.502 1.362 -4.017
C 12.921 -0.405 -5.836
C 14.264 -0.671 -5.563
C 14.713 -0.551 -4.234
C 13.783 -0.203 -3.168
C 12.483 0.18 -3.4480000000000004
C 12.097 0.097 -4.818
H 14.936 -0.961 -6.357
H 15.761 -0.725 -4.034
H 14.069 -0.231 -2.127
H 11.823 0.517 -2.662
N 12.985 1.514 -8.829
C 12.172 2.439 -9.48
C 11.086 2.134 -10.324
C 10.333 3.195 -10.802
C 10.584 4.569 -10.473
C 11.705 4.864 -9.741
C 12.469 3.794 -9.253
H 10.839 1.118 -10.597
H 9.514 2.94 -11.458
H 9.934 5.377000000000001 -10.774
H 11.974 5.893 -9.556
C 13.812 2.377 -8.091
C 14.939 2.003 -7.326
C 15.726 2.971 -6.712
C 15.492 4.315 -6.905
C 14.436 4.709 -7.752
C 13.6 3.71 -8.305
H 15.202 0.962 -7.207999999999999
H 16.541 2.672 -6.07
H 16.118 5.04 -6.406
H 14.272 5.753 -7.972
